﻿AID|UserID|CompanyID|IsDeleted
1|51|28|False
2|51|28|False
3|51|28|True
4|7|18|False
5|7|18|False
6|7|18|True
7|54|31|False
8|55|19|False
9|51|1|False
10|54|31|False
11|54|31|True
12|55|18|False
13|62|1|False
