﻿AID|HolidayListID|StockExchangeCode|HolidayName|HolidayDate|Viewable|Active
1|1|SGX|Deepavali|2014-10-22 00:00:00|False|True
2|2|ASX|test|2014-11-16 00:00:00|False|True
3|2|ASX|test|2014-11-16 00:00:00|False|True
4|2|ASX|test|2014-11-16 00:00:00|False|True
5|2|ASX|test|2014-11-16 00:00:00|False|True
6|2|ASX|test|2014-04-11 00:00:00|False|True
7|1|SGX|Deepavali|2014-10-22 00:00:00|False|True
8|1|SGX|Deepavali|2014-10-31 00:00:00|False|True
9|1|SGX|Deepavali|2014-10-31 00:00:00|False|True
10|1|SGX|Deepavali|2014-10-31 00:00:00|False|False
11|3|ASX|test|2014-03-11 00:00:00|False|True
12|2|ASX|test|2014-04-11 00:00:00|False|True
13|2|ASX|test|2014-11-03 00:00:00|False|True
14|2|ASX|test|2014-11-03 00:00:00|False|True
15|2|ASX|test|2014-11-03 00:00:00|False|True
16|2|ASX|test|2014-11-03 00:00:00|False|True
17|2|ASX|test|2014-11-03 00:00:00|False|True
18|2|ASX|test|2014-11-03 00:00:00|False|True
19|2|ASX|test|2014-11-03 00:00:00|False|True
20|2|ASX|test|2014-11-03 00:00:00|False|True
21|2|ASX|test|2014-11-03 00:00:00|False|False
22|4|ASX|test|2014-03-11 00:00:00|False|True
23|4|ASX|test|2014-03-11 00:00:00|False|True
24|4|ASX|test|2014-03-11 00:00:00|False|False
25|3|ASX|test|2014-03-11 00:00:00|False|True
26|3|ASX|test|2014-03-11 00:00:00|False|False
27|5|ASX|Diwali|2014-11-14 00:00:00|False|True
28|6|ASX|Diwali|2014-11-14 00:00:00|False|True
29|7|AUSEX|sd|2014-02-11 00:00:00|False|True
30|8|HKEX|sd|2014-11-26 00:00:00|False|True
31|9|ASX|ss|2014-11-20 00:00:00|False|True
32|9|ASX|ss|2014-11-20 00:00:00|False|True
33|9|ASX|ss3333333333333333333333333333|2014-11-20 00:00:00|False|True
34|9|ASX|ss3333333333333333333333333333|2014-11-20 00:00:00|False|True
35|9|ASX|ss3333333333333333333333333333|2014-11-19 00:00:00|False|True
36|9|ASX|ss3333333333333333333333333333|2014-11-19 00:00:00|False|True
37|9|ASX|ss3333333333333333333333333333|2014-11-19 00:00:00|False|False
38|5|ASX|Diwali|2014-11-14 00:00:00|False|True
39|5|ASX|Diwali|2014-11-14 00:00:00|False|False
40|8|HKEX|sd|2014-11-26 00:00:00|False|True
41|8|HKEX|sd|2014-11-26 00:00:00|False|False
42|7|AUSEX|sd|2014-02-11 00:00:00|False|True
43|7|AUSEX|sd|2014-02-11 00:00:00|False|False
44|10|ASX|Diwali2|2014-11-21 00:00:00|False|True
45|11|ASX|Diwali3|2014-11-20 00:00:00|False|True
46|10|ASX|Diwali2|2014-11-21 00:00:00|False|True
47|10|ASX|Diwali2|2014-11-21 00:00:00|False|False
48|11|ASX|Diwali3|2014-11-20 00:00:00|False|True
49|11|ASX|Diwali3|2014-11-18 00:00:00|False|True
50|11|ASX|Diwali3|2014-11-18 00:00:00|False|True
51|11|SGX|Diwali3|2014-11-18 00:00:00|False|True
52|11|SGX|Diwali3|2014-11-18 00:00:00|False|True
53|11|SGX|Diwali3|2014-11-19 00:00:00|False|True
54|12|SGX|h1|2014-11-18 00:00:00|False|True
55|13|SGX|h2|2014-11-17 00:00:00|False|True
56|6|ASX|Diwali|2014-11-14 00:00:00|False|True
57|6|ASX|Diwali|2014-11-14 00:00:00|False|False
58|14|SGX|Dragon Day|2014-11-27 00:00:00|False|True
59|14|SGX|Dragon Day|2014-11-27 00:00:00|False|True
60|14|SGX|Dragon Day|2014-11-27 00:00:00|False|False
61|15|ASX|Happy Day|2014-11-27 00:00:00|False|True
62|16|NYSE|Sad Day|2014-11-28 00:00:00|False|True
63|11|SGX|Diwali3|2014-11-19 00:00:00|False|True
64|11|SGX|Diwali3|2014-11-19 00:00:00|False|False
65|12|SGX|h1|2014-11-18 00:00:00|False|True
66|12|SGX|h1|2014-11-18 00:00:00|False|False
67|13|SGX|h2|2014-11-17 00:00:00|False|True
68|13|SGX|h2|2014-11-17 00:00:00|False|False
69|17|SGX|Tangs Day|2014-11-26 00:00:00|False|True
70|17|SGX|Tangs Day|2014-11-26 00:00:00|False|True
71|17|SGX|Tangs Day|2014-11-27 00:00:00|False|True
72|17|SGX|Tangs Day|2014-11-27 00:00:00|False|True
73|17|SGX|Tangs Day|2014-11-27 00:00:00|False|False
74|18|SGX|Tangs Day|2014-11-28 00:00:00|False|True
75|18|SGX|Tangs Day|2014-11-28 00:00:00|False|True
76|18|SGX|Tangs Day|2014-11-27 00:00:00|False|True
77|19|HKEX|Hong Kong Day|2014-11-28 00:00:00|False|True
78|20|KLSE|Malaysia Day|2014-11-28 00:00:00|False|True
79|21|SSE|Rainy Day|2014-11-28 00:00:00|False|True
80|22|SGX|ABC Day|2014-01-12 00:00:00|False|True
81|23|HKEX|DEF|2014-01-12 00:00:00|False|True
82|24|ASX|GHI|2014-01-12 00:00:00|False|True
83|25|SSE|JKL|2014-01-12 00:00:00|False|True
84|26|KSE|Kim Chi Day|2014-01-12 00:00:00|False|True
85|27|NSE|New Day|2014-01-12 00:00:00|False|True
86|18|SGX|Tangs Day|2014-11-27 00:00:00|False|True
87|18|SGX|Tangs Day|2014-01-12 00:00:00|False|True
88|18|SGX|Tangs Day|2014-01-12 00:00:00|False|True
89|18|SGX|Tangs Day|2014-01-12 00:00:00|False|False
90|22|SGX|ABC Day|2014-01-12 00:00:00|False|True
91|22|SGX|ABC Day|2014-01-12 00:00:00|False|True
92|22|SGX|ABC Day|2014-01-12 00:00:00|False|True
93|22|SGX|ABC Day|2014-01-12 00:00:00|False|True
94|22|SGX|ABC Day|2014-01-12 00:00:00|False|True
95|22|SGX|ABC Day|2014-01-12 00:00:00|False|True
96|22|SGX|ABC Day|2014-01-12 00:00:00|False|True
97|22|SGX|ABC Day|2014-01-12 00:00:00|False|True
98|15|ASX|Happy Day|2014-11-27 00:00:00|False|True
99|15|ASX|Happy Day|2014-11-28 00:00:00|False|True
100|22|SGX|ABC Day|2014-01-12 00:00:00|False|True
101|22|SGX|ABC Day|2014-11-28 00:00:00|False|True
102|22|SGX|ABC Day|2014-11-28 00:00:00|False|True
103|22|SGX|ABC Day|2014-06-11 00:00:00|False|True
104|22|SGX|ABC Day|2014-06-11 00:00:00|False|True
105|22|SGX|ABC Day|2014-01-12 00:00:00|False|True
106|22|SGX|ABC Day|2014-01-12 00:00:00|False|True
107|22|SGX|ABC Day|2014-01-01 00:00:00|False|True
108|22|SGX|ABC Day|2014-01-01 00:00:00|False|True
109|22|SGX|ABC Day|2014-11-28 00:00:00|False|True
110|22|SGX|ABC Day|2014-11-28 00:00:00|False|True
111|22|SGX|ABC Day|2014-01-12 00:00:00|False|True
112|22|SGX|ABC Day|2014-01-12 00:00:00|False|True
113|22|SGX|ABC Day|2014-01-12 00:00:00|False|True
114|22|SGX|ABC Day|2014-01-12 00:00:00|False|True
115|22|SGX|ABC Day|2014-02-11 00:00:00|False|True
116|28|UAT123|tt|2014-12-01 00:00:00|False|True
117|22|SGX|ABC Day|2014-02-11 00:00:00|False|True
118|22|SGX|ABC Day|2014-12-01 00:00:00|False|True
119|29|SGX|ABC1|2014-12-02 00:00:00|False|True
120|29|SGX|ABC1|2014-12-02 00:00:00|False|True
121|29|SGX|ABC1|2014-12-02 00:00:00|False|False
122|19|HKEX|Hong Kong Day|2014-11-28 00:00:00|False|True
123|19|HKEX|Hong Kong Day|2014-12-02 00:00:00|False|True
124|23|HKEX|DEF|2014-01-12 00:00:00|False|True
125|23|HKEX|DEF|2014-01-12 00:00:00|False|False
126|15|ASX|Happy Day|2014-11-28 00:00:00|False|True
127|15|ASX|Happy Day|2014-11-28 00:00:00|False|False
128|24|ASX|GHI|2014-01-12 00:00:00|False|True
129|24|ASX|GHI|2014-12-02 00:00:00|False|True
130|24|ASX|GHI|2014-12-02 00:00:00|False|True
131|24|ASX|GHI|2014-12-01 00:00:00|False|True
132|19|HKEX|Hong Kong Day|2014-12-02 00:00:00|False|True
133|19|HKEX|Hong Kong Day|2014-12-05 00:00:00|False|True
134|24|ASX|GHI|2014-12-01 00:00:00|False|True
135|24|ASX|GHI|2014-12-04 00:00:00|False|True
136|19|HKEX|Hong Kong Day|2014-12-05 00:00:00|False|True
137|19|HKEX|Hong Kong Day|2014-12-04 00:00:00|False|True
138|30|HKEX|King Kong Day|2014-12-29 00:00:00|False|True
139|31|Bahrain|test|2015-01-09 00:00:00|False|True
140|32|SHEX|test|2015-01-29 00:00:00|False|True
141|33|KSE|KSE Holiday1|2015-03-12 00:00:00|False|True
142|34|LSE|Pinky Day|2015-08-26 00:00:00|False|True
143|35|SGX|Hari RAya|2015-09-24 00:00:00|False|True
144|22|SGX|ABC Day|2014-12-01 00:00:00|False|True
145|22|SGX|ABC Day|2014-12-01 00:00:00|False|False
146|36|SGX|Fairy Day|2015-11-05 00:00:00|False|True
147|36|SGX|Fairy Day|2015-11-05 00:00:00|False|True
148|36|SGX|Fairy Day|2015-11-05 00:00:00|False|False
149|37|ASX|Fairy Day|2015-11-12 00:00:00|False|True
150|37|ASX|Fairy Day|2015-11-12 00:00:00|False|True
151|37|ASX|Fairy Day|2015-11-12 00:00:00|False|False
