﻿AID|StockExchangeID|StockExchangeCode|StockExchange|CountryCode|Viewable|Active
1|67|Nasdaq|Nasdaq|USA|False|True
2|68|KUWEX|KUWAIT|PHILI|True|True
3|69|test2|test|USA|False|True
4|70|NEW|NEW|VIE|True|True
5|69|test2|test|USA|False|True
6|69|test|test|USA|False|True
7|71|test1|test1|SGP|False|True
8|72|ntestex|test ex|VIE|True|True
9|73|test ex nv|test exnv|VIE|False|True
10|74|SCOT|Scotland Exchange|GBR|False|True
11|75|SZX|Shen Zhen Exchange|CHN|False|True
12|75|SZX|Shen Zhen Exchange|CHN|False|True
13|75|SZX|Shen Zhen Exchange|CHN|True|True
14|76|Paris|Paris|UK|False|True
15|76|Paris|Paris|UK|False|True
16|76|Paris|Paris|UK|True|True
17|77|UAT123|User Accep Testing 123|CAN|False|True
18|90|MICHAEL|MICHAEL STOCK EXCHANGE|SGP|True|True
19|91|UAT|Test|ARE|True|True
20|72|ntestex|test ex|VNM|True|True
21|72|INF|Info|IND|True|True
22|77|UAT123|User Accep Testing 123|CAN|False|True
23|77|UAT12345|User Accep Testing 123|CAN|True|True
24|69|test|test|USA|False|True
25|69|test|test|USA|True|True
26|53|BMSEX|Bursa Malaysia|MYS|True|True
27|53|BMSEX|Bursa Malaysia|MYS|True|True
28|92|wwww|www|SGP|True|True
