﻿AID|CounterID|CounterCode|Counter|StockExchangeID|Viewable|Active
1|215|test1|testcounter|61|True|True
2|216|K123|Kuwait oil field|68|False|True
3|217|K234|Kuwait Energy|68|True|True
4|218|testing|testcounter|61|True|True
5|218|testing|testcounter|61|True|True
6|218|testing1|testcounter|61|True|True
7|219|111|NEW COUN|70|False|True
8|220|CTR VIEW|VIEW|62|True|True
9|221|tt|tt|62|False|True
10|222|ABC|ABC|52|False|True
11|223|0999|0999|52|True|True
12|224|0888|0888|52|False|True
13|225|testct|test ctr|72|True|True
14|226|test ctnv|test cnt nv|73|False|True
15|227|D1R1|ARA Asset Management Limited|61|False|True
16|187|5EE|AQUA-TERRA|61|True|True
17|187|5EE|AQUA-TERRA1|61|True|True
18|187|5EE|AQUA-TERRA1|61|True|True
19|187|5EE|AQUA-TERRA|61|True|True
20|193|C13|CAPITALAND|61|True|True
21|193|C13|CAPITALAND W|61|True|True
22|193|C13|CAPITALAND W|61|True|True
23|193|C13|CAPITALAND|61|True|True
24|228|AAL01|sadasdasdsa|69|False|True
25|228|AAL01|sadasdasdsa|69|False|True
26|228|AAL01|sadasdasdsa|69|False|False
27|229|scot1|scotland funds|74|False|True
28|230|szx123|Shen Zheng Corporaet|75|False|True
29|230|szx123|Shen Zheng Corporaet|75|False|True
30|230|szx123|Shen Zheng Corporaet|75|True|True
31|230|szx123|Shen Zheng Corporaet|75|True|True
32|230|szx123|Shen Zheng Corporaet|75|True|True
33|231|paris coun|Paris counter|76|False|True
34|231|paris coun|Paris counter|76|False|True
35|231|paris coun|Paris counter|76|True|True
36|231|paris coun|Paris counter|76|True|True
37|231|paris coun|Paris counter|76|True|True
38|232|KLM|KLM|77|False|True
39|133|ABS|A.B.C. Learning Centres Ltd|51|True|True
40|133|ABS|A.B.C. Learning Centres Ltd|51|False|True
41|133|ABS|A.B.C. Learning Centres Ltd|51|False|True
42|133|ABS|A.B.C. Learning Centres Ltd|51|True|True
43|133|ABS|A.B.C. Learning Centres Ltd|51|True|True
44|133|ABS|A.B.C. Learning Centres Ltd|51|False|True
45|24945|test|TANJONG PLC|81|True|True
46|24946|qat1|testing qat|61|True|True
47|24947|TMY1|Tamiya Stargek|61|True|True
48|24948|a|s|51|False|True
49|24949|aa|44|85|False|True
50|24950|bbb|aaa|51|True|True
51|1726|5DD|MICRO-MECHANICS (HOLDINGS) LTD|61|True|True
52|1726|5DD|MICRO-MECHANICS (HOLDINGS) LTD|61|True|False
53|199|DU4|Mermaid Martime Public Company Ltd|61|True|True
54|199|DU4|Mermaid Martime Public Company Ltd|61|True|False
55|207|MLS01|Mercator Lines (Singapore) Ltd|61|True|True
56|207|MLS01|Mercator Lines (Singapore) Ltd|61|True|False
57|1554|5DP|HEETON HOLDINGS LIMITED|61|True|True
58|1554|5DP|HEETON HOLDINGS LIMITED|61|True|False
59|1552|H02|HAW PAR CORP LTD|61|True|True
60|1552|H02|HAW PAR CORP LTD|61|True|False
61|1558|H71W|HG METAL MANUFACTURING W100820|61|True|True
62|1558|H71W|HG METAL MANUFACTURING W100820|61|True|False
63|1553|588|HEALTH MANAGEMENT INTL LTD|61|True|True
64|1553|588|HEALTH MANAGEMENT INTL LTD|61|True|False
65|1562|L18|HLG ENTERPRISE LIMITED|61|True|True
66|1562|L18|HLG ENTERPRISE LIMITED|61|True|False
67|1564|5HH|HLN TECHNOLOGIES LIMITED|61|True|True
68|1564|5HH|HLN TECHNOLOGIES LIMITED|61|True|False
69|1619|J37|JARDINE STRATEGIC HLDGS LTD|61|True|True
70|1619|J37|JARDINE STRATEGIC HLDGS LTD|61|True|False
71|1635|DZ9|K. S. OILS LIMITED GDR|61|True|True
72|1635|DZ9|K. S. OILS LIMITED GDR|61|True|False
73|1650|504|KLW HOLDINGS LTD|61|True|True
74|1650|504|KLW HOLDINGS LTD|61|True|False
75|1643|K22|KIAN HO BEARINGS LTD|61|True|True
76|1643|K22|KIAN HO BEARINGS LTD|61|True|False
77|1645|5JT|KINERGY LTD.|61|True|True
78|1645|5JT|KINERGY LTD.|61|True|False
79|1591|5JS|INDOFOOD AGRI RESOURCES LTD.|61|True|True
80|1591|5JS|INDOFOOD AGRI RESOURCES LTD.|61|True|False
81|1592|I03|INFORMATICS EDUCATION LTD.|61|True|True
82|1592|I03|INFORMATICS EDUCATION LTD.|61|True|False
83|1600|J12|INT'L CAPITAL INVESTMENT LTD|61|True|True
84|1600|J12|INT'L CAPITAL INVESTMENT LTD|61|True|False
85|1630|J15|JUKEN TECHNOLOGY LIMITED|61|True|True
86|1630|J15|JUKEN TECHNOLOGY LIMITED|61|True|False
87|1623|EG0|JES INTERNATIONAL HOLDINGS LTD|61|True|True
88|1623|EG0|JES INTERNATIONAL HOLDINGS LTD|61|True|False
89|1627|5CO|JK TECHNOLOGY GROUP LIMITED|61|True|True
90|1627|5CO|JK TECHNOLOGY GROUP LIMITED|61|True|False
91|1620|E14|JASPER INVESTMENTS LIMITED|61|True|True
92|1620|E14|JASPER INVESTMENTS LIMITED|61|True|False
93|1626|C8R|JIUTIAN CHEMICAL GROUP LIMITED|61|True|True
94|1626|C8R|JIUTIAN CHEMICAL GROUP LIMITED|61|True|False
95|1654|5DL|KOON HOLDINGS LIMITED|61|True|True
96|1654|5DL|KOON HOLDINGS LIMITED|61|True|False
97|1644|K50|KIM ENG HOLDINGS LIMITED|61|True|True
98|1644|K50|KIM ENG HOLDINGS LIMITED|61|True|False
99|1518|F18|FULL APEX (HOLDINGS) LIMITED|61|True|True
100|1518|F18|FULL APEX (HOLDINGS) LIMITED|61|True|False
101|1524|AM3|GEMS TV HOLDINGS LIMITED|61|True|True
102|1524|AM3|GEMS TV HOLDINGS LIMITED|61|True|False
103|1523|5EM|GATES ELECTRONICS LIMITED|61|True|True
104|1523|5EM|GATES ELECTRONICS LIMITED|61|True|False
105|1572|H80|HONGWEI TECHNOLOGIES LIMITED|61|True|True
106|1572|H80|HONGWEI TECHNOLOGIES LIMITED|61|True|False
107|1661|L38|L.C.DEVELOPMENT LTD|61|True|True
108|1661|L38|L.C.DEVELOPMENT LTD|61|True|False
109|1660|L13|L & M GROUP INVESTMENTS LTD|61|True|True
110|1660|L13|L & M GROUP INVESTMENTS LTD|61|True|False
111|1739|5IF|NATURAL COOL HOLDINGS LIMITED|61|True|True
112|1739|5IF|NATURAL COOL HOLDINGS LIMITED|61|True|False
113|1692|A9B|LYXOR HANG SENG INDEX FUND 10|61|True|True
114|1692|A9B|LYXOR HANG SENG INDEX FUND 10|61|True|False
115|1699|M14|MAGNECOMP INTERNATIONAL LTD|61|True|True
116|1699|M14|MAGNECOMP INTERNATIONAL LTD|61|True|False
117|1759|584|OAKWELL ENGINEERING LIMITED|61|True|True
118|1759|584|OAKWELL ENGINEERING LIMITED|61|True|False
119|1757|N14|NTI INTERNATIONAL LIMITED|61|True|True
120|1757|N14|NTI INTERNATIONAL LIMITED|61|True|False
121|1750|N32|NIPPECRAFT LIMITED|61|True|True
122|1750|N32|NIPPECRAFT LIMITED|61|True|False
123|1733|M05|MTQ CORPORATION LIMITED|61|True|True
124|1733|M05|MTQ CORPORATION LIMITED|61|True|False
125|3050|ONT|1300 SMILES LTD|85|True|True
126|3050|ONT|1300 SMILES LTD|85|True|False
127|24949|aa|44|85|False|True
128|24949|aa|44|85|False|False
129|3059|ABP|ABACUS PROPERTY GRP|85|True|True
130|3059|ABP|ABACUS PROPERTY GRP|85|True|False
131|3089|AVD|ADVANCE ENERGY LTD|85|True|True
132|3089|AVD|ADVANCE ENERGY LTD|85|True|False
133|3090|AHG|ADVANCE HEALTHCARE GRP LTD|85|True|True
134|3090|AHG|ADVANCE HEALTHCARE GRP LTD|85|True|False
135|3108|AGI|AINSWORTH GAME TECHNOLOGY LTD|85|True|True
136|3108|AGI|AINSWORTH GAME TECHNOLOGY LTD|85|True|False
137|3192|ARJ|ARK FUND LTD (THE)|85|True|True
138|3192|ARJ|ARK FUND LTD (THE)|85|True|False
139|3220|AEE|AURA ENERGY LTD|85|True|True
140|3220|AEE|AURA ENERGY LTD|85|True|False
141|3286|AVA|AVIVA CORPORATION LTD|85|True|True
142|3286|AVA|AVIVA CORPORATION LTD|85|True|False
143|3396|BKG|BUKA GOLD LTD|85|True|True
144|3396|BKG|BUKA GOLD LTD|85|True|False
145|3418|CRB|CARBINE RESOURCES LTD|85|True|True
146|3418|CRB|CARBINE RESOURCES LTD|85|True|False
147|3451|CVR|CENTRAL ASIA RESOURCES LTD.|85|True|True
148|3451|CVR|CENTRAL ASIA RESOURCES LTD.|85|True|False
149|3481|CHF|CHARTER PACIFIC CORPORATION LTD|85|True|True
150|3481|CHF|CHARTER PACIFIC CORPORATION LTD|85|True|False
151|3538|CDR|COMMANDER COMMUNICATIONS LTD|85|True|True
152|3538|CDR|COMMANDER COMMUNICATIONS LTD|85|True|False
153|3562|CTS|CONTACT RESOURCES LTD|85|True|True
154|3562|CTS|CONTACT RESOURCES LTD|85|True|False
155|4034|IAS|INTERNATIONAL ALL SPORTS LTD|85|True|True
156|4034|IAS|INTERNATIONAL ALL SPORTS LTD|85|True|False
157|4060|JGL|JACKGREEN LTD|85|True|True
158|4060|JGL|JACKGREEN LTD|85|True|False
159|4031|ITT|INTERMET RESOURCES LTD|85|True|True
160|4031|ITT|INTERMET RESOURCES LTD|85|True|False
161|4035|ICP|INTERNATIONAL CONCERT ATTRACTIONS LTD|85|True|True
162|4035|ICP|INTERNATIONAL CONCERT ATTRACTIONS LTD|85|True|False
163|4063|JHX|JAMES HARDIE INDUSTRIES N.V.|85|True|True
164|4063|JHX|JAMES HARDIE INDUSTRIES N.V.|85|True|False
165|4551|POG|PROGRESS 2005-1 TRUST|85|True|True
166|4551|POG|PROGRESS 2005-1 TRUST|85|True|False
167|4568|PUM|PUMA MASTERFUND S-2|85|True|True
168|4568|PUM|PUMA MASTERFUND S-2|85|True|False
169|233|139|139 HOLDINGS |55|True|True
170|233|139|139 HOLDINGS|55|False|True
171|138|508933|WELSPUN INDIA LTD|52|True|True
172|138|508933|WELSPUN INDIA LTD|52|True|False
173|24951|ZZZ|ZZZ Investments|61|False|True
174|24952|AAA|AAA Investents|61|False|True
175|24951|ZZZ|ZZZ Investments|61|False|True
176|24951|ZZZ|ZZZ Investments|61|False|True
177|24952|AAA|AAA Investents|61|False|True
178|24952|AAA|AAA Investents|61|False|True
179|24951|ZZZ|ZZZ Investments|61|False|True
180|24951|ZZZ|ZZZ Investments|61|False|True
181|24952|AAA|AAA Investents|61|False|True
182|24952|AAA|AAA Investents|61|True|True
183|24951|ZZZ|ZZZ Investments|61|False|True
184|24951|ZZZ|ZZZ Investments|61|False|True
185|24952|AAA|AAA Investents|61|True|True
186|24952|AAA|AAA Investents|61|True|True
187|24953|E01|Emerio Info Tech|61|True|True
188|24954|TES|Test|69|True|True
189|24955|TES1|test|69|True|True
190|24955|TES1|test|69|True|True
191|24955|TES1|Test|69|True|True
192|1250|I16|1ST SOFTWARE CORP LTD|61|True|True
193|1250|I16|1ST SOFTWARE CORP LTD|61|True|False
194|1251|E25|8TELECOM INTL HOLDINGS CO LTD|61|True|True
195|1251|E25|8TELECOM INTL HOLDINGS CO LTD|61|True|False
196|1305|A53|A-SONIC AEROSPACE LIMITED|61|True|True
197|1305|A53|A-SONIC AEROSPACE LIMITED|61|False|True
198|227|D1R1|ARA Asset Management Limited|61|False|True
199|227|D1R1|ARA Asset Management Limited|61|True|True
200|24956|Pink|Pink Panther|61|True|True
201|24957|Apple|Apple|55|True|True
202|24958|BA|BANANA LTD|61|True|True
203|24959|BANANA|BANANA LTD|61|True|True
204|24958|BA|BANANA LTD|61|True|True
205|24958|BA|BANANA LTD|61|True|False
206|24959|BANANA|BANANA LTD|61|True|True
207|24959|BANANA|BANANA LTD|61|True|False
208|24960|Apple|Apple Ltd|61|True|True
209|24960|Apple|Apple Ltd|61|True|True
210|24960|Apple|Apple Ltd|61|True|False
