﻿AID|GreyListOtherMemberID|AGreyListID|OtherMemberID|IsDeleted
1|1|156|5|False
2|1|157|5|False
3|1|158|5|False
4|1|159|5|True
5|2|217|4|False
6|3|217|3|False
7|4|217|1|False
8|2|218|4|False
9|3|218|3|False
10|4|218|1|False
11|2|219|4|False
12|3|219|3|False
13|4|219|1|False
14|2|220|4|False
15|3|220|3|False
16|4|220|1|False
17|2|221|4|False
18|2|222|4|False
19|3|221|3|False
20|3|222|3|False
21|4|221|1|False
22|4|222|1|False
23|2|223|4|False
24|3|223|3|False
25|4|223|1|False
26|2|224|4|False
27|3|224|3|False
28|4|224|1|False
29|2|225|4|False
30|2|226|4|False
31|3|225|3|False
32|3|226|3|False
33|4|225|1|False
34|4|226|1|False
35|2|227|4|False
36|3|227|3|False
37|4|227|1|False
38|2|228|4|False
39|3|228|3|False
40|4|228|1|False
41|2|229|4|False
42|2|230|4|False
43|3|229|3|False
44|3|230|3|False
45|4|229|1|False
46|4|230|1|False
47|2|231|4|False
48|3|231|3|False
49|4|231|1|False
50|2|232|4|False
51|2|233|4|False
52|3|232|3|False
53|3|233|3|False
54|4|232|1|False
55|4|233|1|False
56|2|234|4|False
57|3|234|3|False
58|4|234|1|False
59|2|235|4|False
60|3|235|3|False
61|4|235|1|False
62|2|236|4|False
63|2|237|4|False
64|3|236|3|False
65|3|237|3|False
66|4|236|1|False
67|4|237|1|False
68|2|238|4|False
69|3|238|3|False
70|4|238|1|False
71|2|239|4|False
72|3|239|3|False
73|4|239|1|False
74|2|240|4|False
75|2|241|4|False
76|3|240|3|False
77|3|241|3|False
78|4|240|1|False
79|4|241|1|False
80|2|242|4|False
81|3|242|3|False
82|4|242|1|False
83|2|243|4|False
84|3|243|3|False
85|4|243|1|False
86|2|244|4|False
87|2|245|4|False
88|3|244|3|False
89|3|245|3|False
90|4|244|1|False
91|4|245|1|False
92|2|246|4|False
93|3|246|3|False
94|4|246|1|False
95|2|247|4|False
96|3|247|3|False
97|4|247|1|False
98|2|248|4|False
99|3|248|3|False
100|4|248|1|False
101|2|249|4|False
102|3|249|3|False
103|4|249|1|False
104|2|250|4|False
105|3|250|3|False
106|4|250|1|False
107|2|251|4|False
108|2|252|4|False
109|3|251|3|False
110|3|252|3|False
111|4|251|1|False
112|4|252|1|False
113|5|252|51|False
114|2|253|4|False
115|3|253|3|False
116|4|253|1|False
117|5|253|51|False
118|2|254|4|False
119|3|254|3|False
120|4|254|1|False
121|5|254|51|False
122|2|259|4|False
123|3|259|3|False
124|4|259|1|False
125|5|259|51|False
126|2|260|4|False
127|3|260|3|False
128|4|260|1|False
129|5|260|51|False
130|2|261|4|False
131|2|262|4|False
132|3|261|3|False
133|3|262|3|False
134|4|261|1|False
135|4|262|1|False
136|5|261|51|False
137|5|262|51|False
138|2|263|4|False
139|3|263|3|False
140|4|263|1|False
141|5|263|51|False
142|2|264|4|False
143|2|265|4|False
144|3|264|3|False
145|3|265|3|False
146|4|264|1|False
147|4|265|1|False
148|5|264|51|False
149|5|265|51|False
150|2|266|4|False
151|3|266|3|False
152|4|266|1|False
153|5|266|51|False
154|2|268|4|False
155|3|268|3|False
156|4|268|1|False
157|5|268|51|False
158|2|269|4|False
159|2|270|4|False
160|3|269|3|False
161|3|270|3|False
162|4|269|1|False
163|4|270|1|False
164|5|269|51|False
165|5|270|51|False
166|2|271|4|False
167|3|271|3|False
168|4|271|1|False
169|5|271|51|False
170|2|272|4|False
171|3|272|3|False
172|4|272|1|False
173|5|272|51|False
174|2|273|4|False
175|2|274|4|False
176|3|273|3|False
177|3|274|3|False
178|4|273|1|False
179|4|274|1|False
180|5|273|51|False
181|5|274|51|False
182|2|275|4|False
183|3|275|3|False
184|4|275|1|False
185|5|275|51|False
186|2|276|4|False
187|2|277|4|False
188|3|276|3|False
189|3|277|3|False
190|4|276|1|False
191|4|277|1|False
192|5|276|51|False
193|5|277|51|False
194|2|278|4|False
195|3|278|3|False
196|4|278|1|False
197|5|278|51|False
198|2|279|4|False
199|3|279|3|False
200|4|279|1|False
201|5|279|51|False
202|2|280|4|False
203|2|281|4|False
204|3|280|3|False
205|3|281|3|False
206|4|280|1|False
207|4|281|1|False
208|5|280|51|False
209|5|281|51|False
210|2|282|4|False
211|3|282|3|False
212|4|282|1|False
213|5|282|51|False
214|6|285|51|False
215|6|286|51|False
216|6|287|51|False
217|6|288|51|False
218|6|289|51|False
219|6|290|51|False
220|6|291|51|False
221|6|292|51|False
222|6|293|51|False
223|6|294|51|False
224|6|295|51|False
225|6|296|51|False
226|6|297|51|False
227|6|298|51|False
228|6|299|51|False
229|6|300|51|False
230|6|301|51|False
231|6|302|51|False
232|6|303|51|False
233|6|304|51|False
234|6|305|51|False
235|6|333|51|False
236|2|336|4|False
237|3|336|3|False
238|4|336|1|False
239|5|336|51|False
240|6|337|51|False
241|7|340|51|False
242|7|341|51|False
243|7|342|51|False
244|7|344|51|False
245|7|345|51|False
246|7|346|51|False
247|7|347|51|False
248|7|348|51|False
249|7|351|51|False
250|7|353|51|False
251|7|360|51|False
252|7|366|51|False
253|7|371|51|False
254|7|372|51|False
255|7|373|51|False
256|7|374|51|False
257|7|375|51|False
258|7|376|51|False
259|7|377|51|False
260|7|378|51|False
261|7|379|51|False
262|7|380|51|False
263|7|381|51|False
264|7|382|51|False
265|7|383|51|False
266|7|384|51|False
267|7|389|51|False
268|7|390|51|False
269|7|391|51|False
270|7|392|51|False
271|7|393|51|False
272|2|394|4|False
273|3|394|3|False
274|4|394|1|False
275|5|394|51|False
276|2|395|4|False
277|3|395|3|False
278|4|395|1|False
279|5|395|51|False
280|2|396|4|False
281|3|396|3|False
282|4|396|1|False
283|5|396|51|False
284|2|397|4|False
285|3|397|3|False
286|4|397|1|False
287|5|397|51|False
288|7|403|51|False
289|7|405|51|False
290|7|407|51|False
291|7|408|51|False
292|7|409|51|False
293|7|410|51|False
294|7|411|51|False
295|7|412|51|False
296|7|413|51|False
297|7|414|51|False
298|2|480|4|False
299|3|480|3|False
300|4|480|1|False
301|5|480|51|False
302|2|481|4|False
303|3|481|3|False
304|4|481|1|False
305|5|481|51|False
306|2|482|4|False
307|3|482|3|False
308|4|482|1|False
309|5|482|51|False
310|2|483|4|False
311|2|484|4|False
312|3|483|3|False
313|3|484|3|False
314|4|483|1|False
315|4|484|1|False
316|5|483|51|False
317|5|484|51|False
318|2|485|4|False
319|3|485|3|False
320|4|485|1|False
321|5|485|51|False
322|2|486|4|False
323|3|486|3|False
324|4|486|1|False
325|5|486|51|False
326|7|488|51|False
327|6|509|51|False
328|6|510|51|False
329|6|511|51|False
330|8|521|51|False
331|8|522|51|False
332|8|523|51|False
333|2|531|4|False
334|3|531|3|False
335|4|531|1|False
336|5|531|51|False
337|7|546|51|False
338|7|548|51|False
339|7|549|51|False
340|7|550|51|False
341|7|551|51|False
342|7|552|51|False
343|7|553|51|False
344|7|554|51|False
345|8|555|51|False
346|8|556|51|False
347|9|570|51|False
348|9|571|51|False
349|9|572|51|False
350|6|573|51|False
351|6|574|51|False
352|9|575|51|False
353|6|576|51|False
354|6|577|51|False
355|6|579|51|False
356|6|580|51|False
357|6|581|51|False
358|6|582|51|False
359|6|583|51|False
360|6|584|51|False
361|6|585|51|False
362|6|586|51|False
363|6|587|51|False
364|6|588|51|False
365|6|589|51|False
366|6|590|51|False
367|6|591|51|False
368|6|592|51|False
369|6|593|51|False
370|6|594|51|False
371|6|595|51|False
372|2|596|4|False
373|3|596|3|False
374|4|596|1|False
375|5|596|51|False
376|2|597|4|False
377|3|597|3|False
378|4|597|1|False
379|5|597|51|False
380|2|598|4|False
381|2|599|4|False
382|3|598|3|False
383|3|599|3|False
384|4|598|1|False
385|4|599|1|False
386|5|598|51|False
387|5|599|51|False
388|2|600|4|False
389|3|600|3|False
390|4|600|1|False
391|5|600|51|False
392|2|601|4|False
393|3|601|3|False
394|4|601|1|False
395|5|601|51|False
396|2|602|4|False
397|3|602|3|False
398|4|602|1|False
399|5|602|51|False
400|2|603|4|False
401|3|603|3|False
402|4|603|1|False
403|5|603|51|False
404|7|604|51|False
405|7|605|51|False
406|2|606|4|False
407|3|606|3|False
408|4|606|1|False
409|5|606|51|False
410|9|607|51|False
411|10|622|3|False
412|10|623|3|False
413|10|624|3|False
414|10|625|3|False
415|9|626|51|False
416|9|627|51|False
417|7|628|51|False
418|7|629|51|False
419|7|630|51|False
420|7|631|51|False
421|7|632|51|False
422|7|633|51|False
423|7|634|51|False
424|7|635|51|False
425|7|636|51|False
426|7|637|51|False
427|7|638|51|False
428|7|639|51|False
429|7|640|51|False
430|7|641|51|False
431|7|642|51|False
432|7|643|51|False
433|7|644|51|False
434|10|645|3|False
435|10|646|3|False
436|7|659|51|False
437|7|660|51|False
438|7|664|51|False
439|2|665|4|False
440|3|665|3|False
441|4|665|1|False
442|5|665|51|False
443|10|666|3|False
444|10|667|3|False
445|2|668|4|False
446|3|668|3|False
447|4|668|1|False
448|5|668|51|False
449|7|694|51|False
450|7|695|51|False
451|7|698|51|False
452|9|699|51|False
453|7|702|51|False
454|7|703|51|False
455|11|707|51|False
456|7|708|51|False
457|7|709|51|False
458|7|710|51|False
459|7|711|51|False
460|7|712|51|False
461|7|713|51|False
462|7|714|51|False
463|7|715|51|False
464|7|716|51|False
465|7|717|51|False
466|5|11|51|False
467|5|11|51|False
468|4|11|1|False
469|4|11|1|False
470|6|10|51|False
471|5|11|51|True
472|6|10|51|True
473|7|4|51|True
474|8|7|51|True
475|9|16|51|True
476|11|27|51|True
477|3|11|3|False
478|12|727|6187|False
479|12|728|6187|False
480|12|729|6187|False
481|7|4|51|True
482|12|29|6187|True
483|13|736|6187|False
484|13|737|6187|False
485|13|738|6187|False
486|9|16|51|True
487|12|29|6187|True
488|13|29|6187|True
489|14|745|6171|False
490|15|745|6190|False
491|16|745|6184|False
492|17|745|6189|False
493|18|745|6183|False
494|14|746|6171|False
495|15|746|6190|False
496|16|746|6184|False
497|17|746|6189|False
498|18|746|6183|False
499|14|747|6171|False
500|15|747|6190|False
501|16|747|6184|False
502|17|747|6189|False
503|18|747|6183|False
504|14|748|6171|False
505|15|748|6190|False
506|16|748|6184|False
507|17|748|6189|False
508|18|748|6183|False
509|14|749|6171|False
510|15|749|6190|False
511|16|749|6184|False
512|17|749|6189|False
513|18|749|6183|False
514|13|29|6187|True
515|18|26|6183|True
516|14|750|6171|False
517|15|750|6190|False
518|16|750|6184|False
519|17|750|6189|False
520|14|751|6171|False
521|15|751|6190|False
522|16|751|6184|False
523|17|751|6189|False
524|14|752|6171|False
525|15|752|6190|False
526|16|752|6184|False
527|17|752|6189|False
528|14|753|6171|False
529|15|753|6190|False
530|16|753|6184|False
531|17|753|6189|False
532|14|754|6171|False
533|15|754|6190|False
534|16|754|6184|False
535|17|754|6189|False
536|14|755|6171|False
537|15|755|6190|False
538|16|755|6184|False
539|17|755|6189|False
540|19|761|9842|False
541|20|761|9844|False
542|21|761|6190|False
543|19|762|9842|False
544|20|762|9844|False
545|21|762|6190|False
546|19|763|9842|False
547|20|763|9844|False
548|21|763|6190|False
549|19|764|9842|False
550|20|764|9844|False
551|21|764|6190|False
552|19|765|9842|False
553|20|765|9844|False
554|21|765|6190|False
555|19|766|9842|False
556|20|766|9844|False
557|21|766|6190|False
558|19|767|9842|False
559|20|767|9844|False
560|21|767|6190|False
561|14|769|6171|False
562|15|769|6190|False
563|16|769|6184|False
564|17|769|6189|False
565|14|770|6171|False
566|15|770|6190|False
567|16|770|6184|False
568|17|770|6189|False
569|14|771|6171|False
570|15|771|6190|False
571|16|771|6184|False
572|17|771|6189|False
573|14|772|6171|False
574|14|773|6171|False
575|15|772|6190|False
576|15|773|6190|False
577|16|772|6184|False
578|16|773|6184|False
579|17|772|6189|False
580|17|773|6189|False
581|22|773|7317|False
582|23|773|7318|False
583|24|773|13807|False
584|14|774|6171|False
585|15|774|6190|False
586|16|774|6184|False
587|17|774|6189|False
588|22|774|7317|False
589|23|774|7318|False
590|24|774|13807|False
591|14|775|6171|False
592|15|775|6190|False
593|16|775|6184|False
594|17|775|6189|False
595|22|775|7317|False
596|23|775|7318|False
597|24|775|13807|False
598|14|776|6171|False
599|15|776|6190|False
600|16|776|6184|False
601|17|776|6189|False
602|22|776|7317|False
603|23|776|7318|False
604|24|776|13807|False
605|14|777|6171|False
606|15|777|6190|False
607|16|777|6184|False
608|17|777|6189|False
609|22|777|7317|False
610|23|777|7318|False
611|24|777|13807|False
612|14|791|6171|False
613|15|791|6190|False
614|16|791|6184|False
615|17|791|6189|False
616|22|791|7317|False
617|23|791|7318|False
618|24|791|13807|False
619|14|792|6171|False
620|15|792|6190|False
621|16|792|6184|False
622|17|792|6189|False
623|22|792|7317|False
624|23|792|7318|False
625|24|792|13807|False
626|14|793|6171|False
627|15|793|6190|False
628|16|793|6184|False
629|17|793|6189|False
630|22|793|7317|False
631|23|793|7318|False
632|24|793|13807|False
633|14|794|6171|False
634|15|794|6190|False
635|16|794|6184|False
636|17|794|6189|False
637|22|794|7317|False
638|23|794|7318|False
639|24|794|13807|False
640|14|795|6171|False
641|15|795|6190|False
642|16|795|6184|False
643|17|795|6189|False
644|22|795|7317|False
645|23|795|7318|False
646|24|795|13807|False
647|14|801|6171|False
648|15|801|6190|False
649|16|801|6184|False
650|17|801|6189|False
651|22|801|7317|False
652|23|801|7318|False
653|24|801|13807|False
654|14|802|6171|False
655|15|802|6190|False
656|16|802|6184|False
657|17|802|6189|False
658|22|802|7317|False
659|23|802|7318|False
660|24|802|13807|False
661|14|803|6171|False
662|15|803|6190|False
663|16|803|6184|False
664|17|803|6189|False
665|22|803|7317|False
666|23|803|7318|False
667|24|803|13807|False
668|14|804|6171|False
669|15|804|6190|False
670|16|804|6184|False
671|17|804|6189|False
672|22|804|7317|False
673|23|804|7318|False
674|24|804|13807|False
675|14|814|6171|False
676|15|814|6190|False
677|16|814|6184|False
678|17|814|6189|False
679|22|814|7317|False
680|23|814|7318|False
681|24|814|13807|False
682|14|815|6171|False
683|15|815|6190|False
684|16|815|6184|False
685|17|815|6189|False
686|22|815|7317|False
687|23|815|7318|False
688|24|815|13807|False
689|14|816|6171|False
690|15|816|6190|False
691|16|816|6184|False
692|17|816|6189|False
693|22|816|7317|False
694|23|816|7318|False
695|24|816|13807|False
696|25|835|6190|False
697|25|836|6190|False
698|25|837|6190|False
699|25|838|6190|False
700|25|839|6190|False
701|25|840|6190|False
702|25|841|6190|False
703|25|842|6190|False
704|25|843|6190|False
705|25|844|6190|False
706|25|845|6190|False
707|25|846|6190|False
708|25|847|6190|False
709|26|847|9842|False
710|25|848|6190|False
711|26|848|9842|False
712|25|849|6190|False
713|26|849|9842|False
714|19|850|9842|False
715|20|850|9844|False
716|21|850|6190|False
717|19|851|9842|False
718|20|851|9844|False
719|21|851|6190|False
720|27|852|6190|False
721|28|852|9842|False
722|29|852|9844|False
723|27|853|6190|False
724|28|853|9842|False
725|29|853|9844|False
726|27|854|6190|False
727|28|854|9842|False
728|29|854|9844|False
729|27|855|6190|False
730|28|855|9842|False
731|29|855|9844|False
732|27|856|6190|False
733|28|856|9842|False
734|29|856|9844|False
735|27|857|6190|False
736|28|857|9842|False
737|29|857|9844|False
738|27|858|6190|False
739|28|858|9842|False
740|29|858|9844|False
741|27|859|6190|False
742|27|860|6190|False
743|28|859|9842|False
744|28|860|9842|False
745|29|859|9844|False
746|29|860|9844|False
747|27|861|6190|False
748|28|861|9842|False
749|29|861|9844|False
750|27|862|6190|False
751|28|862|9842|False
752|29|862|9844|False
753|25|863|6190|False
754|26|863|9842|False
755|25|864|6190|False
756|26|864|9842|False
757|25|865|6190|False
758|26|865|9842|False
759|25|866|6190|False
760|26|866|9842|False
761|14|883|6171|False
762|15|883|6190|False
763|16|883|6184|False
764|17|883|6189|False
765|22|883|7317|False
766|23|883|7318|False
767|24|883|13807|False
768|14|884|6171|False
769|15|884|6190|False
770|16|884|6184|False
771|17|884|6189|False
772|22|884|7317|False
773|23|884|7318|False
774|24|884|13807|False
775|10|894|3|False
776|10|895|3|False
777|10|896|3|False
778|10|897|3|False
779|10|898|3|False
780|10|899|3|False
781|10|900|3|False
782|10|901|3|False
783|10|910|3|False
784|10|911|3|False
785|10|912|3|False
786|25|953|6190|False
787|26|953|9842|False
788|25|954|6190|False
789|26|954|9842|False
790|25|955|6190|False
791|26|955|9842|False
792|25|956|6190|False
793|26|956|9842|False
794|25|957|6190|False
795|26|957|9842|False
796|25|958|6190|False
797|26|958|9842|False
798|25|959|6190|False
799|26|959|9842|False
800|25|960|6190|False
801|25|961|6190|False
802|26|960|9842|False
803|26|961|9842|False
804|25|962|6190|False
805|26|962|9842|False
806|25|963|6190|False
807|26|963|9842|False
808|25|964|6190|False
809|26|964|9842|False
810|25|965|6190|False
811|26|965|9842|False
812|25|966|6190|False
813|26|966|9842|False
814|25|967|6190|False
815|26|967|9842|False
816|25|968|6190|False
817|25|969|6190|False
818|26|968|9842|False
819|26|969|9842|False
820|25|970|6190|False
821|26|970|9842|False
822|25|971|6190|False
823|26|971|9842|False
824|25|972|6190|False
825|26|972|9842|False
826|25|973|6190|False
827|26|973|9842|False
828|25|974|6190|False
829|26|974|9842|False
830|25|975|6190|False
831|25|976|6190|False
832|26|975|9842|False
833|26|976|9842|False
834|25|977|6190|False
835|26|977|9842|False
836|25|978|6190|False
837|26|978|9842|False
838|14|1006|6171|False
839|15|1006|6190|False
840|16|1006|6184|False
841|17|1006|6189|False
842|22|1006|7317|False
843|23|1006|7318|False
844|24|1006|13807|False
845|14|1007|6171|False
846|15|1007|6190|False
847|16|1007|6184|False
848|17|1007|6189|False
849|22|1007|7317|False
850|23|1007|7318|False
851|24|1007|13807|False
852|30|1043|43|False
853|30|1044|43|False
854|30|1045|43|False
855|30|1046|43|False
856|30|1047|43|False
857|30|1048|43|False
858|30|1049|43|False
859|30|1050|43|False
860|30|1051|43|False
861|30|1052|43|False
862|30|1053|43|False
863|30|1054|43|False
864|30|1055|43|False
865|30|1056|43|False
866|14|1057|6171|False
867|15|1057|6190|False
868|16|1057|6184|False
869|17|1057|6189|False
870|22|1057|7317|False
871|23|1057|7318|False
872|24|1057|13807|False
873|14|1058|6171|False
874|15|1058|6190|False
875|16|1058|6184|False
876|17|1058|6189|False
877|22|1058|7317|False
878|23|1058|7318|False
879|24|1058|13807|False
880|14|1059|6171|False
881|15|1059|6190|False
882|16|1059|6184|False
883|17|1059|6189|False
884|22|1059|7317|False
885|23|1059|7318|False
886|24|1059|13807|False
887|14|1060|6171|False
888|15|1060|6190|False
889|16|1060|6184|False
890|17|1060|6189|False
891|22|1060|7317|False
892|23|1060|7318|False
893|24|1060|13807|False
894|14|1061|6171|False
895|14|1062|6171|False
896|15|1061|6190|False
897|15|1062|6190|False
898|16|1061|6184|False
899|16|1062|6184|False
900|17|1061|6189|False
901|17|1062|6189|False
902|22|1061|7317|False
903|22|1062|7317|False
904|23|1061|7318|False
905|23|1062|7318|False
906|24|1061|13807|False
907|24|1062|13807|False
908|14|1063|6171|False
909|15|1063|6190|False
910|16|1063|6184|False
911|17|1063|6189|False
912|22|1063|7317|False
913|23|1063|7318|False
914|24|1063|13807|False
915|14|1064|6171|False
916|15|1064|6190|False
917|16|1064|6184|False
918|17|1064|6189|False
919|22|1064|7317|False
920|23|1064|7318|False
921|24|1064|13807|False
922|31|1072|6190|False
923|32|1072|9842|False
924|33|1072|9844|False
925|34|1078|43|False
926|34|1079|43|False
927|34|1080|43|False
928|34|1081|43|False
929|34|1082|43|False
930|34|1083|43|False
931|34|1084|43|False
932|34|1085|43|False
933|34|1086|43|False
934|34|1087|43|False
935|34|1088|43|False
936|34|1089|43|False
937|34|1090|43|False
938|34|1091|43|False
939|34|1092|43|False
940|31|1093|6190|False
941|32|1093|9842|False
942|33|1093|9844|False
943|31|1094|6190|False
944|32|1094|9842|False
945|33|1094|9844|False
946|31|1095|6190|False
947|32|1095|9842|False
948|33|1095|9844|False
949|14|1096|6171|False
950|15|1096|6190|False
951|16|1096|6184|False
952|17|1096|6189|False
953|22|1096|7317|False
954|23|1096|7318|False
955|24|1096|13807|False
956|14|1097|6171|False
957|15|1097|6190|False
958|16|1097|6184|False
959|17|1097|6189|False
960|22|1097|7317|False
961|23|1097|7318|False
962|24|1097|13807|False
963|14|1098|6171|False
964|15|1098|6190|False
965|16|1098|6184|False
966|17|1098|6189|False
967|22|1098|7317|False
968|23|1098|7318|False
969|24|1098|13807|False
970|14|1099|6171|False
971|14|1100|6171|False
972|15|1099|6190|False
973|15|1100|6190|False
974|16|1099|6184|False
975|16|1100|6184|False
976|17|1099|6189|False
977|17|1100|6189|False
978|22|1099|7317|False
979|22|1100|7317|False
980|23|1099|7318|False
981|23|1100|7318|False
982|24|1099|13807|False
983|24|1100|13807|False
984|14|1101|6171|False
985|15|1101|6190|False
986|16|1101|6184|False
987|17|1101|6189|False
988|22|1101|7317|False
989|23|1101|7318|False
990|24|1101|13807|False
991|14|1102|6171|False
992|15|1102|6190|False
993|16|1102|6184|False
994|17|1102|6189|False
995|22|1102|7317|False
996|23|1102|7318|False
997|24|1102|13807|False
998|14|1104|6171|False
999|15|1104|6190|False
1000|16|1104|6184|False
1001|17|1104|6189|False
1002|22|1104|7317|False
1003|23|1104|7318|False
1004|24|1104|13807|False
1005|14|1105|6171|False
1006|15|1105|6190|False
1007|16|1105|6184|False
1008|17|1105|6189|False
1009|22|1105|7317|False
1010|23|1105|7318|False
1011|24|1105|13807|False
1012|14|1106|6171|False
1013|15|1106|6190|False
1014|16|1106|6184|False
1015|17|1106|6189|False
1016|22|1106|7317|False
1017|23|1106|7318|False
1018|24|1106|13807|False
1019|14|1107|6171|False
1020|14|1108|6171|False
1021|15|1107|6190|False
1022|15|1108|6190|False
1023|16|1107|6184|False
1024|16|1108|6184|False
1025|17|1107|6189|False
1026|17|1108|6189|False
1027|22|1107|7317|False
1028|22|1108|7317|False
1029|23|1107|7318|False
1030|23|1108|7318|False
1031|24|1107|13807|False
1032|24|1108|13807|False
1033|14|1109|6171|False
1034|15|1109|6190|False
1035|16|1109|6184|False
1036|17|1109|6189|False
1037|22|1109|7317|False
1038|23|1109|7318|False
1039|24|1109|13807|False
1040|14|1110|6171|False
1041|15|1110|6190|False
1042|16|1110|6184|False
1043|17|1110|6189|False
1044|22|1110|7317|False
1045|23|1110|7318|False
1046|24|1110|13807|False
1047|34|1111|43|False
1048|34|1112|43|False
1049|34|1113|43|False
1050|34|1114|43|False
1051|34|1115|43|False
1052|34|1116|43|False
1053|34|1117|43|False
1054|34|1118|43|False
1055|34|1119|43|False
1056|34|1120|43|False
1057|31|1156|6190|False
1058|32|1156|9842|False
1059|33|1156|9844|False
1060|34|1158|43|False
1061|34|1159|43|False
1062|34|1160|43|False
1063|34|1161|43|False
1064|34|1162|43|False
1065|34|1163|43|False
1066|34|1164|43|False
1067|34|1165|43|False
1068|34|1166|43|False
1069|34|1167|43|False
1070|34|1168|43|False
1071|34|1169|43|False
1072|34|1170|43|False
1073|34|1171|43|False
1074|34|1172|43|False
1075|34|1174|43|False
1076|34|1175|43|False
1077|34|1176|43|False
1078|34|1177|43|False
1079|34|1178|43|False
1080|34|1179|43|False
1081|34|1180|43|False
1082|34|1181|43|False
1083|34|1182|43|False
1084|34|1183|43|False
1085|34|1184|43|False
1086|34|1185|43|False
1087|19|1276|9842|False
1088|20|1276|9844|False
1089|21|1276|6190|False
1090|19|1277|9842|False
1091|20|1277|9844|False
1092|21|1277|6190|False
1093|19|1278|9842|False
1094|20|1278|9844|False
1095|21|1278|6190|False
1096|34|1279|43|False
1097|34|1280|43|False
1098|34|1281|43|False
1099|34|1282|43|False
1100|34|1283|43|False
1101|34|1284|43|False
1102|34|1285|43|False
1103|34|1286|43|False
1104|34|1287|43|False
1105|34|1288|43|False
1106|34|1289|43|False
1107|34|1290|43|False
1108|34|1291|43|False
1109|34|1292|43|False
1110|34|1293|43|False
1111|34|1294|43|False
1112|34|1295|43|False
1113|34|1296|43|False
1114|34|1297|43|False
1115|34|1298|43|False
1116|34|1299|43|False
1117|34|1300|43|False
1118|34|1301|43|False
1119|34|1302|43|False
1120|34|1303|43|False
1121|34|1304|43|False
1122|34|1305|43|False
1123|34|1306|43|False
1124|34|1307|43|False
1125|34|1308|43|False
1126|34|1309|43|False
1127|34|1310|43|False
1128|34|1311|43|False
1129|34|1312|43|False
1130|34|1313|43|False
1131|34|1314|43|False
1132|34|1315|43|False
1133|34|1316|43|False
1134|34|1317|43|False
1135|34|1318|43|False
1136|34|1319|43|False
1137|34|1320|43|False
1138|34|1321|43|False
1139|34|1322|43|False
1140|34|1323|43|False
1141|34|1324|43|False
1142|34|1325|43|False
1143|34|1326|43|False
1144|34|1327|43|False
1145|34|1328|43|False
1146|34|1329|43|False
1147|34|1330|43|False
1148|34|1331|43|False
1149|34|1332|43|False
1150|34|1333|43|False
1151|34|1334|43|False
1152|34|1335|43|False
1153|34|1336|43|False
1154|34|1337|43|False
1155|34|1338|43|False
1156|34|1339|43|False
1157|34|1340|43|False
1158|34|1341|43|False
1159|34|1342|43|False
1160|34|1343|43|False
1161|34|1344|43|False
1162|34|1345|43|False
1163|34|1346|43|False
1164|34|1347|43|False
1165|34|1348|43|False
1166|34|1349|43|False
1167|34|1350|43|False
1168|34|1351|43|False
1169|34|1352|43|False
1170|34|1353|43|False
1171|34|1354|43|False
1172|34|1355|43|False
1173|34|1356|43|False
1174|34|1357|43|False
1175|34|1358|43|False
1176|34|1359|43|False
1177|34|1360|43|False
1178|34|1361|43|False
1179|34|1362|43|False
1180|34|1363|43|False
1181|34|1364|43|False
1182|34|1365|43|False
1183|34|1366|43|False
1184|34|1367|43|False
1185|34|1368|43|False
1186|34|1369|43|False
1187|34|1370|43|False
1188|34|1371|43|False
1189|34|1372|43|False
1190|34|1373|43|False
1191|34|1374|43|False
1192|34|1375|43|False
1193|34|1376|43|False
1194|34|1377|43|False
1195|34|1378|43|False
1196|34|1379|43|False
1197|19|1380|9842|False
1198|20|1380|9844|False
1199|21|1380|6190|False
1200|19|1381|9842|False
1201|20|1381|9844|False
1202|21|1381|6190|False
1203|19|1382|9842|False
1204|20|1382|9844|False
1205|21|1382|6190|False
1206|19|1383|9842|False
1207|19|1384|9842|False
1208|20|1383|9844|False
1209|20|1384|9844|False
1210|21|1383|6190|False
1211|21|1384|6190|False
1212|19|1385|9842|False
1213|20|1385|9844|False
1214|21|1385|6190|False
1215|19|1386|9842|False
1216|20|1386|9844|False
1217|21|1386|6190|False
1218|19|1387|9842|False
1219|20|1387|9844|False
1220|21|1387|6190|False
1221|19|1388|9842|False
1222|19|1389|9842|False
1223|20|1388|9844|False
1224|20|1389|9844|False
1225|21|1388|6190|False
1226|21|1389|6190|False
1227|19|1390|9842|False
1228|20|1390|9844|False
1229|21|1390|6190|False
1230|19|1391|9842|False
1231|20|1391|9844|False
1232|21|1391|6190|False
1233|34|1394|43|False
1234|34|1395|43|False
1235|34|1399|43|False
1236|34|1400|43|False
1237|34|1401|43|False
1238|34|1402|43|False
1239|34|1403|43|False
1240|34|1404|43|False
1241|34|1405|43|False
1242|34|1406|43|False
1243|34|1407|43|False
1244|34|1408|43|False
1245|34|1409|43|False
1246|34|1411|43|False
1247|34|1412|43|False
1248|34|1413|43|False
1249|34|1414|43|False
1250|34|1417|43|False
1251|34|1418|43|False
1252|34|1419|43|False
1253|34|1420|43|False
1254|34|1421|43|False
1255|34|1422|43|False
1256|34|1423|43|False
1257|34|1424|43|False
1258|34|1425|43|False
1259|34|1426|43|False
1260|34|1427|43|False
1261|34|1428|43|False
1262|34|1429|43|False
1263|34|1430|43|False
1264|34|1431|43|False
1265|34|1461|43|False
1266|34|1462|43|False
1267|34|1463|43|False
1268|31|1467|6190|False
1269|32|1467|9842|False
1270|33|1467|9844|False
1271|31|1468|6190|False
1272|32|1468|9842|False
1273|33|1468|9844|False
1274|31|1469|6190|False
1275|32|1469|9842|False
1276|33|1469|9844|False
1277|34|1472|43|False
1278|34|1473|43|False
1279|31|1480|6190|False
1280|32|1480|9842|False
1281|33|1480|9844|False
1282|31|1481|6190|False
1283|32|1481|9842|False
1284|33|1481|9844|False
1285|31|1482|6190|False
1286|32|1482|9842|False
1287|33|1482|9844|False
1288|31|1483|6190|False
1289|32|1483|9842|False
1290|33|1483|9844|False
1291|31|1484|6190|False
1292|31|1485|6190|False
1293|32|1484|9842|False
1294|32|1485|9842|False
1295|33|1484|9844|False
1296|33|1485|9844|False
1297|37|1485|25404|False
1298|31|1486|6190|False
1299|32|1486|9842|False
1300|33|1486|9844|False
1301|37|1486|25404|False
1302|31|1487|6190|False
1303|32|1487|9842|False
1304|33|1487|9844|False
1305|37|1487|25404|False
1306|31|1488|6190|False
1307|32|1488|9842|False
1308|33|1488|9844|False
1309|37|1488|25404|False
1310|31|1489|6190|False
1311|32|1489|9842|False
1312|33|1489|9844|False
1313|37|1489|25404|False
1314|31|1490|6190|False
1315|32|1490|9842|False
1316|33|1490|9844|False
1317|37|1490|25404|False
1318|38|1491|25403|False
1319|39|1491|12594|False
1320|38|1494|25403|False
1321|39|1494|12594|False
1322|38|1495|25403|False
1323|39|1495|12594|False
1324|34|1496|43|False
1325|35|1496|25404|False
1326|34|1497|43|False
1327|35|1497|25404|False
1328|34|1498|43|False
1329|35|1498|25404|False
1330|34|1499|43|False
1331|35|1499|25404|False
1332|34|1500|43|False
1333|35|1500|25404|False
1334|34|1501|43|False
1335|35|1501|25404|False
1336|34|1502|43|False
1337|34|1503|43|True
1338|35|1502|25404|False
1339|35|1503|25404|True
1340|46|1503|21883|False
1341|46|1504|21883|False
1342|46|1505|21883|False
1343|46|1506|21883|False
1344|46|1507|21883|False
1345|46|1508|21883|False
1346|46|1509|21883|False
1347|46|1510|21883|False
1348|46|1511|21883|False
1349|46|1512|21883|False
1350|46|1513|21883|False
1351|46|1514|21883|False
1352|46|1515|21883|False
1353|46|1516|21883|False
1354|46|1517|21883|False
1355|46|1518|21883|False
1356|46|1519|21883|False
1357|46|1520|21883|False
1358|46|1521|21883|False
1359|46|1522|21883|False
1360|46|1523|21883|False
1361|46|1524|21883|False
1362|46|1525|21883|False
1363|46|1526|21883|False
1364|46|1527|21883|False
1365|46|1528|21883|False
1366|47|1529|21883|False
1367|48|1529|25403|False
1368|47|1530|21883|False
1369|48|1530|25403|False
1370|47|1531|21883|False
1371|48|1531|25403|False
1372|47|1532|21883|False
1373|48|1532|25403|False
1374|47|1533|21883|False
1375|48|1533|25403|False
1376|47|1534|21883|False
1377|47|1535|21883|False
1378|48|1534|25403|False
1379|48|1535|25403|True
1380|47|1536|21883|False
1381|47|1537|21883|False
1382|47|1538|21883|False
1383|47|1539|21883|False
1384|47|1540|21883|False
1385|47|1541|21883|False
1386|47|1542|21883|False
1387|49|1542|25403|False
1388|47|1543|21883|False
1389|49|1543|25403|False
1390|47|1544|21883|False
1391|49|1544|25403|False
1392|47|1545|21883|False
1393|49|1545|25403|False
1394|46|1546|21883|False
1395|46|1547|21883|False
1396|46|1548|21883|False
1397|46|1549|21883|False
1398|46|1550|21883|False
1399|46|1551|21883|False
1400|46|1552|21883|False
1401|46|1553|21883|False
1402|46|1554|21883|False
1403|46|1555|21883|False
1404|50|1555|25403|False
1405|46|1556|21883|False
1406|50|1556|25403|False
1407|46|1557|21883|False
1408|50|1557|25403|False
1409|46|1558|21883|False
1410|50|1558|25403|False
1411|46|1559|21883|False
1412|50|1559|25403|False
1413|46|1560|21883|False
1414|50|1560|25403|False
1415|46|1561|21883|False
1416|50|1561|25403|False
1417|46|1562|21883|False
1418|50|1562|25403|False
1419|46|1563|21883|False
1420|50|1563|25403|False
1421|46|1564|21883|False
1422|50|1564|25403|False
1423|46|1565|21883|False
1424|50|1565|25403|False
1425|46|1566|21883|False
1426|50|1566|25403|False
1427|46|1567|21883|False
1428|50|1567|25403|False
1429|46|1568|21883|False
1430|50|1568|25403|False
1431|46|1569|21883|False
1432|50|1569|25403|False
1433|46|1570|21883|False
1434|50|1570|25403|False
1435|46|1571|21883|False
1436|50|1571|25403|False
1437|46|1572|21883|False
1438|50|1572|25403|False
1439|46|1573|21883|False
1440|50|1573|25403|False
1441|46|1574|21883|False
1442|50|1574|25403|False
1443|46|1575|21883|False
1444|50|1575|25403|False
1445|46|1576|21883|False
1446|50|1576|25403|False
1447|46|1577|21883|False
1448|50|1577|25403|False
1449|46|1578|21883|False
1450|50|1578|25403|False
1451|46|1579|21883|False
1452|50|1579|25403|False
1453|46|1580|21883|False
1454|50|1580|25403|False
1455|46|1581|21883|False
1456|50|1581|25403|False
1457|46|1582|21883|False
1458|50|1582|25403|False
1459|46|1583|21883|False
1460|50|1583|25403|False
1461|46|1584|21883|False
1462|50|1584|25403|False
1463|46|1585|21883|False
1464|50|1585|25403|False
1465|46|1586|21883|False
1466|50|1586|25403|False
1467|46|1587|21883|False
1468|50|1587|25403|False
1469|46|1588|21883|False
1470|50|1588|25403|False
1471|46|1589|21883|False
1472|50|1589|25403|False
1473|46|1590|21883|False
1474|50|1590|25403|False
1475|46|1591|21883|False
1476|50|1591|25403|False
1477|46|1592|21883|False
1478|50|1592|25403|False
1479|51|1599|25404|False
1480|51|1600|25404|False
1481|51|1601|25404|False
1482|51|1602|25404|False
1483|51|1603|25404|False
1484|51|1604|25404|False
1485|52|1604|24263|False
1486|51|1605|25404|False
1487|52|1605|24263|False
1488|51|1606|25404|False
1489|52|1606|24263|False
1490|51|1607|25404|False
1491|52|1607|24263|False
1492|53|1608|21883|False
1493|53|1609|21883|False
1494|53|1610|21883|False
1495|55|1610|1580|False
1496|53|1611|21883|False
1497|55|1611|1580|False
1498|53|1612|21883|False
1499|55|1612|1580|False
1500|53|1613|21883|False
1501|55|1613|1580|False
1502|53|1614|21883|False
1503|53|1615|21883|False
1504|55|1614|1580|False
1505|55|1615|1580|True
1506|53|1616|21883|False
1507|53|1617|21883|False
1508|56|1618|21883|False
1509|56|1619|21883|False
1510|56|1620|21883|False
1511|59|1620|1580|False
1512|65|1620|25404|False
1513|56|1621|21883|False
1514|59|1621|1580|False
1515|65|1621|25404|False
1516|56|1622|21883|False
1517|59|1622|1580|False
1518|65|1622|25404|False
1519|56|1623|21883|False
1520|59|1623|1580|False
1521|65|1623|25404|False
1522|56|1624|21883|False
1523|56|1625|21883|False
1524|59|1624|1580|False
1525|59|1625|1580|False
1526|65|1624|25404|False
1527|65|1625|25404|False
1528|66|1625|5657|False
1529|56|1626|21883|False
1530|59|1626|1580|False
1531|65|1626|25404|False
1532|66|1626|5657|False
1533|56|1627|21883|False
1534|59|1627|1580|False
1535|65|1627|25404|False
1536|66|1627|5657|False
1537|67|1627|21883|False
1538|68|1627|24263|False
1539|56|1628|21883|False
1540|59|1628|1580|False
1541|65|1628|25404|False
1542|66|1628|5657|False
1543|67|1628|21883|False
1544|68|1628|24263|False
1545|56|1629|21883|False
1546|59|1629|1580|False
1547|65|1629|25404|False
1548|66|1629|5657|False
1549|67|1629|21883|False
1550|68|1629|24263|False
1551|56|1630|21883|False
1552|59|1630|1580|False
1553|65|1630|25404|False
1554|66|1630|5657|False
1555|67|1630|21883|False
1556|68|1630|24263|False
1557|56|1631|21883|False
1558|59|1631|1580|False
1559|65|1631|25404|False
1560|66|1631|5657|False
1561|67|1631|21883|False
1562|68|1631|24263|False
1563|56|1632|21883|False
1564|56|1633|21883|False
1565|59|1632|1580|False
1566|59|1633|1580|False
1567|65|1632|25404|False
1568|65|1633|25404|False
1569|66|1632|5657|False
1570|66|1633|5657|False
1571|67|1632|21883|False
1572|67|1633|21883|False
1573|68|1632|24263|False
1574|68|1633|24263|False
1575|56|1634|21883|False
1576|59|1634|1580|False
1577|65|1634|25404|False
1578|66|1634|5657|False
1579|67|1634|21883|False
1580|68|1634|24263|False
1581|56|1635|21883|False
1582|59|1635|1580|False
1583|65|1635|25404|False
1584|66|1635|5657|False
1585|67|1635|21883|False
1586|68|1635|24263|False
1587|56|1636|21883|False
1588|59|1636|1580|False
1589|65|1636|25404|False
1590|66|1636|5657|False
1591|67|1636|21883|False
1592|68|1636|24263|False
1593|56|1637|21883|False
1594|59|1637|1580|False
1595|65|1637|25404|False
1596|66|1637|5657|False
1597|67|1637|21883|False
1598|68|1637|24263|False
1599|56|1638|21883|False
1600|56|1639|21883|False
1601|59|1638|1580|False
1602|59|1639|1580|False
1603|65|1638|25404|False
1604|65|1639|25404|False
1605|66|1638|5657|False
1606|66|1639|5657|False
1607|67|1638|21883|False
1608|67|1639|21883|False
1609|68|1638|24263|False
1610|68|1639|24263|False
1611|56|1640|21883|False
1612|59|1640|1580|False
1613|65|1640|25404|False
1614|66|1640|5657|False
1615|67|1640|21883|False
1616|68|1640|24263|False
1617|56|1641|21883|False
1618|59|1641|1580|False
1619|65|1641|25404|False
1620|66|1641|5657|False
1621|67|1641|21883|False
1622|68|1641|24263|False
1623|56|1642|21883|False
1624|59|1642|1580|False
1625|65|1642|25404|False
1626|66|1642|5657|False
1627|67|1642|21883|False
1628|68|1642|24263|False
1629|56|1643|21883|False
1630|59|1643|1580|False
1631|65|1643|25404|False
1632|66|1643|5657|False
1633|67|1643|21883|False
1634|68|1643|24263|False
1635|53|1644|21883|False
1636|58|1644|1580|False
1637|64|1644|25404|False
1638|53|1645|21883|False
1639|58|1645|1580|False
1640|64|1645|25404|False
1641|53|1646|21883|False
1642|58|1646|1580|False
1643|64|1646|25404|False
1644|53|1647|21883|False
1645|58|1647|1580|False
1646|64|1647|25404|False
1647|53|1648|21883|False
1648|53|1649|21883|False
1649|58|1648|1580|False
1650|58|1649|1580|False
1651|64|1648|25404|False
1652|64|1649|25404|False
1653|69|1649|5657|False
1654|53|1650|21883|False
1655|58|1650|1580|False
1656|64|1650|25404|False
1657|69|1650|5657|False
1658|53|1651|21883|False
1659|58|1651|1580|False
1660|64|1651|25404|False
1661|69|1651|5657|False
1662|70|1651|24263|False
1663|53|1652|21883|False
1664|58|1652|1580|False
1665|64|1652|25404|False
1666|69|1652|5657|False
1667|70|1652|24263|False
1668|71|1653|21883|False
1669|72|1653|24263|False
1670|71|1654|21883|False
1671|72|1654|24263|False
1672|71|1655|21883|False
1673|72|1655|24263|False
1674|73|1655|1580|False
1675|74|1655|25404|False
1676|75|1655|5657|False
1677|71|1656|21883|False
1678|72|1656|24263|False
1679|73|1656|1580|False
1680|74|1656|25404|False
1681|75|1656|5657|False
1682|71|1657|21883|False
1683|72|1657|24263|False
1684|73|1657|1580|False
1685|74|1657|25404|False
1686|75|1657|5657|False
1687|71|1658|21883|False
1688|72|1658|24263|False
1689|73|1658|1580|False
1690|74|1658|25404|False
1691|75|1658|5657|False
1692|71|1659|21883|False
1693|72|1659|24263|False
1694|73|1659|1580|False
1695|74|1659|25404|False
1696|75|1659|5657|False
1697|71|1660|21883|False
1698|71|1661|21883|True
1699|72|1660|24263|False
1700|72|1661|24263|False
1701|73|1660|1580|False
1702|73|1661|1580|False
1703|74|1660|25404|False
1704|74|1661|25404|False
1705|75|1660|5657|False
1706|75|1661|5657|False
1707|72|1662|24263|False
1708|73|1662|1580|False
1709|74|1662|25404|False
1710|75|1662|5657|False
1711|72|1663|24263|False
1712|73|1663|1580|False
1713|74|1663|25404|False
1714|75|1663|5657|False
1715|46|1664|21883|False
1716|50|1664|25403|False
1717|60|1664|12594|False
1718|46|1665|21883|False
1719|50|1665|25403|False
1720|60|1665|12594|False
1721|76|1667|1580|False
1722|77|1667|21883|False
1723|78|1667|25404|False
1724|76|1668|1580|False
1725|77|1668|21883|False
1726|78|1668|25404|False
1727|76|1669|1580|False
1728|77|1669|21883|False
1729|78|1669|25404|False
1730|87|1669|7812|False
1731|88|1669|9998|False
1732|76|1670|1580|False
1733|77|1670|21883|False
1734|78|1670|25404|False
1735|87|1670|7812|False
1736|88|1670|9998|False
1737|76|1671|1580|False
1738|77|1671|21883|False
1739|78|1671|25404|False
1740|87|1671|7812|False
1741|88|1671|9998|False
1742|76|1672|1580|False
1743|77|1672|21883|False
1744|78|1672|25404|False
1745|87|1672|7812|False
1746|88|1672|9998|False
1747|76|1673|1580|False
1748|77|1673|21883|False
1749|78|1673|25404|False
1750|87|1673|7812|False
1751|88|1673|9998|False
1752|76|1674|1580|False
1753|77|1674|21883|False
1754|78|1674|25404|False
1755|87|1674|7812|False
1756|88|1674|9998|False
1757|76|1675|1580|False
1758|76|1676|1580|False
1759|77|1675|21883|False
1760|77|1676|21883|False
1761|78|1675|25404|False
1762|78|1676|25404|False
1763|87|1675|7812|False
1764|87|1676|7812|False
1765|88|1675|9998|False
1766|88|1676|9998|False
1767|95|1676|9844|False
1768|76|1677|1580|False
1769|77|1677|21883|False
1770|78|1677|25404|False
1771|87|1677|7812|False
1772|88|1677|9998|False
1773|95|1677|9844|False
1774|76|1678|1580|False
1775|77|1678|21883|False
1776|78|1678|25404|False
1777|87|1678|7812|False
1778|88|1678|9998|False
1779|95|1678|9844|False
1780|76|1679|1580|False
1781|77|1679|21883|False
1782|78|1679|25404|False
1783|87|1679|7812|False
1784|88|1679|9998|False
1785|95|1679|9844|False
1786|76|1680|1580|False
1787|76|1681|1580|False
1788|77|1680|21883|False
1789|77|1681|21883|False
1790|78|1680|25404|False
1791|78|1681|25404|False
1792|87|1680|7812|False
1793|87|1681|7812|False
1794|88|1680|9998|False
1795|88|1681|9998|False
1796|95|1680|9844|False
1797|95|1681|9844|False
1798|76|1682|1580|False
1799|77|1682|21883|False
1800|78|1682|25404|False
1801|87|1682|7812|False
1802|88|1682|9998|False
1803|95|1682|9844|False
1804|76|1683|1580|False
1805|77|1683|21883|False
1806|78|1683|25404|False
1807|87|1683|7812|False
1808|88|1683|9998|False
1809|95|1683|9844|False
1810|96|1683|5069|False
1811|97|1683|6187|False
1812|98|1683|7809|False
1813|99|1683|25403|False
1814|76|1684|1580|False
1815|77|1684|21883|False
1816|78|1684|25404|False
1817|87|1684|7812|False
1818|88|1684|9998|False
1819|95|1684|9844|False
1820|96|1684|5069|False
1821|97|1684|6187|False
1822|98|1684|7809|False
1823|99|1684|25403|False
1824|76|1685|1580|False
1825|77|1685|21883|False
1826|78|1685|25404|False
1827|87|1685|7812|False
1828|88|1685|9998|False
1829|95|1685|9844|False
1830|96|1685|5069|False
1831|97|1685|6187|False
1832|98|1685|7809|False
1833|99|1685|25403|False
1834|76|1686|1580|False
1835|77|1686|21883|False
1836|78|1686|25404|False
1837|87|1686|7812|False
1838|88|1686|9998|False
1839|95|1686|9844|False
1840|96|1686|5069|False
1841|97|1686|6187|False
1842|98|1686|7809|False
1843|99|1686|25403|False
1844|76|1687|1580|False
1845|77|1687|21883|False
1846|78|1687|25404|False
1847|87|1687|7812|False
1848|88|1687|9998|False
1849|95|1687|9844|False
1850|96|1687|5069|False
1851|97|1687|6187|False
1852|98|1687|7809|False
1853|99|1687|25403|False
1854|76|1688|1580|False
1855|77|1688|21883|False
1856|78|1688|25404|False
1857|87|1688|7812|False
1858|88|1688|9998|False
1859|95|1688|9844|False
1860|96|1688|5069|False
1861|97|1688|6187|False
1862|98|1688|7809|False
1863|99|1688|25403|False
1864|76|1689|1580|False
1865|77|1689|21883|False
1866|78|1689|25404|False
1867|87|1689|7812|False
1868|88|1689|9998|False
1869|95|1689|9844|False
1870|96|1689|5069|False
1871|97|1689|6187|False
1872|98|1689|7809|False
1873|99|1689|25403|False
1874|100|1698|21883|False
1875|100|1699|21883|False
1876|100|1700|21883|False
1877|100|1701|21883|False
1878|100|1702|21883|False
1879|100|1703|21883|False
1880|100|1704|21883|False
1881|100|1705|21883|False
1882|100|1706|21883|False
1883|100|1707|21883|False
1884|100|1708|21883|False
1885|101|1708|7810|False
1886|100|1709|21883|False
1887|101|1709|7810|False
1888|100|1710|21883|False
1889|101|1710|7810|False
1890|100|1711|21883|False
1891|101|1711|7810|False
1892|100|1712|21883|False
1893|101|1712|7810|False
1894|100|1713|21883|False
1895|101|1713|7810|False
1896|102|1713|7801|False
1897|103|1713|9798|False
1898|104|1713|24263|False
1899|108|1713|21881|False
1900|100|1714|21883|False
1901|101|1714|7810|False
1902|102|1714|7801|False
1903|103|1714|9798|False
1904|104|1714|24263|False
1905|108|1714|21881|False
1906|110|1724|21883|False
1907|111|1724|24263|False
1908|110|1725|21883|False
1909|111|1725|24263|False
1910|110|1726|21883|False
1911|111|1726|24263|False
1912|31|1727|6190|False
1913|32|1727|9842|False
1914|33|1727|9844|False
1915|37|1727|25404|False
1916|44|1727|12594|False
1917|45|1727|25403|False
1918|31|1728|6190|False
1919|32|1728|9842|False
1920|33|1728|9844|False
1921|37|1728|25404|False
1922|44|1728|12594|False
1923|45|1728|25403|False
1924|112|1734|7810|False
1925|112|1735|7810|False
1926|112|1736|7810|False
1927|112|1737|7810|False
1928|112|1738|7810|False
1929|115|1738|21881|False
1930|116|1738|21883|False
1931|110|1739|21883|False
1932|111|1739|24263|False
1933|113|1739|12594|False
1934|114|1739|25403|False
1935|117|1739|7810|False
1936|118|1739|25404|False
1937|110|1740|21883|False
1938|111|1740|24263|False
1939|113|1740|12594|False
1940|114|1740|25403|False
1941|117|1740|7810|False
1942|118|1740|25404|False
1943|112|1741|7810|False
1944|115|1741|21881|False
1945|116|1741|21883|False
1946|72|1742|24263|False
1947|73|1742|1580|False
1948|74|1742|25404|False
1949|75|1742|5657|False
1950|85|1742|7812|False
1951|86|1742|9998|False
1952|93|1742|9798|False
1953|94|1742|23884|False
1954|107|1742|7801|False
1955|72|1743|24263|False
1956|73|1743|1580|False
1957|74|1743|25404|False
1958|75|1743|5657|False
1959|85|1743|7812|False
1960|86|1743|9998|False
1961|93|1743|9798|False
1962|94|1743|23884|False
1963|107|1743|7801|False
1964|72|1744|24263|False
1965|73|1744|1580|False
1966|74|1744|25404|False
1967|75|1744|5657|False
1968|85|1744|7812|False
1969|86|1744|9998|False
1970|93|1744|9798|False
1971|94|1744|23884|False
1972|107|1744|7801|False
1973|72|1745|24263|False
1974|73|1745|1580|False
1975|74|1745|25404|False
1976|75|1745|5657|False
1977|85|1745|7812|False
1978|86|1745|9998|False
1979|93|1745|9798|False
1980|94|1745|23884|False
1981|107|1745|7801|False
1982|72|1746|24263|False
1983|72|1747|24263|False
1984|73|1746|1580|False
1985|73|1747|1580|False
1986|74|1746|25404|False
1987|74|1747|25404|False
1988|75|1746|5657|False
1989|75|1747|5657|False
1990|85|1746|7812|False
1991|85|1747|7812|False
1992|86|1746|9998|False
1993|86|1747|9998|False
1994|93|1746|9798|False
1995|93|1747|9798|False
1996|94|1746|23884|False
1997|94|1747|23884|False
1998|107|1746|7801|False
1999|107|1747|7801|False
2000|119|1747|8593|False
2001|72|1748|24263|False
2002|73|1748|1580|False
2003|74|1748|25404|False
2004|75|1748|5657|False
2005|85|1748|7812|False
2006|86|1748|9998|False
2007|93|1748|9798|False
2008|94|1748|23884|False
2009|107|1748|7801|False
2010|119|1748|8593|False
2011|72|1749|24263|False
2012|73|1749|1580|False
2013|74|1749|25404|False
2014|75|1749|5657|False
2015|85|1749|7812|False
2016|86|1749|9998|False
2017|93|1749|9798|False
2018|94|1749|23884|False
2019|107|1749|7801|False
2020|119|1749|8593|False
2021|120|1749|12455|False
2022|72|1750|24263|False
2023|73|1750|1580|False
2024|74|1750|25404|False
2025|75|1750|5657|False
2026|85|1750|7812|False
2027|86|1750|9998|False
2028|93|1750|9798|False
2029|94|1750|23884|False
2030|107|1750|7801|False
2031|119|1750|8593|False
2032|120|1750|12455|False
2033|72|1751|24263|False
2034|73|1751|1580|False
2035|74|1751|25404|False
2036|75|1751|5657|False
2037|85|1751|7812|False
2038|86|1751|9998|False
2039|93|1751|9798|False
2040|94|1751|23884|False
2041|107|1751|7801|False
2042|119|1751|8593|False
2043|120|1751|12455|False
2044|72|1752|24263|False
2045|73|1752|1580|False
2046|74|1752|25404|False
2047|75|1752|5657|False
2048|85|1752|7812|False
2049|86|1752|9998|False
2050|93|1752|9798|False
2051|94|1752|23884|False
2052|107|1752|7801|False
2053|119|1752|8593|False
2054|120|1752|12455|False
2055|72|1753|24263|False
2056|73|1753|1580|False
2057|74|1753|25404|False
2058|75|1753|5657|False
2059|85|1753|7812|False
2060|86|1753|9998|False
2061|93|1753|9798|False
2062|94|1753|23884|False
2063|107|1753|7801|False
2064|119|1753|8593|False
2065|120|1753|12455|False
2066|72|1754|24263|False
2067|73|1754|1580|False
2068|74|1754|25404|False
2069|75|1754|5657|False
2070|85|1754|7812|False
2071|86|1754|9998|False
2072|93|1754|9798|False
2073|94|1754|23884|False
2074|107|1754|7801|False
2075|119|1754|8593|False
2076|120|1754|12455|False
2077|72|1755|24263|False
2078|73|1755|1580|False
2079|74|1755|25404|False
2080|75|1755|5657|False
2081|85|1755|7812|False
2082|86|1755|9998|False
2083|93|1755|9798|False
2084|94|1755|23884|False
2085|107|1755|7801|False
2086|119|1755|8593|False
2087|120|1755|12455|False
2088|72|1756|24263|False
2089|73|1756|1580|False
2090|74|1756|25404|False
2091|75|1756|5657|False
2092|85|1756|7812|False
2093|86|1756|9998|False
2094|93|1756|9798|False
2095|94|1756|23884|False
2096|107|1756|7801|False
2097|119|1756|8593|False
2098|120|1756|12455|False
2099|72|1757|24263|False
2100|72|1758|24263|False
2101|73|1757|1580|False
2102|73|1758|1580|False
2103|74|1757|25404|False
2104|74|1758|25404|False
2105|75|1757|5657|False
2106|75|1758|5657|False
2107|85|1757|7812|False
2108|85|1758|7812|False
2109|86|1757|9998|False
2110|86|1758|9998|False
2111|93|1757|9798|False
2112|93|1758|9798|False
2113|94|1757|23884|False
2114|94|1758|23884|False
2115|107|1757|7801|False
2116|107|1758|7801|False
2117|119|1757|8593|False
2118|119|1758|8593|False
2119|120|1757|12455|False
2120|120|1758|12455|False
2121|121|1758|3351|False
2122|72|1759|24263|False
2123|73|1759|1580|False
2124|74|1759|25404|False
2125|75|1759|5657|False
2126|85|1759|7812|False
2127|86|1759|9998|False
2128|93|1759|9798|False
2129|94|1759|23884|False
2130|107|1759|7801|False
2131|119|1759|8593|False
2132|120|1759|12455|False
2133|121|1759|3351|False
2134|46|1777|21883|False
2135|50|1777|25403|False
2136|60|1777|12594|False
2137|46|1778|21883|False
2138|50|1778|25403|False
2139|60|1778|12594|False
2140|46|1779|21883|False
2141|50|1779|25403|False
2142|60|1779|12594|False
2143|46|1780|21883|False
2144|50|1780|25403|False
2145|60|1780|12594|False
2146|46|1781|21883|False
2147|50|1781|25403|False
2148|60|1781|12594|False
2149|46|1782|21883|False
2150|50|1782|25403|False
2151|60|1782|12594|False
2152|46|1783|21883|False
2153|46|1784|21883|False
2154|50|1783|25403|False
2155|50|1784|25403|False
2156|60|1783|12594|False
2157|60|1784|12594|False
2158|46|1785|21883|False
2159|50|1785|25403|False
2160|60|1785|12594|False
2161|46|1786|21883|False
2162|50|1786|25403|False
2163|60|1786|12594|False
2164|46|1787|21883|False
2165|50|1787|25403|False
2166|60|1787|12594|False
2167|46|1788|21883|False
2168|50|1788|25403|False
2169|60|1788|12594|False
2170|46|1789|21883|False
2171|50|1789|25403|False
2172|60|1789|12594|False
2173|46|1790|21883|False
2174|50|1790|25403|False
2175|60|1790|12594|False
2176|46|1791|21883|False
2177|50|1791|25403|False
2178|60|1791|12594|False
2179|46|1792|21883|False
2180|50|1792|25403|False
2181|60|1792|12594|False
2182|46|1793|21883|False
2183|50|1793|25403|False
2184|60|1793|12594|False
2185|46|1794|21883|False
2186|50|1794|25403|False
2187|60|1794|12594|False
2188|46|1795|21883|False
2189|50|1795|25403|False
2190|60|1795|12594|False
2191|46|1796|21883|False
2192|50|1796|25403|False
2193|60|1796|12594|False
2194|46|1797|21883|False
2195|46|1798|21883|False
2196|50|1797|25403|False
2197|50|1798|25403|False
2198|60|1797|12594|False
2199|60|1798|12594|False
2200|46|1799|21883|False
2201|50|1799|25403|False
2202|60|1799|12594|False
2203|46|1800|21883|False
2204|50|1800|25403|False
2205|60|1800|12594|False
2206|46|1801|21883|False
2207|50|1801|25403|False
2208|60|1801|12594|False
2209|123|1810|12594|False
2210|124|1810|25403|False
2211|123|1811|12594|False
2212|124|1811|25403|False
2213|123|1812|12594|False
2214|124|1812|25403|False
2215|123|1813|12594|False
2216|124|1813|25403|False
2217|123|1814|12594|False
2218|124|1814|25403|False
2219|125|1815|12594|False
2220|126|1815|25403|False
2221|127|1816|6187|False
2222|128|1816|25403|False
2223|129|1816|36632|False
2224|100|1817|21883|False
2225|101|1817|7810|False
2226|102|1817|7801|False
2227|103|1817|9798|False
2228|104|1817|24263|False
2229|108|1817|21881|False
2230|100|1818|21883|False
2231|101|1818|7810|False
2232|102|1818|7801|False
2233|103|1818|9798|False
2234|104|1818|24263|False
2235|108|1818|21881|False
2236|100|1819|21883|False
2237|101|1819|7810|False
2238|102|1819|7801|False
2239|103|1819|9798|False
2240|104|1819|24263|False
2241|108|1819|21881|False
2242|100|1820|21883|False
2243|100|1821|21883|False
2244|101|1820|7810|False
2245|101|1821|7810|False
2246|102|1820|7801|False
2247|102|1821|7801|False
2248|103|1820|9798|False
2249|103|1821|9798|False
2250|104|1820|24263|False
2251|104|1821|24263|False
2252|108|1820|21881|False
2253|108|1821|21881|False
2254|100|1822|21883|False
2255|101|1822|7810|False
2256|102|1822|7801|False
2257|103|1822|9798|False
2258|104|1822|24263|False
2259|108|1822|21881|False
2260|100|1823|21883|False
2261|101|1823|7810|False
2262|102|1823|7801|False
2263|103|1823|9798|False
2264|104|1823|24263|False
2265|108|1823|21881|False
2266|127|1824|6187|False
2267|128|1824|25403|False
2268|129|1824|36632|False
2269|127|1825|6187|False
2270|128|1825|25403|False
2271|129|1825|36632|False
2272|46|1827|21883|False
2273|50|1827|25403|False
2274|60|1827|12594|False
2275|46|1828|21883|False
2276|50|1828|25403|False
2277|60|1828|12594|False
2278|46|1829|21883|False
2279|50|1829|25403|False
2280|60|1829|12594|False
2281|46|1830|21883|False
2282|50|1830|25403|False
2283|60|1830|12594|False
2284|46|1831|21883|False
2285|50|1831|25403|False
2286|60|1831|12594|False
2287|46|1832|21883|False
2288|50|1832|25403|False
2289|60|1832|12594|False
2290|46|1833|21883|False
2291|50|1833|25403|False
2292|60|1833|12594|False
2293|46|1834|21883|False
2294|46|1835|21883|False
2295|50|1834|25403|False
2296|50|1835|25403|False
2297|60|1834|12594|False
2298|60|1835|12594|False
2299|46|1836|21883|False
2300|50|1836|25403|False
2301|60|1836|12594|False
2302|46|1837|21883|False
2303|50|1837|25403|False
2304|60|1837|12594|False
2305|46|1838|21883|False
2306|50|1838|25403|False
2307|60|1838|12594|False
2308|46|1839|21883|False
2309|50|1839|25403|False
2310|60|1839|12594|False
2311|46|1840|21883|False
2312|46|1841|21883|False
2313|50|1840|25403|False
2314|50|1841|25403|False
2315|60|1840|12594|False
2316|60|1841|12594|False
2317|46|1842|21883|False
2318|50|1842|25403|False
2319|60|1842|12594|False
2320|46|1843|21883|False
2321|50|1843|25403|False
2322|60|1843|12594|False
2323|127|1844|6187|False
2324|128|1844|25403|False
2325|129|1844|36632|False
2326|127|1845|6187|False
2327|128|1845|25403|False
2328|129|1845|36632|False
2329|127|1846|6187|False
2330|128|1846|25403|False
2331|129|1846|36632|False
2332|127|1847|6187|False
2333|128|1847|25403|False
2334|129|1847|36632|False
2335|127|1848|6187|False
2336|127|1849|6187|False
2337|128|1848|25403|False
2338|128|1849|25403|False
2339|129|1848|36632|False
2340|129|1849|36632|False
2341|127|1850|6187|False
2342|128|1850|25403|False
2343|129|1850|36632|False
2344|127|1851|6187|False
2345|128|1851|25403|False
2346|129|1851|36632|False
2347|127|1852|6187|False
2348|128|1852|25403|False
2349|129|1852|36632|False
2350|127|1853|6187|False
2351|128|1853|25403|False
2352|129|1853|36632|False
2353|127|1854|6187|False
2354|128|1854|25403|False
2355|129|1854|36632|False
2356|127|1855|6187|False
2357|128|1855|25403|False
2358|129|1855|36632|False
2359|127|1856|6187|False
2360|128|1856|25403|False
2361|129|1856|36632|False
2362|127|1857|6187|False
2363|128|1857|25403|False
2364|129|1857|36632|False
2365|127|1858|6187|False
2366|128|1858|25403|False
2367|129|1858|36632|False
2368|127|1859|6187|False
2369|128|1859|25403|False
2370|129|1859|36632|False
2371|127|1860|6187|False
2372|128|1860|25403|False
2373|129|1860|36632|False
2374|127|1861|6187|False
2375|128|1861|25403|False
2376|129|1861|36632|False
2377|127|1862|6187|False
2378|128|1862|25403|False
2379|129|1862|36632|False
2380|127|1863|6187|False
2381|128|1863|25403|False
2382|129|1863|36632|False
2383|127|1864|6187|False
2384|128|1864|25403|False
2385|129|1864|36632|False
2386|123|1865|12594|False
2387|124|1865|25403|False
2388|123|1866|12594|False
2389|124|1866|25403|False
2390|47|1867|21883|False
2391|49|1867|25403|False
2392|54|1867|1580|False
2393|57|1867|1580|False
2394|61|1867|12594|False
2395|63|1867|25404|False
2396|79|1867|7812|False
2397|80|1867|9998|False
2398|46|1868|21883|False
2399|50|1868|25403|False
2400|60|1868|12594|False
2401|47|1869|21883|False
2402|49|1869|25403|False
2403|54|1869|1580|False
2404|57|1869|1580|False
2405|61|1869|12594|False
2406|63|1869|25404|False
2407|79|1869|7812|False
2408|80|1869|9998|False
2409|46|1870|21883|False
2410|50|1870|25403|False
2411|60|1870|12594|False
2412|47|1871|21883|False
2413|49|1871|25403|False
2414|54|1871|1580|False
2415|57|1871|1580|False
2416|61|1871|12594|False
2417|63|1871|25404|False
2418|79|1871|7812|False
2419|80|1871|9998|False
2420|46|1874|21883|False
2421|50|1874|25403|False
2422|60|1874|12594|False
2423|46|1875|21883|False
2424|50|1875|25403|False
2425|60|1875|12594|False
