﻿AID|AUserID|RoleID|Active
1|24|5|True
2|25|1|True
3|28|1|True
4|29|5|True
5|138|3|True
6|139|2|True
7|140|2|True
8|141|1|True
9|142|3|True
10|143|1|True
11|144|1|True
12|145|3|True
13|386|1|True
14|387|3|True
15|481|5|True
16|482|5|False
17|486|5|True
18|576|5|True
19|577|5|False
20|616|3|True
21|617|1|True
22|632|5|True
23|633|5|False
24|716|5|True
25|725|5|False
26|727|5|False
27|874|5|True
28|875|5|False
29|879|5|True
30|881|5|False
31|1073|1|True
32|1081|5|True
33|1082|5|False
34|1083|5|True
35|1084|5|False
36|1085|5|True
37|1086|5|False
38|1087|5|False
39|1088|5|False
40|1089|5|True
41|1090|5|False
42|1091|5|True
43|1092|5|False
44|1093|5|True
45|1094|5|False
46|1095|1|True
47|1096|1|True
48|1097|1|True
49|1098|2|True
50|1099|2|True
51|1100|2|True
52|1101|2|True
53|1102|5|True
54|1103|3|True
55|1104|3|False
56|1105|5|True
57|1106|3|True
58|1107|5|True
59|1108|5|False
60|1110|2|True
61|1111|1|True
62|1229|1|True
63|1230|5|True
64|1629|1|True
65|1630|1|False
66|1714|1|True
67|1734|1|True
68|1735|1|False
69|1737|5|True
70|1753|1|True
71|1777|1|True
72|1779|1|True
73|1781|1|False
74|1784|2|True
75|1787|1|True
76|1865|5|True
77|1867|5|True
78|1890|1|True
79|1891|1|False
80|1893|1|True
81|1896|1|True
82|1897|1|False
83|1899|3|True
84|1904|3|True
85|1906|3|False
86|1909|5|True
87|1916|5|True
88|1919|3|True
89|1926|3|True
90|1929|5|True
91|1937|5|True
92|1940|5|False
93|1960|1|True
94|1961|5|True
95|1964|2|True
96|1967|5|True
97|1974|5|True
98|1977|5|False
99|1981|1|True
100|1985|1|True
101|1989|5|True
102|2005|5|True
103|2009|1|True
104|2013|1|True
105|2017|1|True
106|2051|1|True
107|2055|2|True
108|2064|2|True
109|2068|3|True
110|2113|3|True
111|2117|1|True
112|2377|5|True
113|2379|2|True
114|2380|1|True
115|2381|2|True
116|2400|2|True
117|2401|3|True
118|2407|1|True
119|2408|5|True
120|2528|5|True
121|2529|1|True
122|2533|5|True
123|2534|1|True
124|3598|5|True
125|3599|5|False
126|3601|1|True
