﻿CompanyID|Company|CountryID|CompanyDescription|Active
1|DBSAM|1|DBSAM|True
2|IBA|1|Islamic Bank of Asia|True
3|HKB|2|Hong Kong Branch|True
4|SAC|2|DBSAC|True
5|KLB|3|Labuan Branch, KLMO, KL Rep Office|True
6|KLM|3|KLMO|True
7|KLR|3|KL Rep Office|True
8|INB|4|PT Bank DBS Indonesia|True
9|SHB|5|Shanghai Branch|True
10|BJB|5|Beijing Branch|True
11|GZB|5|Guangzhou Branch|True
12|SZB|5|Shenzhen Branch|True
13|FZB|5|Fuzhou Branch|True
14|TJB|5|Tianjin Branch1|True
15|DGB|5|Dongguan Branch|True
16|HZB|5|Hangzhou Branch|True
17|DBB|6|Dubai Branch|True
18|MBB|7|Mumbai Branch|True
19|DHB|7|Delhi Branch|True
20|LDB|8|London Branch|True
21|LAA|9|Los Angeles Agency|True
22|BRO|10|Bangkok Rep Office|True
23|MRO|11|Manila Rep Office|True
24|SOB|12|Seoul Branch|True
25|TPB|13|Taipei Branch|True
26|TKB|14|Tokyo Branch|True
27|VTB|15|Vietnam Branch|True
28|200001|5|DBS China|True
29|200002|5|DBS Asset Management (China)|True
30|200003|2|DBS Hong Kong|True
31|200004|5|Vickers China|True
32|200005|2|Vickers Hong Kong|True
33|200006|5|Jobs DB China|True
34|299999|2|DBS Asset Management (HK)|True
35|HWANG|3|DBS Malaysia|True
36|JOBSDB|2|Jobs DB Hong Kong|True
37|VICKERS|1|Vickers|True
38|DBSBANK|1|DBS Bank Ltd|True
39|Tes|1|Test Company|False
40|te|8|te|False
41|333|15|333|False
42|ff|15|ff|False
43|rr|15|rr|False
44|rr|52|rr|False
45|rtetere|11|ertert|False
46|rr|15|rr|True
47|007|15|clever|True
48|DBS|54|DBS Bank Ltd|True
49|DAC|5|DAC|True
50|DBB|5|DBB|True
51|DBS|5|DBS|True
52|DGZ|5|DGZ|True
53|DHK|5|DHK|True
54|DBS|51|DBS|True
55|DAC|2|DAC|True
56|DAM|2|DAM|True
57|DBB|2|DBB|True
58|DBS|2|DBS|True
59|DHK|2|DHK|True
60|DBS|7|DBS|True
61|DBS|12|DBS|True
62|DHK|52|DHK|True
63|DBS|3|DBS|True
64|DBS|1|DBS|True
65|DHK|1|DHK|True
66|DBS|10|DBS|True
67|DBS|13|DBS|True
68|DBS|9|DBS|True
69|US_LA|9|US_LA|True
70|UK_LD|51|London Branch|True
71|VSS|1|DBS Vickers|True
72|VSR|1|DBS VSR|True
73|DBS|8|DBS Bank Ltd|True
74|DGB|51|DGB|True
75|VGB|51|VGB|True
76|DSH|5|DSH|True
77|DBJ|5|DBJ|True
78|DHZ|5|DHZ|True
79|DSU|5|DSU|True
80|DZN|5|DZN|True
81|DDG|5|DDG|True
82|DCQ|5|DCQ|True
83|DID|4|DID|True
84|DID|7|DID|True
85|IBA|56|IBA|True
86|DCN|5|DCN|True
87|DSZ|5|DSZ|True
88|VHK|5|VHK|True
89|DNN|5|DNN|True
90|DTJ|5|DTJ|True
91|DFT|5|DFT|True
92|DIF|5|DIF|True
93|DFZ|5|DFZ|True
94|DAS|5|DAS|True
95|DBL|2|DBL|True
96|DMC|2|DMC|True
97|VHK|2|VHk|True
98|DIN|4|DIN|True
99|VID|4|VID|True
100|DJP|14|DJP|True
101|DKR|12|DKR|True
102|DMY|3|DMY|True
103|DKL|3|DKL|True
104|DPH|11|DPH|True
105|DTW|1|DTW|True
106|VTH|10|VTH|True
107|DTH|10|DTH|True
108|DTW|13|DTW|True
109|DTB|13|DTB|True
110|DIA|13|DIA|True
111|DUS|9|DUS|True
112|VUS|9|VUS|True
113|DVN|15|DVN|True
114|DHN|15|DHN|True
115|DBS|15|DBS|True
116|VBS|1|VBS|True
117|DTB|2|DTB|True
