﻿OtherGrpMemberID|GroupID|OneBankID|Active|dateadded|isgreylistupdated
1|1|418505|False|2014-05-11 06:34:14|True
2|1|419427|False|2014-05-11 06:34:14|True
3|1|419532|False|2014-05-11 06:34:14|True
4|2|418057|False|2014-05-11 06:34:14|True
5|2|cynthiatan|False|2014-05-11 06:34:14|True
6|4|cynthiatan|False|2014-05-11 06:34:14|True
7|7|tsewei|False|2014-05-11 06:34:14|True
8|7|moetchun|True|2014-05-11 06:34:14|True
9|7|tsewei|False|2014-05-11 06:34:14|True
10|7|joycefoo|False|2014-05-11 06:34:14|True
11|7|cheksoon|True|2014-05-11 06:34:14|True
12|7|seatmoey|False|2014-05-11 06:34:14|True
13|7|brendasee|False|2014-05-11 06:34:14|True
14|8|kohboonhwee|True|2014-05-11 06:34:14|True
15|8|alfredjohnmitchell|True|2014-05-11 06:34:14|True
16|8|cheksoon|False|2014-05-11 06:34:14|True
17|1|alanli|False|2014-05-11 06:34:14|True
18|1|evachanyt|False|2014-05-11 06:34:14|True
19|1|kennylamks|False|2014-05-11 06:34:14|True
20|4|shengchinlim|True|2014-05-11 06:34:14|True
21|4|boonchyekua|True|2014-05-11 06:34:14|True
22|4|FCISService|False|2014-05-11 06:34:14|True
23|4|FCISService|False|2014-05-11 09:51:33|True
24|8|annathurai1|True|2014-05-23 09:50:37|True
25|3|annathurai1|True|2014-05-23 09:50:58|True
26|3|carolinec|True|2014-05-23 09:51:22|True
27|8|carolinec|False|2014-05-23 09:51:52|True
28|1|justincham|True|2014-05-23 10:47:45|True
29|2|justincham|True|2014-05-23 10:49:00|True
30|51|FCISService|False|2014-06-12 12:06:33|True
31|52|FCISService|True|2014-06-12 12:06:58|True
32|51|boonchyekua|True|2014-06-12 12:07:30|True
33|52|aakanksha|True|2014-06-12 12:10:10|True
34|1|malekbujang|True|2014-06-12 12:16:11|True
35|2|adelouis|False|2014-06-12 12:17:14|True
36|1|FCISService|False|2014-06-12 12:40:28|False
37|2|aakanksha|True|2014-06-12 12:42:26|False
38|1|boonpin|True|2014-06-12 16:17:29|False
39|1|jaslinyap|True|2014-06-12 16:18:04|False
40|2|cadetan|False|2014-06-12 16:21:11|False
41|2|muinee|True|2014-06-12 16:21:11|False
42|8|justincham|False|2014-06-12 16:25:32|False
43|8|shawmingchia|True|2014-06-12 16:42:49|False
44|8|tennysumarta|True|2014-06-12 16:43:36|False
45|8|029901|True|2014-06-12 16:43:36|False
46|2|qingyuanwong|True|2014-06-12 17:01:16|False
47|3|justincham|True|2014-06-12 17:04:23|False
48|51|chyanpit|False|2014-06-12 17:12:43|False
49|51|justincham|True|2014-06-12 17:12:43|False
50|52|chyanpit|True|2014-06-12 17:16:03|False
51|53|sharonlimaichen|True|2014-06-22 06:14:28|False
52|53|aiai|True|2014-06-22 06:14:38|False
53|54|susannayong|True|2014-06-22 06:25:15|False
54|54|meganchng|True|2014-06-22 06:25:15|False
55|8|011462|True|2015-08-26 16:29:13|False
56|55|034518|False|2015-10-30 11:45:29|False
57|2|006153|False|2015-10-30 15:53:27|False
