﻿GroupID|GroupCode|GroupName|Active
1|GRP1|Group1|True
2|GRP2|Group2|True
3|INDCM|Indonesia Compliance|True
4|FINAN|Finance|False
5|M&AHD|M&A Head|False
6|ECMHD|ECM Head|False
7|DCMHD|DCM Head|False
8|WALST|Wall Straddler|True
51|GP1|UATGroup1|True
52|GP2|UATGroup2|True
53|Prod|Test Prod|True
54|Prod2|Test Prod2|True
55|TC|Tom Cat|True
56|SGC|SG Compliance|False
57|Ban|Banana|False
