﻿StockExchangeID|StockExchangeCode|StockExchange|CountryCode|Viewable|Active
51|AUSEX|Australia AUSEX|AUS|True|True
52|BSE|BSE|IND|True|True
53|BMSEX|Bursa Malaysia|MYS|True|True
54|CEX|China|CHN|True|True
55|HKEX|HKEX - Hong Kong|HKG|True|True
56|INDON|INDON|IDN|True|True
57|JKEX|Jakarta|IDN|True|True
58|KOREX|Korea|KOR|True|True
59|LONEX|London|UK|True|True
60|NYSE|NYSE|USA|True|True
61|SGX|SGX - Singapore|SGP|True|True
62|THAEX|Thailand|THA|True|True
63|SEOEX|Seoul|KOR|True|True
64|SHEX|Shang Hai|CHN|True|True
65|KLEX|KL Exchange|MYS|True|True
66|NSE|NSE|IND|True|True
67|Nasdaq|Nasdaq|USA|False|True
68|KUWEX|KUWAIT|PHL|True|True
69|test|test|USA|True|True
70|NEW|NEW|VNM|True|True
71|test1|test1|SGP|False|True
72|INF|Info|IND|True|True
73|test ex nv|test exnv|VNM|False|True
74|SCOT|Scotland Exchange|GBR|False|True
75|SZX|Shen Zhen Exchange|CHN|True|True
76|Paris|Paris|UK|True|True
77|UAT12345|User Accep Testing 123|CAN|True|True
78|CHX|US Chicago CHX|USA|True|True
79|SET|Thailand SET|THA|True|True
80|SSE|PRC Shanghai SSE|CHN|True|True
81|KLSE|Malaysia KLSE|MYS|True|True
82|KSE|Korea KSE|KOR|True|True
83|TSE|Tokyo TSE|JPN|True|True
84|Bahrain|Bahrain|BHR|True|True
85|ASX|Australia ASX|AUS|True|True
86|TSX|Toronto TSX|CAN|True|True
87|NSX|New Zealand NSX|NEW|True|True
88|LSE|LONDON LSE|GBR|True|True
89|IDX|Jakarta IDX|IDN|True|True
90|MICHAEL|MICHAEL STOCK EXCHANGE|SGP|True|True
91|UAT|Test|ARE|True|True
92|wwww|www|SGP|True|True
