﻿GreyListOtherMemberID|GreyListID|OtherMemberID|IsDeleted|GroupID
2|11|4|False|0
3|11|3|False|0
4|11|1|False|0
5|11|51|True|0
6|10|51|True|0
7|4|51|True|0
8|7|51|True|0
9|16|51|True|0
10|14|3|False|0
11|27|51|True|0
12|29|6187|True|0
13|29|6187|True|0
14|26|6171|False|0
15|26|6190|False|0
16|26|6184|False|0
17|26|6189|False|0
18|26|6183|True|0
19|29|9842|False|0
20|29|9844|False|0
21|29|6190|False|0
22|26|7317|False|0
23|26|7318|False|0
24|26|13807|False|0
25|32|6190|False|0
26|32|9842|False|0
27|33|6190|False|0
28|33|9842|False|0
29|33|9844|False|0
30|36|43|False|0
31|38|6190|False|0
32|38|9842|False|0
33|38|9844|False|0
34|35|43|True|0
35|35|25404|True|0
36|36|25404|False|0
37|38|25404|False|0
38|45|25403|False|0
39|45|12594|False|0
40|32|12594|False|0
41|32|25403|False|0
42|33|12594|False|0
43|33|25403|False|0
44|38|12594|False|0
45|38|25403|False|0
46|35|21883|False|0
47|46|21883|False|1
48|46|25403|True|3
49|46|25403|False|3
50|35|25403|False|3
51|47|25404|False|52
52|47|24263|False|
53|48|21883|False|1
54|46|1580|False|
55|48|1580|True|
56|49|21883|False|1
57|46|1580|False|1
58|48|1580|False|1
59|49|1580|False|1
60|35|12594|False|3
61|46|12594|False|3
62|47|24263|False|52
63|46|25404|False|1
64|48|25404|False|1
65|49|25404|False|1
66|49|5657|False|2
67|49|21883|False|2
68|49|24263|False|2
69|48|5657|False|2
70|48|24263|False|2
71|50|21883|True|1
72|50|24263|False|2
73|50|1580|False|1
74|50|25404|False|1
75|50|5657|False|2
76|51|1580|False|1
77|51|21883|False|1
78|51|25404|False|1
79|46|7812|False|1
80|46|9998|False|1
81|48|7812|False|1
82|48|9998|False|1
83|49|7812|False|1
84|49|9998|False|1
85|50|7812|False|1
86|50|9998|False|1
87|51|7812|False|1
88|51|9998|False|1
89|48|9798|False|2
90|48|23884|False|2
91|49|9798|False|2
92|49|23884|False|2
93|50|9798|False|2
94|50|23884|False|2
95|51|9844|False|8
96|51|5069|False|8
97|51|6187|False|8
98|51|7809|False|8
99|51|25403|False|8
100|5|21883|False|2
101|5|7810|False|51
102|5|7801|False|2
103|5|9798|False|2
104|5|24263|False|2
105|48|7801|False|2
106|49|7801|False|2
107|50|7801|False|2
108|5|21881|False|51
109|47|7810|False|52
110|3|21883|False|3
111|3|24263|False|52
112|21|7810|False|51
113|3|12594|False|3
114|3|25403|False|3
115|21|21881|False|51
116|21|21883|False|51
117|3|7810|False|52
118|3|25404|False|52
119|50|8593|False|53
120|50|12455|False|53
121|50|3351|False|54
122|50|9703|False|54
123|24|12594|False|3
124|24|25403|False|3
125|52|12594|False|3
126|52|25403|False|3
127|53|6187|False|8
128|53|25403|False|8
129|53|36632|False|8
130|51|36632|False|8
