﻿GreylistID|CreationDateTime|ProjectName|TeamName|StatusID|EffectiveDate|ExpiryDate|DealTypeID|OriginatingRegionID|OriginatingDeptID|Reason|IsDealDeleted1|2007-11-20 16:52:14|Angel||2|2007-08-16 00:00:00||1|2|732|potential IPO of its subsidiary.|True
2|2007-11-21 19:01:21|Hazel||2|2007-07-09 00:00:00|||||DBS has been offered to be the Joint FA, Joint Bookrunner & Underwriter|True
3|2007-11-21 19:11:46|Retail||1|2007-04-24 00:00:00|||||PE is contemplating exercising the equity warrant for the company|False
4|2007-11-21 19:14:01|Lunar||2|2007-05-10 00:00:00|||1|108||True
5|2007-11-21 19:17:22|Cova||1|2007-10-25 00:00:00|2015-08-26 23:59:59||||DBSAC-M&A appointed to act as the FA in relation to potential acquisition.26 Aug 15: Removed greylist|False
6|2007-11-21 19:19:52|||2|2007-03-16 00:00:00|||||The Company has conducted Continuing Connected Trasaction.  DBSAC is pitching to become the independent FA|True
7|2007-11-21 19:21:58|Citadel||2|2007-01-18 00:00:00|||||DBSAC proposing to act as FA to the company in their acquisition of fixed line business|True
8|2007-12-07 14:13:21|test|test2|3|2007-12-08 00:00:00|2007-12-21 23:59:59|||713|test123|False
9|2007-12-18 10:11:56|tt|tt|1|2007-12-18 00:00:00||||||False
10|2008-01-04 14:34:42|Pineapple Tarts|Team 1|3|2008-01-21 00:00:00|2008-01-25 23:59:59|6|1||Testing testing on 21 Jan 08 123|False
11|2008-01-23 17:48:15|LoveLetters||1|2008-01-24 00:00:00|2009-01-17 23:59:59|1||||False
12|2008-01-24 15:09:05|Ba Kwa|Superteam|4|2008-01-25 00:00:00|2008-01-25 23:59:59|2|1||www|False
13|2008-02-01 18:10:26|25 percent||1|2008-02-04 00:00:00|2008-02-04 23:59:59|||||False
14|2008-02-14 19:15:59|test||1|2008-02-14 00:00:00|2010-02-05 23:59:59|||||False
15|2008-02-15 17:17:19|new testing||1|2008-02-15 00:00:00||||||False
16|2008-03-11 17:03:41|test1234||2|2008-03-12 00:00:00||||||True
17|2008-03-25 09:16:29|test on 25 may||1|2008-03-25 00:00:00||||||False
18|2008-03-25 09:19:22|inactive||2|2008-03-25 00:00:00||||||True
19|2008-03-28 16:10:57|Load1||2|2012-07-16 00:00:00|2012-07-16 23:59:59||||test test test|True
20|2008-03-28 16:12:54|Load2||2|2008-03-28 00:00:00|||||test test test|True
21|2008-03-28 16:14:51|Load3||1|2008-03-28 00:00:00|||||Test Test Testsdfas|False
22|2008-03-28 16:20:41|Load4||1|2008-03-28 00:00:00|||||test and test and test|False
23|2008-03-28 16:30:17|Load5||1|2008-03-28 00:00:00|||||test test testeee|False
24|2008-03-28 16:33:32|Load6||1|2008-03-28 00:00:00|||||Test Test Test 321|False
25|2008-03-28 16:35:15|Load7||2|2008-03-28 00:00:00|||||Test Test Test|True
26|2008-03-28 16:42:17|Load8|Load8|1|2008-03-28 00:00:00|2011-04-30 23:59:59||||Test test testtest test test again...|False
27|2008-04-18 16:51:05|||2|2008-04-18 00:00:00||||||True
28|2008-09-25 09:36:07|test 25 sep||1|2008-09-25 00:00:00||8|7||test on 25 sep 0111 April 2011 : testing last modified date.|False
29|2009-05-13 15:35:32|13 may 09||4|2013-08-22 00:00:00|2013-09-05 23:59:59||||testing for security patch on 13 may 09|False
30|2009-06-19 17:13:35|||1|2009-06-19 00:00:00|||||test on 19 jun 09|False
31|2009-07-14 08:29:15|||1|2009-07-14 00:00:00|||||patch testing on 14 Jul 09|False
32|2009-12-02 15:49:57|test 2 Dec 09||2|2009-12-02 00:00:00||4|8||testing 2 dec 09testing 2, 2 dec 09tested again on 4 Dec 09test again on 7 dec 09.|True
33|2009-12-10 15:37:45|testing on 10 dec 09||1|2009-12-10 00:00:00|||||testing.testing again.|False
34|2010-02-01 11:04:58|||2|2010-02-01 00:00:00|||||test on whether project deleted, can still apply?Deal deleted on 1 Feb 10, and see whether choo kwok whye get approved.|True
35|2010-03-16 16:10:42|Tester1||1|2012-07-16 00:00:00|||||Testing. Proposed deal.|False
36|2010-03-18 10:31:04|testing on 18 Mar 10||2|2010-03-18 00:00:00|||||testing whether ada can get approved after removal of her name.|True
37|2010-05-06 11:15:04|testing||1|2010-05-06 00:00:00|||||testing on 6 May 10|False
38|2010-05-20 15:40:33|SuperTest||1|2010-05-20 00:00:00|||||Test Test Test|False
39|2011-04-07 19:02:07|test123|test123|4|2011-04-30 00:00:00||1|1||test|False
40|2011-06-23 11:30:01|23June2011||1|2011-06-23 00:00:00||||||False
41|2012-02-08 13:36:43|CCT||1|2012-02-08 00:00:00||||||False
42|2013-11-27 17:57:38|||1|2013-11-27 00:00:00||||||False
43|2014-03-03 11:42:02|Missing Deal Team Member||4|2014-03-14 00:00:00||||||False
44|2014-03-20 17:54:57|vm 20th Mar||1|2014-03-20 00:00:00||||||False
45|2014-05-23 09:53:58|Test 23|Test 23|1|2014-05-23 00:00:00||||||False
46|2014-06-10 17:12:00|Test PIP UAT|test|1|2014-06-10 00:00:00||4||||False
47|2014-06-12 12:04:37|Test UAT 12Jun|UAT|1|2014-06-12 00:00:00||||||False
48|2014-06-12 12:17:41|vm 12th June|vm tem 12th June|1|2014-06-12 00:00:00||||||False
49|2014-06-12 12:28:20|UAT 12th JUn|jun 12 th|1|2014-06-12 00:00:00||||||False
50|2014-06-12 14:15:12|UAT CR 6 Test|CR6|1|2014-06-12 00:00:00||||||False
51|2014-06-12 16:16:27|Greylist (Test 1)||1|2014-06-12 00:00:00||||||False
52|2015-08-26 16:25:16|(T&M-FI)||1|2015-08-26 00:00:00|||||ppppp|False
53|2015-08-26 16:46:31|(CMG)||1|2015-08-26 00:00:00|||||ppp|False
