﻿MenuItemID|ParentItemID|DisplayName|Description|URL|Sequence|TaskID
1||Apply PIP|Apply PIP|~/PIPApplication/PIPApplication.aspx|1|2
2||Transaction History|Transaction History||2|
3|2|View/Withdraw Application|View/Withdraw Application|~/PIPApplication/TransactionHistoryViewWithdraw.aspx|1|5
4||Approve/Reject Application|Approve/Reject Application|~/PIPApplication/TransactionHistoryViewProcess.aspx|3|4
5||Administration|Administration||4|
6|5|Maintenance|Maintenance||1|
7|6|Maintain GreyList|Maintain GreyList|~/Admin/MaintainGreyList.aspx|1|11
8|6|View GreyLists|View GreyLists|~/Admin/ViewGreyList.aspx|2|12
9|6|Maintain Blackout List|Maintain Blackout List|~/Admin/MaintainBlackoutList.aspx|3|7
10|6|View Blackout Lists|View Blackout Lists|~/Admin/ViewBlackoutList.aspx|4|8
11|22|Blackout List|View Blackout Lists HTML||1|9
12|6|Maintain Code Tables|Maintain Code Tables|~/Admin/MaintainCodeTables.aspx|6|15
13|6|Maintain User Role|Maintain User Role|~/Admin/MaintainUserRoles.aspx|7|16
14|6|Maintain Staff Profile Admin Assigned Regions|Maintain Staff Profile Admin Assigned Regions|~/Admin/MaintainStaffProfileAdminAssignedRegions.aspx|8|26
15|6|Staff Profile Manual Upload|Staff Profile Manual Upload|~/StaffProfile/StaffProfileManualUpload.aspx|9|17
16|6|Staff Profile Manual Download|Staff Profile Manual Download|~/StaffProfile/StaffProfileDownload.aspx|10|18
17|6|Manage Staff Profile|Manage Staff Profile|~/StaffProfile/StaffProfileInput.aspx|11|19
18|6|View Staff Profile|View Staff Profile|~/StaffProfile/StaffProfileView.aspx|12|20
19|6|Upload Staff Trades For Vickers|Upload Staff Trades For Vickers|~/StaffTrades/StaffTradesUpload_Vickers.aspx|13|21
20|6|Upload Staff Trades For Vickers Online|Upload Staff Trades For Vickers Online|~/StaffTrades/StaffTradesUpload_VickersOnline.aspx|14|28
21|6|View Audit Log|View Audit Log|~/Audit/ViewAuditLog.aspx|15|27
22||View Lists|View Lists||5|
23|5|Reports|Reports|~/Reports/ViewReports.aspx|6|29
24|6|Counter Upload|Counter Upload|~/Admin/CounterUpload.aspx|16|44
