﻿PIPApplicationID|ApproverID|StatusID|CreationDateTime|ApprovalDateTime|Reason|IsApproved
1||2|2007-11-20 17:07:59|2007-11-20 17:12:00||False
2||2|2007-11-20 17:39:48|2007-11-20 17:44:00||False
3|3|7|2007-11-20 17:42:16|2007-11-20 17:42:16||True
8||1|2007-11-21 15:53:54|2007-11-21 15:58:00||True
10||2|2007-11-21 20:15:55|2007-11-21 20:20:00||False
11||2|2007-11-21 20:20:54|2007-11-21 20:25:00||False
12||2|2007-11-21 20:22:42|2007-11-21 20:27:00||False
14|29|3|2007-11-21 20:51:16|2007-11-21 20:51:16||True
14|3|5|2007-11-21 20:52:22|2007-11-21 20:52:22||True
13|29|3|2007-11-21 23:02:17|2007-11-21 23:02:17||True
13|3|5|2007-11-21 23:13:16|2007-11-21 23:13:16||True
16||2|2007-11-21 23:34:40|2007-11-21 23:39:00||False
17|29|3|2007-11-21 23:49:44|2007-11-21 23:49:44||True
17|4|5|2007-11-21 23:56:41|2007-11-21 23:56:41|This is a new restriction counter as of today 21/11/2007|False
18|3|7|2007-11-22 00:05:55|2007-11-22 00:05:55||True
19|21|6|2007-11-22 00:16:04|2007-11-22 00:16:04||True
21|29|3|2007-11-22 16:43:35|2007-11-22 16:43:35||True
21|3|5|2007-11-22 16:45:54|2007-11-22 16:45:54||True
22||2|2007-11-22 16:48:56|2007-11-22 16:53:00||False
23||2|2007-11-22 16:51:38|2007-11-22 16:56:00||False
24|29|3|2007-11-22 16:54:06|2007-11-22 16:54:06||True
24|3|5|2007-11-22 16:55:11|2007-11-22 16:55:11|This is a new restriction as of today|False
26|29|3|2007-11-26 15:35:18|2007-11-26 15:35:18||True
29||2|2007-11-27 14:36:59|2007-11-27 14:41:00||False
30||2|2007-11-27 14:46:43|2007-11-27 14:51:00||False
31|74|6|2007-11-27 14:58:25|2007-11-27 14:58:25||True
32|74|6|2007-11-27 14:59:48|2007-11-27 14:59:48|I dont like|False
33|3|7|2007-11-27 15:02:33|2007-11-27 15:02:33||True
34|3|7|2007-11-27 15:03:34|2007-11-27 15:03:34|Why Should I?|False
35||1|2007-11-27 15:09:14|2007-11-27 15:14:00||True
38||2|2007-11-27 18:08:47|2007-11-27 18:13:00||False
4|3|7|2007-11-30 17:52:10|2007-11-30 17:52:10||True
43||1|2007-11-30 18:49:12|2007-11-30 18:54:00||True
44|29|3|2007-11-30 19:00:09|2007-11-30 19:00:09||True
46|3|5|2007-11-30 19:09:37|2007-11-30 19:09:37|What you trying to do???|False
47|3|5|2007-11-30 21:40:37|2007-11-30 21:40:37|nono|False
49|29|3|2007-12-07 12:16:27|2007-12-07 12:16:27||True
36|60|3|2007-12-07 14:28:50|2007-12-07 14:28:50||True
50||1|2007-12-07 14:29:34|2007-12-07 14:34:00||True
51|53|3|2007-12-07 14:58:57|2007-12-07 14:58:57||True
41|3|5|2007-12-12 18:03:42|2007-12-12 18:03:42|ww|False
53|43|6|2008-01-21 12:25:37|2008-01-21 12:25:37||True
52|1|6|2008-01-21 18:04:57|2008-01-21 18:04:57||True
52|1|6|2008-01-21 18:05:15|2008-01-21 18:05:15||True
52|43|6|2008-01-21 18:36:40|2008-01-21 18:36:40|test|False
56||1|2008-01-22 09:27:59|2008-01-22 09:32:00||True
57|4|4|2008-01-22 17:50:46|2008-01-22 17:50:46||True
63|4|4|2008-01-22 17:51:23|2008-01-22 17:51:23||True
55|6|3|2008-01-22 18:11:26|2008-01-22 18:11:26||True
64|6|3|2008-01-22 18:18:40|2008-01-22 18:18:40||True
64|3|5|2008-01-22 18:22:46|2008-01-22 18:22:46||True
69||2|2008-01-23 10:12:06|2008-01-23 10:17:00||False
71||2|2008-01-24 10:39:04|2008-01-24 10:44:00||False
70|4|5|2008-01-24 10:41:10|2008-01-24 10:41:10||True
72||2|2008-01-24 11:02:42|2008-01-24 11:07:00||False
78|1|7|2008-01-24 18:15:45|2008-01-24 18:15:45||True
75|1|7|2008-01-24 18:17:38|2008-01-24 18:17:38||False
80||2|2008-01-25 09:51:10|2008-01-25 09:56:00||False
82||2|2008-01-25 09:53:55|2008-01-25 09:58:00||False
83|43|6|2008-01-31 18:17:16|2008-01-31 18:17:16||True
85|4|4|2008-02-01 11:35:08|2008-02-01 11:35:08||True
84|6|4|2008-02-01 11:35:42|2008-02-01 11:35:42||True
86|1|5|2008-02-01 11:39:35|2008-02-01 11:39:35||True
87|1|1|2015-05-05 00:00:00|2015-05-07 00:00:00||True
88|1|1|2015-05-05 00:00:00|2015-05-11 00:00:00||True
89|1|1|2015-05-02 00:00:00|2015-05-04 00:00:00||True
90|1|7|2008-02-01 14:27:13|2008-02-01 14:27:13||True
91|1|7|2008-02-01 14:27:22|2008-02-01 14:27:22||True
79|1|7|2008-02-01 14:27:39|2008-02-01 14:27:39||True
94|43|6|2008-02-01 14:40:41|2008-02-01 14:40:41||True
95|43|6|2008-02-01 14:40:51|2008-02-01 14:40:51||True
97|43|6|2008-02-01 14:41:07|2008-02-01 14:41:07||True
98|43|6|2008-02-01 14:41:19|2008-02-01 14:41:19|trst|False
100||1|2008-02-01 20:44:27|2008-02-01 20:49:00||True
103||1|2008-02-04 17:49:20|2008-02-04 17:54:00||True
110||2|2008-02-05 17:30:43|2008-02-05 17:35:00||False
111||2|2008-02-05 17:31:25|2008-02-05 17:36:00||False
112|6|3|2008-02-05 17:35:55|2008-02-05 17:35:55||True
109|1|5|2008-02-05 17:38:53|2008-02-05 17:38:53||True
115|6|3|2008-02-11 12:49:07|2008-02-11 12:49:07||True
118|6|3|2008-02-13 10:21:58|2008-02-13 10:21:58|cannot friend friend|False
113|1|6|2008-02-15 17:04:43|2008-02-15 17:04:43||True
122||2|2008-02-15 17:43:29|2008-02-15 17:48:00||False
123||1|2008-02-20 11:57:49|2008-02-20 12:02:00||True
112|6|4|2008-02-20 11:59:56|2008-02-20 11:59:56||True
128|6|3|2008-02-21 19:59:28|2008-02-21 19:59:28||True
114|1|7|2008-02-27 10:30:42|2008-02-27 10:30:42||True
134|6|3|2008-02-27 11:54:42|2008-02-27 11:54:42||True
134|1|5|2008-02-27 11:56:03|2008-02-27 11:56:03||True
143||1|2008-03-06 17:27:38|2008-03-06 17:32:00||True
101|1|6|2008-03-11 16:45:11|2008-03-11 16:45:11||True
150|51|3|2008-03-11 16:52:45|2008-03-11 16:52:45||True
155|53|4|2008-03-12 12:25:53|2008-03-12 12:25:53||True
147|4|4|2008-03-13 12:46:34|2008-03-13 12:46:34||True
160|4|4|2008-03-13 12:58:20|2008-03-13 12:58:20||True
168||2|2008-03-25 11:07:38|2008-03-25 11:12:00||False
166|6|4|2008-03-25 11:11:25|2008-03-25 11:11:25||True
167|2|5|2008-03-25 11:13:40|2008-03-25 11:13:40||True
172|2|5|2008-03-25 11:21:12|2008-03-25 11:21:12||True
173|2|5|2008-03-25 11:23:30|2008-03-25 11:23:30||True
175|6|4|2008-03-25 11:28:31|2008-03-25 11:28:31||True
177|6|4|2008-03-25 11:28:38|2008-03-25 11:28:38||True
180|43|6|2008-04-02 15:50:49|2008-04-02 15:50:49|no|False
183||2|2008-07-22 11:54:35|2008-07-22 11:59:00||False
184||2|2008-07-22 14:24:45|2008-07-22 14:29:00||False
157|1|7|2008-07-22 14:39:51|2008-07-22 14:39:51||False
185||2|2008-07-22 14:42:35|2008-07-22 14:47:00||False
187|21|3|2008-08-29 10:53:26|2008-08-29 10:53:26||True
186|4|7|2008-10-31 16:03:58|2008-10-31 16:03:58||True
153|4|7|2008-10-31 16:45:42|2008-10-31 16:45:42|test rejection|False
205|4|5|2009-12-03 11:37:13|2009-12-03 11:37:13||True
221|43|3|2009-12-04 15:04:51|2009-12-04 15:04:51||True
224||1|2009-12-04 15:22:23|2009-12-04 15:27:00||True
236||1|2009-12-07 11:42:24|2009-12-07 11:47:00||True
239||1|2009-12-10 16:02:46|2009-12-10 16:07:00||True
244||1|2009-12-10 16:06:03|2009-12-10 16:11:00||True
243|43|4|2009-12-10 16:06:44|2009-12-10 16:06:44||True
242|43|4|2009-12-10 16:06:54|2009-12-10 16:06:54||True
243|4|5|2009-12-10 16:07:42|2009-12-10 16:07:42||True
245|43|4|2009-12-10 16:09:02|2009-12-10 16:09:02||True
248||1|2010-01-14 18:33:54|2010-01-14 18:38:00||True
257|43|4|2010-02-01 11:45:18|2010-02-01 11:45:18||True
257|4|5|2010-02-01 11:46:30|2010-02-01 11:46:30||True
256|4|5|2010-02-01 11:46:44|2010-02-01 11:46:44||True
271||2|2010-02-05 11:48:03|2010-02-05 11:53:00||False
274|43|4|2010-02-05 14:02:25|2010-02-05 14:02:25||True
281|4|5|2010-02-08 15:30:30|2010-02-08 15:30:30||True
282||1|2010-02-08 15:32:44|2010-02-08 15:37:00||True
284|43|4|2010-02-08 16:04:41|2010-02-08 16:04:41||True
289|4|5|2010-02-18 16:19:30|2010-02-18 16:19:30||True
292|43|4|2010-02-18 16:52:12|2010-02-18 16:52:12||True
295|43|4|2010-02-18 17:21:54|2010-02-18 17:21:54||True
295|4|5|2010-02-23 16:04:01|2010-02-23 16:04:01||True
294|4|5|2010-02-23 16:04:06|2010-02-23 16:04:06||True
306||1|2010-02-23 16:53:20|2010-02-23 16:58:00||True
307||1|2010-02-23 16:53:21|2010-02-23 16:58:00||True
309|4|5|2010-02-24 09:33:09|2010-02-24 09:33:09||True
311||2|2010-02-24 09:53:21|2010-02-24 09:58:00||False
312|43|3|2010-02-24 09:57:40|2010-02-24 09:57:40||True
313|43|3|2010-02-24 09:57:46|2010-02-24 09:57:46||True
313|4|5|2010-02-24 09:58:18|2010-02-24 09:58:18||True
314|43|3|2010-02-24 10:01:32|2010-02-24 10:01:32||True
316|4|5|2010-02-24 10:02:08|2010-02-24 10:02:08||True
318||2|2010-02-24 17:57:46|2010-02-24 18:02:00||False
317|43|3|2010-02-24 18:04:47|2010-02-24 18:04:47||True
320|43|4|2010-03-18 10:16:57|2010-03-18 10:16:57||True
321|43|4|2010-03-18 10:17:03|2010-03-18 10:17:03||True
319|4|5|2010-03-18 10:18:50|2010-03-18 10:18:50||True
322|43|3|2010-03-18 11:18:22|2010-03-18 11:18:22||True
323|43|3|2010-03-18 11:18:27|2010-03-18 11:18:27||True
327||1|2010-03-18 11:53:16|2010-03-18 11:58:00||True
330||2|2010-03-18 12:09:16|2010-03-18 12:14:00||False
335||1|2010-03-18 14:35:23|2010-03-18 14:40:00||True
334|43|3|2010-03-18 14:37:26|2010-03-18 14:37:26||True
333|43|3|2010-03-18 14:37:32|2010-03-18 14:37:32||True
332|43|4|2010-03-18 14:37:37|2010-03-18 14:37:37||True
337||1|2010-03-29 10:36:22|2010-03-29 10:41:00||True
338|43|4|2010-03-29 10:54:51|2010-03-29 10:54:51||True
340|4|5|2010-03-29 10:55:18|2010-03-29 10:55:18||True
346||1|2015-05-02 00:00:00|2015-05-04 00:00:00||True
275|4|5|2010-12-28 11:09:38|2010-12-28 11:09:38||True
353||2|2011-03-08 15:23:32|2011-03-08 15:28:00||False
354|32|3|2011-06-06 16:33:20|2011-06-06 16:33:20||True
354|20053|5|2011-06-06 16:38:48|2011-06-06 16:38:48||True
355|32|4|2011-06-08 15:39:27|2011-06-08 15:39:27||True
356|20053|5|2011-06-08 15:56:32|2011-06-08 15:56:32||True
357||1|2011-08-02 16:22:54|2011-08-02 16:27:00||True
358||1|2011-08-16 10:47:20|2011-08-16 10:52:00||True
359||1|2011-08-16 11:45:12|2011-08-16 11:50:00||True
361||1|2011-08-16 11:49:33|2011-08-16 11:54:00||True
362||1|2011-08-16 14:24:14|2011-08-16 14:29:00||True
363||1|2011-08-16 14:25:46|2011-08-16 14:30:00||True
365||2|2012-02-08 12:53:44|2012-02-08 12:58:00||False
376||2|2012-11-09 14:26:12|2012-11-09 14:31:00||False
377|4|3|2013-04-12 15:39:40|2013-04-12 15:39:40||True
381|4|3|2013-04-12 16:08:31|2013-04-12 16:08:31|5655656|False
382|4|3|2013-04-12 16:18:42|2013-04-12 16:18:42|55|False
385||2|2014-11-12 18:20:19|2014-11-12 18:25:00||False
393||2|2014-11-17 19:27:18|2014-11-17 19:32:00||False
396||2|2014-11-19 10:09:11|2014-11-19 10:14:00||False
397||2|2014-11-19 10:11:45|2014-11-19 10:16:00||False
398||2|2014-11-19 10:16:10|2014-11-19 10:21:00||False
399||2|2014-11-19 10:21:00|2014-11-19 10:26:00||False
401||1|2014-11-19 10:22:41|2014-11-19 10:27:00||True
418||2|2014-11-25 15:11:39|2014-11-25 15:16:00||False
419||1|2014-11-25 15:13:48|2014-11-25 15:18:00||True
420||1|2014-11-25 15:15:33|2014-11-25 15:20:00||True
422||1|2014-11-25 15:17:32|2014-11-25 15:22:00||True
431||2|2014-11-27 15:56:45|2014-11-27 16:01:00||False
440||1|2014-11-27 18:11:51|2014-11-27 18:16:00||True
441||1|2014-11-27 18:13:20|2014-11-27 18:18:00||True
442||1|2014-11-27 18:16:38|2014-11-27 18:21:00||True
444||1|2014-11-27 18:18:38|2014-11-27 18:23:00||True
445||1|2014-11-27 18:19:52|2014-11-27 18:24:00||True
446||1|2014-11-28 01:42:07|2014-11-28 01:47:00||True
448||1|2014-11-28 09:41:51|2014-11-28 09:46:00||True
450||2|2014-11-28 10:50:23|2014-11-28 10:55:00||False
451||1|2014-11-28 10:52:37|2014-11-28 10:57:00||True
453||2|2014-11-28 15:23:52|2014-11-28 15:28:00||False
456||1|2014-11-28 15:27:06|2014-11-28 15:32:00||True
457||1|2014-11-28 15:28:31|2014-11-28 15:33:00||True
460||1|2014-11-28 15:31:15|2014-11-28 15:36:00||True
461||1|2014-12-01 09:19:01|2014-12-01 09:24:00||True
463||1|2014-12-01 10:15:58|2014-12-01 10:20:00||True
465||1|2014-12-01 10:17:13|2014-12-01 10:22:00||True
15||2|2007-11-21 20:57:07|2007-11-21 21:02:00||False
74||2|2008-01-24 14:57:47|2008-01-24 15:02:00||False
81|1|7|2008-02-01 14:26:29|2008-02-01 14:26:29||True
92|1|7|2008-02-01 14:27:30|2008-02-01 14:27:30||True
93|1|7|2008-02-01 14:40:04|2008-02-01 14:40:04|test|False
96|43|6|2008-02-01 14:40:59|2008-02-01 14:40:59||True
124||1|2008-02-20 12:07:35|2008-02-20 12:12:00||True
146||2|2008-03-06 17:32:20|2008-03-06 17:37:00||False
231||1|2009-12-04 15:46:36|2009-12-04 15:51:00||True
255|4|5|2010-02-01 11:46:24|2010-02-01 11:46:24||True
278|4|7|2010-02-05 17:30:00|2010-02-05 17:30:00||True
291||1|2010-02-18 15:51:25|2010-02-18 15:56:00||True
294|43|4|2010-02-18 16:51:48|2010-02-18 16:51:48||True
321|4|5|2010-03-18 10:18:55|2010-03-18 10:18:55||True
339||1|2010-03-29 10:39:21|2010-03-29 10:44:00||True
340|43|4|2010-03-29 10:54:58|2010-03-29 10:54:58||True
355|32|3|2011-06-08 15:37:43|2011-06-08 15:37:43||True
360||1|2011-08-16 11:49:23|2011-08-16 11:54:00||True
367||2|2012-02-08 14:44:55|2012-02-08 14:49:00||False
371||2|2012-02-08 17:35:41|2012-02-08 17:40:00||False
373||1|2012-02-08 17:41:34|2012-02-08 17:46:00||True
389||2|2014-11-14 05:11:16|2014-11-14 05:16:00||False
395||1|2014-11-19 09:42:56|2014-11-19 09:47:00||True
404||2|2014-11-20 09:41:23|2014-11-20 09:46:00||False
408||2|2014-11-20 10:32:02|2014-11-20 10:37:00||False
413||2|2014-11-20 17:16:58|2014-11-20 17:21:00||False
466||1|2014-12-01 10:17:47|2014-12-01 10:22:00||True
468||1|2014-12-01 10:18:53|2014-12-01 10:23:00||True
472||1|2014-12-01 18:56:51|2014-12-01 19:01:00||True
474||1|2014-12-01 19:26:39|2014-12-01 19:31:00||True
476||2|2014-12-02 14:26:44|2014-12-02 14:31:00||False
482||1|2014-12-02 18:42:58|2014-12-02 18:47:00||True
484||1|2014-12-02 18:45:07|2014-12-02 18:50:00||True
488||2|2014-12-04 15:45:00|2014-12-04 15:50:00||False
489||2|2014-12-04 15:45:49|2014-12-04 15:50:00||False
490||1|2014-12-04 15:52:39|2014-12-04 15:57:00||True
492||1|2014-12-04 16:15:56|2014-12-04 16:20:00||True
493||1|2014-12-05 16:37:18|2014-12-05 16:42:00||True
494||1|2014-12-05 16:38:01|2014-12-05 16:43:00||True
496||1|2014-12-08 10:10:12|2014-12-08 10:15:00||True
497||1|2014-12-08 10:43:10|2014-12-08 10:48:00||True
500||2|2014-12-23 16:58:41|2014-12-23 17:03:00||False
501||1|2014-12-23 17:35:32|2014-12-23 17:40:00||True
502||2|2014-12-24 09:23:19|2014-12-24 09:28:00||False
503||1|2014-12-26 15:08:17|2014-12-26 15:13:00||True
505||1|2014-12-29 18:58:55|2014-12-29 19:03:00||True
510||2|2014-12-30 16:34:52|2014-12-30 16:39:00||False
511||1|2014-12-31 14:58:06|2014-12-31 15:03:00||True
512||1|2015-01-07 15:13:35|2015-01-07 15:18:00||True
513||2|2015-03-11 10:01:59|2015-03-11 10:06:00||False
514||2|2015-03-11 10:08:57|2015-03-11 10:13:00||False
516||1|2015-03-11 17:19:48|2015-02-03 17:21:13||True
518||1|2015-03-11 17:52:06|2015-02-10 17:57:49||True
519||1|2015-03-11 18:08:15|2015-02-16 18:09:56||True
520||2|2015-06-03 17:31:44|2015-06-03 17:36:00||False
436|4|6|2015-07-06 17:17:52|2015-07-06 17:17:52||True
531|25405|6|2015-06-24 15:43:16|2015-06-24 15:43:16||True
530|25405|6|2015-06-24 15:43:25|2015-05-22 15:43:07||True
529|25405|6|2015-06-24 15:43:33|2015-05-05 15:43:07||True
528|25405|6|2015-06-24 15:43:42|2015-05-18 15:43:07||True
527|25405|6|2015-06-24 15:43:50|2015-05-02 15:43:07||True
526|25405|6|2015-06-24 15:44:01|2015-05-10 15:43:07||True
525|25405|6|2015-06-24 15:44:08|2015-05-07 15:43:07||True
435|4|6|2015-07-06 17:18:01|2015-07-06 17:18:01||True
433|4|6|2015-07-06 17:19:11|2015-07-06 17:19:11||False
532|25405|6|2015-07-06 17:19:46|2015-07-06 17:19:46||False
523|25405|6|2015-07-06 17:20:11|2015-07-06 17:20:11||True
534|25405|1|2015-07-07 17:15:31|2015-06-08 17:15:31||True
533|25405|1|2015-07-07 17:15:41|2015-06-08 17:15:31||True
538||2|2015-07-09 15:10:48|2015-07-09 15:15:00||False
540|4|7|2015-07-24 12:41:31|2015-07-24 12:41:31||True
543||1|2015-09-10 10:18:08|2015-09-10 10:23:00||True
541|25405|6|2015-09-10 10:18:24|2015-09-10 10:18:24||True
544||1|2015-09-10 10:33:09|2015-09-10 10:38:00||True
429|4|6|2015-09-25 12:15:20|2015-09-25 12:15:20|no proper|False
434|4|6|2015-09-25 12:15:30|2015-09-25 12:15:30||True
521|25405|6|2015-09-25 12:23:15|2015-09-25 12:23:15||True
546||2|2015-09-30 15:56:01|2015-09-30 16:01:00||False
542|4|7|2015-10-16 08:49:13|2015-10-16 08:49:13||True
539|4|7|2015-10-16 08:50:39|2015-10-16 08:50:39|In greylist|False
551||1|2015-10-30 16:08:00|2015-10-30 16:13:00||True
555||2|2016-01-08 11:39:03|2016-01-08 11:44:00||False
563||2|2016-01-26 16:16:01|2016-01-26 16:21:00||False
566||1|2016-02-02 16:42:52|2016-02-02 16:47:00||True
40||1|2007-11-27 18:39:51|2007-11-27 18:44:00||True
99|43|6|2008-02-01 20:38:39|2008-02-01 20:38:39||True
104||1|2008-02-04 17:51:04|2008-02-04 17:56:00||True
105|6|3|2008-02-04 18:10:54|2008-02-04 18:10:54|Likely to have MPSI|False
106|6|3|2008-02-04 18:12:06|2008-02-04 18:12:06||True
128|4|5|2008-02-21 20:00:10|2008-02-21 20:00:10||True
129|4|5|2008-02-21 20:05:32|2008-02-21 20:05:32||True
126|1|5|2008-02-25 17:25:01|2008-02-25 17:25:01||True
151|6|4|2008-03-12 12:16:06|2008-03-12 12:16:06||True
154|4|4|2008-03-12 12:23:54|2008-03-12 12:23:54||True
209|4|5|2009-12-03 14:58:08|2009-12-03 14:58:08||True
210|4|5|2009-12-03 15:05:18|2009-12-03 15:05:18||True
279|43|4|2010-02-08 15:13:55|2010-02-08 15:13:55||True
280||2|2010-02-08 15:19:20|2010-02-08 15:24:00||False
331||2|2010-03-18 14:25:25|2010-03-18 14:30:00||False
374||2|2012-02-08 17:55:43|2012-02-08 18:00:00||False
375||2|2012-02-08 17:57:04|2012-02-08 18:02:00||False
421||1|2014-11-25 15:17:02|2014-11-25 15:22:00||True
437||1|2014-11-27 17:43:06|2014-11-27 17:48:00||True
462||1|2014-12-01 09:35:10|2014-12-01 09:40:00||True
471||1|2014-12-01 10:29:25|2014-12-01 10:34:00||True
479||1|2014-12-02 18:40:59|2014-12-02 18:45:00||True
480||1|2014-12-02 18:41:33|2014-12-02 18:46:00||True
483||1|2014-12-02 18:43:31|2014-12-02 18:48:00||True
485||1|2014-12-02 18:45:46|2014-12-02 18:50:00||True
486||1|2014-12-03 14:46:25|2014-12-03 14:51:00||True
498||1|2014-12-23 16:34:29|2014-12-23 16:39:00||True
432|4|6|2015-09-25 12:00:07|2015-09-25 12:00:07||True
432|4|6|2015-09-25 12:00:18|2015-09-25 12:00:18||True
432|4|6|2015-09-25 12:00:51|2015-09-25 12:00:51||True
432|4|6|2015-09-25 12:01:24|2015-09-25 12:01:24|rejected|False
430|4|6|2015-09-25 12:01:38|2015-09-25 12:01:38||True
434|4|6|2015-09-25 12:01:56|2015-09-25 12:01:56||True
434|4|6|2015-09-25 12:02:01|2015-09-25 12:02:01||True
434|4|6|2015-09-25 12:02:03|2015-09-25 12:02:03||True
434|4|6|2015-09-25 12:02:44|2015-09-25 12:02:44||True
429|4|6|2015-09-25 12:07:09|2015-09-25 12:07:09||True
429|4|6|2015-09-25 12:07:55|2015-09-25 12:07:55||True
44|3|5|2007-11-30 19:00:32|2007-11-30 19:00:32||True
45||2|2007-11-30 19:07:00|2007-11-30 19:12:00||False
47|29|3|2007-11-30 21:39:37|2007-11-30 21:39:37||True
60|4|4|2008-01-22 17:50:34|2008-01-22 17:50:34||True
58|4|4|2008-01-22 17:51:13|2008-01-22 17:51:13|test|False
62|4|4|2008-01-22 17:52:05|2008-01-22 17:52:05|no reason|False
59|4|4|2008-01-22 17:54:44|2008-01-22 17:54:44||True
73||1|2008-01-24 14:50:07|2008-01-24 14:55:00||True
108|1|1|2015-05-02 00:00:00|2015-05-04 00:00:00||True
158||1|2008-03-13 12:55:42|2008-03-13 13:00:00||True
165||1|2008-03-25 11:02:19|2008-03-25 11:07:00||True
171|6|4|2008-03-25 11:22:03|2008-03-25 11:22:03||True
174||1|2008-03-25 11:26:07|2008-03-25 11:31:00||True
176|53|4|2008-03-25 11:29:16|2008-03-25 11:29:16||True
298||1|2010-02-23 15:52:01|2010-02-23 15:57:00||True
290|43|4|2010-02-23 15:54:57|2010-02-23 15:54:57||True
283|4|5|2010-02-23 15:55:36|2010-02-23 15:55:36||True
285|4|5|2010-02-23 15:55:47|2010-02-23 15:55:47||False
303|43|4|2010-02-23 16:13:05|2010-02-23 16:13:05||True
439||1|2014-11-27 18:10:53|2014-11-27 18:15:00||True
443||1|2014-11-27 18:17:42|2014-11-27 18:22:00||True
452||1|2014-11-28 14:35:43|2014-11-28 14:40:00||True
454||1|2014-11-28 15:24:28|2014-11-28 15:29:00||True
455||1|2014-11-28 15:26:26|2014-11-28 15:31:00||True
458||1|2014-11-28 15:29:14|2014-11-28 15:34:00||True
459||1|2014-11-28 15:30:23|2014-11-28 15:35:00||True
473||1|2014-12-01 19:20:18|2014-12-01 19:25:00||True
515|25404|6|2015-03-11 10:17:04|2015-02-03 17:31:55||True
537|25405|6|2015-07-09 15:26:17|2015-07-09 15:26:17||True
536|25405|6|2015-07-09 15:26:26|2015-07-09 15:26:26||True
535|25405|6|2015-07-09 15:26:36|2015-07-09 15:26:36||False
434|4|6|2015-09-25 12:15:51|2015-09-25 12:15:51||True
569||1|2016-02-02 16:42:53|2016-02-02 16:47:00||True
570||1|2016-02-02 16:42:53|2016-02-02 16:47:00||True
52|1|6|2008-01-21 18:05:31|2008-01-21 18:05:31||True
54|43|6|2008-01-21 18:14:29|2008-01-21 18:14:29||True
68|53|3|2008-01-22 18:54:59|2008-01-22 18:54:59||True
76||2|2008-01-24 17:54:00|2008-01-24 17:59:00||False
77|1|7|2008-01-24 18:16:15|2008-01-24 18:16:15||True
297||2|2010-02-23 15:51:03|2010-02-23 15:56:00||False
305|4|5|2010-02-23 16:52:03|2010-02-23 16:52:03||True
316|43|3|2010-02-24 10:01:14|2010-02-24 10:01:14||True
315|43|3|2010-02-24 10:01:27|2010-02-24 10:01:27||True
366||1|2012-02-08 14:37:05|2012-02-08 14:42:00||True
506||2|2014-12-29 18:59:56|2014-12-29 19:04:00||False
507||1|2014-12-29 19:00:19|2014-12-29 19:05:00||True
558||2|2016-01-20 15:36:23|2016-01-20 15:41:00||False
52|43|6|2008-01-21 18:15:27|2008-01-21 18:15:27||True
109|6|4|2008-02-05 16:32:23|2008-02-05 16:32:23||True
129|6|3|2008-02-21 20:04:10|2008-02-21 20:04:10||True
136||1|2008-02-29 11:40:36|2008-02-29 11:45:00||True
181|4|4|2008-04-02 15:58:51|2008-04-02 15:58:51||True
178|1|7|2008-07-22 14:39:25|2008-07-22 14:39:25||True
223||1|2009-12-04 15:19:02|2009-12-04 15:24:00||True
272||1|2010-02-05 11:54:59|2010-02-05 11:59:00||True
273|43|4|2010-02-05 14:00:32|2010-02-05 14:00:32||True
283|43|4|2010-02-08 15:45:50|2010-02-08 15:45:50||True
293||1|2010-02-18 16:49:14|2010-02-18 16:54:00||True
304||2|2010-02-23 16:36:13|2010-02-23 16:41:00||False
308|43|4|2010-02-24 09:34:04|2010-02-24 09:34:04||True
310|43|4|2010-02-24 09:34:11|2010-02-24 09:34:11||False
308|4|5|2010-02-24 09:34:42|2010-02-24 09:34:42||True
324||2|2010-03-18 11:27:48|2010-03-18 11:32:00||False
329|4|5|2010-03-18 12:08:07|2010-03-18 12:08:07||True
426||2|2014-11-27 14:45:02|2014-11-27 14:50:00||False
447||1|2014-11-28 03:05:30|2014-11-28 03:10:00||True
449||1|2014-11-28 10:39:51|2014-11-28 10:44:00||True
477||1|2014-12-02 14:29:26|2014-12-02 14:34:00||True
478||1|2014-12-02 14:35:26|2014-12-02 14:40:00||True
481||1|2014-12-02 18:42:24|2014-12-02 18:47:00||True
487||1|2014-12-03 15:51:07|2014-12-03 15:56:00||True
495||1|2014-12-05 16:38:33|2014-12-05 16:43:00||True
369|32|5|2015-10-30 15:44:52|2015-10-30 15:44:52||True
116||2|2008-02-11 12:52:30|2008-02-11 12:57:00||False
117|53|3|2008-02-11 16:18:15|2008-02-11 16:18:15|Likely to have MPSI|False
141||1|2008-03-06 17:26:35|2008-03-06 17:31:00||True
152||1|2008-03-12 12:18:14|2008-03-12 12:23:00||True
161|1|7|2008-03-13 13:20:49|2008-03-13 13:20:49||True
173|6|4|2008-03-25 11:22:11|2008-03-25 11:22:11||True
277|43|4|2010-02-05 14:16:59|2010-02-05 14:16:59||True
277|4|5|2010-02-05 14:17:32|2010-02-05 14:17:32||True
276|4|5|2010-02-05 14:17:37|2010-02-05 14:17:37||True
286|4|5|2010-02-08 16:14:41|2010-02-08 16:14:41||True
288|43|4|2010-02-08 16:17:55|2010-02-08 16:17:55||True
414||1|2014-11-21 11:25:55|2014-11-21 11:30:00||True
415||2|2014-11-21 11:30:21|2014-11-21 11:35:00||False
416||2|2014-11-21 11:34:07|2014-11-21 11:39:00||False
464||1|2014-12-01 10:16:39|2014-12-01 10:21:00||True
467||1|2014-12-01 10:18:24|2014-12-01 10:23:00||True
469||1|2014-12-01 10:19:23|2014-12-01 10:24:00||True
470||1|2014-12-01 10:22:59|2014-12-01 10:27:00||True
491||1|2014-12-04 16:15:18|2014-12-04 16:20:00||True
499||1|2014-12-23 16:39:28|2014-12-23 16:44:00||True
508||1|2014-12-30 15:13:34|2014-12-30 15:18:00||True
127|4|5|2008-02-21 19:44:25|2008-02-21 19:44:25||True
142|6|4|2008-03-06 17:29:16|2008-03-06 17:29:16||True
145||2|2008-03-06 17:31:54|2008-03-06 17:36:00||False
156|6|4|2008-03-12 12:26:15|2008-03-12 12:26:15||True
169|6|4|2008-03-25 11:10:19|2008-03-25 11:10:19||True
179||1|2008-03-31 17:03:26|2008-03-31 17:08:00||True
250||2|2010-02-01 11:07:09|2010-02-01 11:12:00||False
258||1|2010-02-01 11:49:41|2010-02-01 11:54:00||True
323|4|5|2010-03-18 11:26:01|2010-03-18 11:26:01||True
325|43|3|2010-03-18 11:37:05|2010-03-18 11:37:05||True
326||2|2010-03-18 11:38:23|2010-03-18 11:43:00||False
368||2|2012-02-08 15:09:41|2012-02-08 15:14:00||False
372||2|2012-02-08 17:41:34|2012-02-08 17:46:00||False
378|4|3|2013-04-12 15:40:29|2013-04-12 15:40:29|tewtsdfsfsdf|False
377|4|4|2013-04-12 15:54:00|2013-04-12 15:54:00|yetrretretre|False
379|4|3|2013-04-12 15:57:09|2013-04-12 15:57:09|sdfdsgfdsgf|False
380|4|3|2013-04-12 16:01:14|2013-04-12 16:01:14|test123123123|False
370|4|5|2013-04-12 16:11:45|2013-04-12 16:11:45|asdfasfddsafsafdsafsadf|False
402||2|2014-11-19 18:00:59|2014-11-19 18:05:00||False
403||2|2014-11-20 09:40:00|2014-11-20 09:45:00||False
405||2|2014-11-20 09:42:07|2014-11-20 09:47:00||False
425||2|2014-11-27 14:34:29|2014-11-27 14:39:00||False
438||1|2014-11-27 17:55:07|2014-11-27 18:00:00||True
504||2|2014-12-26 15:22:24|2014-12-26 15:27:00||False
509||1|2014-12-30 15:14:01|2014-12-30 15:19:00||True
429|4|6|2015-09-25 12:02:56|2015-09-25 12:02:56||True
429|4|6|2015-09-25 12:03:37|2015-09-25 12:03:37||True
547|25405|6|2015-10-30 16:08:24|2015-10-30 16:08:24||True
567||1|2016-02-02 16:42:52|2016-02-02 16:47:00||True
568||1|2016-02-02 16:42:52|2016-02-02 16:47:00||True
423||1|2014-11-25 15:33:29|2014-11-25 15:38:00||True
424||1|2014-11-25 15:33:59|2014-11-25 15:38:00||True
475||1|2014-12-02 10:16:24|2014-12-02 10:19:24||True
434|4|6|2015-10-30 11:37:13|2015-10-30 11:37:13||True
