﻿UserID|RoleID|Active
1|3|True
2|1|False
3|2|True
4|1|True
5|1|True
6|2|True
7|5|False
8|5|False
9|5|False
10|5|True
11|5|False
12|5|False
13|5|False
51|5|True
53|3|True
54|5|False
55|1|True
56|5|False
60|5|True
61|5|False
62|5|False
63|5|False
64|1|True
10|1|True
10|2|True
3|5|False
65|1|False
66|2|True
67|1|False
68|1|False
69|5|False
70|3|True
71|1|False
72|3|False
73|5|False
74|5|True
75|1|True
