﻿TradeID|OneBankID|ClientID|SubAC|ClientName|NationalID|IsBuy|ContractNo|PLCode|TradeDate|SettDate|StockCode|Price|Quantity|SettCCY|SettAmt|UploadDate|CountryID|CompanyID
2585|normal1|||NORMAL USER 1|National ID S0000009|True|791730|050|2007-11-21 00:00:00|2007-10-01 00:00:00|0121|1.7700|2000|SGD|7866.8300|2008-02-11 17:03:03||
2586|normal1|||NORMAL USER 1|National ID S0000009|False|776137|050|2007-11-22 00:00:00|2007-09-25 00:00:00|M07|2.0900|1000|SGD|3260.4900|2008-02-11 17:03:03||
2587|normal1|||NORMAL USER 1|National ID S0000009|True|801872|050|2007-11-21 00:00:00|2007-10-03 00:00:00|0121|3.7600|2000|SGD|11520.6200|2008-02-11 17:03:03||
2588|normal2|||NORMAL USER 2|National ID S0000010|False|796638|050|2007-11-22 00:00:00|2007-10-02 00:00:00|0121|4.0400|1000|SGD|3285.4800|2008-02-11 17:03:03||
2589||||NORMAL USER 3''|National ID S0000011|True|760183|050|2007-11-23 00:00:00|2007-09-19 00:00:00|0121|3.6400|1300|SGD|3164.4500|2008-02-11 17:03:03|2|
2590||||NORMAL USER 4''|National ID S0000012|False|801874|050|2007-09-28 00:00:00|2007-10-03 00:00:00|Z74|3.7400|2000|SGD|3315.4700|2008-02-11 17:03:03|2|
2591||||NORMAL USER 5''|National ID S0000013|True|764049|050|2007-09-17 00:00:00|2007-09-20 00:00:00|Z74|4.0400|9500|SGD|5565.6700|2008-02-11 17:03:03|2|
2592||||NORMAL USER 6''|National ID S0000014|False|791728|050|2007-09-26 00:00:00|2007-10-01 00:00:00|Z74|3.9800|177|SGD|5734.2300|2008-02-11 17:03:03|2|
2593|darylchoo|||DARYL CHOO|S7436127G|False|771939|010|2007-11-30 00:00:00|2007-09-24 00:00:00|00001|4.0800|4000|SGD|10580.9900|2008-02-11 17:03:03||
2594|darylchoo|||DARYL CHOO|S7436127G|True|726962|010|2007-11-27 00:00:00|2007-09-07 00:00:00|ABS|3.8200|5000|SGD|5265.5200|2008-02-11 17:03:04||
2595|doreentay|||DOREEN TAY LEE CHENG|S7436520E|False|734576|010|2007-11-22 00:00:00|2007-09-11 00:00:00|670|4.0600|540|SGD|5284.4600|2008-02-11 17:03:04||
2596|doreentay|||DOREEN TAY LEE CHENG|S7436520E|True|756223|050|2007-11-21 00:00:00|2007-09-18 00:00:00|C13|4.0000|950|SGD|5215.4900|2008-02-11 17:03:04||
2597|doreentay|||DOREEN TAY LEE CHENG|S7436520E|True|788057|050|2007-11-28 00:00:00|2007-09-28 00:00:00|CY6U|4.1000|2000|SGD|5665.7200|2008-02-11 17:03:04||
2598|doreentay|||DOREEN TAY LEE CHENG|S7436520E|False|783957|050|2007-11-30 00:00:00|2007-09-27 00:00:00|CY6U|4.1000|2000|SGD|5984.1100|2008-02-11 17:03:04||
2599|doreentay|||DOREEN TAY LEE CHENG|S7436520E|True|791732|010|2007-09-26 00:00:00|2007-10-01 00:00:00|670|3.2000|1000|SGD|6233.9800|2008-02-11 17:03:04||
2600|charmayneyeo|||CHARMAYNE YEO LAY TENG|S7816696G|False|801878|010|2007-12-03 00:00:00|2007-10-03 00:00:00|D4N|3.2600|9000|SGD|7383.3900|2008-02-11 17:03:04||
2601|charmayneyeo|||CHARMAYNE YEO LAY TENG|S7816696G|False|760185|050|2007-12-07 00:00:00|2007-09-19 00:00:00|F99|3.6600|1000|SGD|5284.4600|2008-02-11 17:03:04||
2602|charmayneyeo|||CHARMAYNE YEO LAY TENG|S7816696G|True|764047|050|2007-09-17 00:00:00|2007-09-20 00:00:00|Z25|3.2400|2000|SGD|10468.7400|2008-02-11 17:03:04||
2603|charmayneyeo|||CHARMAYNE YEO LAY TENG|S7816696G|False|771937|050|2007-09-19 00:00:00|2007-09-24 00:00:00|Z25|3.2400|3000|SGD|10880.4500|2008-02-11 17:03:04||
2604|charmayneyeo|||CHARMAYNE YEO LAY TENG|S7816696G|False|776163|010|2007-09-20 00:00:00|2007-09-25 00:00:00|Z02|0.2500|10000|SGD|47614.5000|2008-02-11 17:03:04||
2605|charmayneyeo|||CHARMAYNE YEO LAY TENG|S7816696G|False|760317|050|2007-09-14 00:00:00|2007-09-19 00:00:00|Y92|0.2600|5000|SGD|7503.3400|2008-02-11 17:03:05||
2606|charmayneyeo|||CHARMAYNE YEO LAY TENG|S7816696G|False|802068|050|2007-09-28 00:00:00|2007-10-03 00:00:00|Y62|2.7800|5000|SGD|16131.0300|2008-02-11 17:03:05||
2607||||YEO BENG AI AUDREY''|6933128I|False|803984|050|2007-09-26 00:00:00|2007-10-01 00:00:00|Y62|3.0400|3000|SGD|14024.8200|2008-02-11 17:03:05|2|
2608||||YEO BENG AI AUDREY''|6933128I|True|747093|050|2007-09-11 00:00:00|2007-09-14 00:00:00|Y62|2.8800|10000|SGD|5865.8100|2008-02-11 17:03:05|2|
2609||||YEO BENG AI AUDREY''|6933128I|False|796372|050|2007-09-27 00:00:00|2007-10-02 00:00:00|Y62|2.7400|10000|SGD|4025.1100|2008-02-11 17:03:05|2|
2610||||YEO BENG AI AUDREY''|6933128I|False|799574|050|2007-09-28 00:00:00|2007-10-03 00:00:00|Y02|0.4000|20000|SGD|8982.5800|2008-02-11 17:03:05|2|
2611||||YEO BENG AI AUDREY''|6933128I|False|799572|050|2007-09-28 00:00:00|2007-10-03 00:00:00|Y02|0.4000|10000|SGD|8932.6000|2008-02-11 17:03:05|2|
2612||||XU JING''|7481719Z|False|795368|050|2007-09-27 00:00:00|2007-10-02 00:00:00|W05|3.3600|2000|SGD|38311.2200|2008-02-11 17:03:05|2|
2613||||ANG CHEE HOW (HONG ZHIHAO)''|7812670A|True|731528|050|2007-09-05 00:00:00|2007-09-10 00:00:00|510|0.8800|15000|SGD|8317.0600|2008-02-11 17:03:05|2|
2614||||ANG CHEE HOW (HONG ZHIHAO)''|7812670A|True|748505|050|2007-09-11 00:00:00|2007-09-14 00:00:00|500|1.4000|100000|SGD|7486.6300|2008-02-11 17:03:06|2|
2615||||AMELIA THONG MINGHUI(AMELIA TANG MINGHUI)@ THONG MING''|7246205Z|True|792388|050|2007-09-26 00:00:00|2007-10-01 00:00:00|444|1.0000|12000|SGD|267.9900|2008-02-11 17:03:06|2|
2616||||AMELIA THONG MINGHUI(AMELIA TANG MINGHUI)@ THONG MING''|7246205Z|False|743995|050|2007-09-10 00:00:00|2007-09-13 00:00:00|228|1.0500|10000|SGD|7483.3400|2008-02-11 17:03:06|2|
2617||||ADELINE GOH SZE YIN           (ADELINE WU SIYING)''|7519831J|False|793683|020|2007-09-26 00:00:00|2007-10-01 00:00:00|218|13.1200|5000|SGD|12628.9900|2008-02-11 17:03:06|2|
2628||||DEVESON CHARLES DAVID SCOTT''|705202729|False|0337340|030|2008-05-22 00:00:00|2008-05-27 00:00:00|AZC|4.5900|3000|SGD|18827.1800|2008-06-13 14:51:33|1|
2629|davidkua|||KUA BOON YEOW @ DAVID KUA|S6970448D|True|0321601|050|2008-05-15 00:00:00|2008-05-21 00:00:00|F83|3.4500|4000|SGD|13824.7400|2008-06-13 14:51:33||
2630|doreentay|||ADRIAN TAY EU JIN|S0418057A|True|0300110|020|2008-05-06 00:00:00|2008-05-09 00:00:00|UBS|33.7400|150|USD|5088.8100|2008-06-13 14:51:33||
2631|doreentay|||ADRIAN TAY EU JIN|S0418057A|True|0293331|020|2008-05-02 00:00:00|2008-05-07 00:00:00|C|26.5000|250|USD|6652.8200|2008-06-13 14:51:33||
2632|doreentay|||ADRIAN TAY EU JIN|S0418057A|True|0329929|020|2008-05-20 00:00:00|2008-05-23 00:00:00|C|22.3000|250|USD|5602.8200|2008-06-13 14:51:33||
2633|doreentay|||ADRIAN TAY EU JIN|S0418057A|True|0328202|050|2008-05-20 00:00:00|2008-05-23 00:00:00|Z74|3.6800|1000|SGD|3694.7100|2008-06-13 14:51:33||
2634|doreentay|||ADRIAN TAY EU JIN|S0418057A|True|0301976|050|2008-05-07 00:00:00|2008-05-12 00:00:00|AU8U|1.4800|3000|SGD|4455.0900|2008-06-13 14:51:33||
2635|doreentay|||CHO MEI LING|S0418057A|True|0322748|010|2008-05-16 00:00:00|2008-05-20 00:00:00|02823|18.3000|2000|SGD|6518.5100|2008-06-13 14:51:33||
2636|doreentay|||YAP KIEN LEONG HENRY|S0418057A|True|0289628|030|2008-05-01 00:00:00|2008-05-06 00:00:00|SSO|25.0000|150|CAD|3771.4000|2008-06-13 14:51:33||
2637|doreentay|||YAP KIEN LEONG HENRY|S0418057A|False|0330285|030|2008-05-20 00:00:00|2008-05-23 00:00:00|EDR|3.2500|1000|CAD|3228.6000|2008-06-13 14:51:33||
2638||||LAU''|S144515|True|0516771|020|2009-06-05 00:00:00|2009-06-10 00:00:00|CEP|3.6800|2825|USD|10471.5700|2009-07-16 11:34:41|1|
2639||||LAU''|S144516|False|0495556|020|2009-06-02 00:00:00|2009-06-05 00:00:00|FNM|0.7200|11500|USD|8251.9700|2009-07-16 11:34:41|1|
2640||||LAU''|S144517|False|0494934|020|2009-06-02 00:00:00|2009-06-05 00:00:00|AIG*|1.6400|10000|USD|16346.9400|2009-07-16 11:34:41|1|
2641||||LAU''|S144518|False|0496092|020|2009-06-02 00:00:00|2009-06-05 00:00:00|TGB|1.8900|3000|USD|5642.0300|2009-07-16 11:34:41|1|
2642||||KOH''|S144727|True|0592163|050|2009-06-24 00:00:00|2009-06-29 00:00:00|H6SW|0.3400|50000|SGD|16792.5700|2009-07-16 11:34:41|1|
2643||||WONG''|S146087|True|0498037|050|2009-06-03 00:00:00|2009-06-08 00:00:00|N03|1.7600|100000|SGD|176315.4300|2009-07-16 11:34:41|1|
2644||||WONG''|S146088|True|0526845|050|2009-06-09 00:00:00|2009-06-12 00:00:00|N03|1.6200|50000|SGD|81145.1800|2009-07-16 11:34:42|1|
2645||||WONG''|S146089|True|0584946|050|2009-06-23 00:00:00|2009-06-26 00:00:00|P40U|0.6100|200000|SGD|122218.6600|2009-07-16 11:34:42|1|
2646||||WONG''|S146090|True|0476987|050|2009-06-01 00:00:00|2009-06-04 00:00:00|EB5|0.6300|54000|SGD|34080.9700|2009-07-16 11:34:42|1|
2647||||WONG''|S173929|True|0583817|010|2009-06-23 00:00:00|2009-06-25 00:00:00|00341|14.8200|2000|HKD|29781.6700|2009-07-16 11:34:42|1|
2648||||TAN''|S174641|True|0514928|053|2009-06-05 00:00:00|2009-06-10 00:00:00|O87|96.1000|10|SGD|1410.6400|2009-07-16 11:34:42|1|
2649||||LEE''|S720908|True|0508154|050|2009-06-04 00:00:00|2009-06-09 00:00:00|H1UW*|0.5600|20000|SGD|11221.2700|2009-07-16 11:34:42|1|
2650||||LEE''|S720909|True|0490686|050|2009-06-02 00:00:00|2009-06-05 00:00:00|H1UW*|0.6000|20000|SGD|11922.6100|2009-07-16 11:34:42|1|
2651||||LEE''|S720910|True|0479731|050|2009-06-01 00:00:00|2009-06-04 00:00:00|H1UW*|0.6300|5000|SGD|3139.7700|2009-07-16 11:34:42|1|
2652||||LEE''|S720911|True|0591025|050|2009-06-24 00:00:00|2009-06-29 00:00:00|H6VW|0.3700|30000|SGD|11121.0900|2009-07-16 11:34:42|1|
2653||||LEE''|S720912|True|0601078|050|2009-06-26 00:00:00|2009-07-01 00:00:00|H7HW|0.5000|30000|SGD|15028.5000|2009-07-16 11:34:43|1|
2654||||LEE''|S720913|True|0591029|050|2009-06-24 00:00:00|2009-06-29 00:00:00|H7HW|0.7100|20000|SGD|14126.7700|2009-07-16 11:34:43|1|
2655||||LEE''|S720914|True|0580958|050|2009-06-22 00:00:00|2009-06-25 00:00:00|H7HW|0.5900|10000|SGD|5916.4800|2009-07-16 11:34:43|1|
2656||||LEE''|S720915|True|0551672|050|2009-06-15 00:00:00|2009-06-18 00:00:00|H7HW|0.5200|20000|SGD|10469.8600|2009-07-16 11:34:43|1|
2657||||LEE''|S720916|True|0545815|050|2009-06-12 00:00:00|2009-06-17 00:00:00|H7HW|0.5200|10000|SGD|5216.0400|2009-07-16 11:34:43|1|
2658||||LEE''|S720917|True|0608456|050|2009-06-30 00:00:00|2009-07-03 00:00:00|H7GW|0.2600|20000|SGD|5115.9900|2009-07-16 11:34:43|1|
