INSERT into deal_team_member (id_deal_team_member,created_date,is_active,last_modified_date,fk_user_created,              fk_user_last_modified,fk_user,fk_grey_list) VALUES             (39,now(),1,now(),null,null,2,11);
INSERT into deal_team_member (id_deal_team_member,created_date,is_active,last_modified_date,fk_user_created,              fk_user_last_modified,fk_user,fk_grey_list) VALUES             (40,now(),1,now(),null,null,51,10);
INSERT into deal_team_member (id_deal_team_member,created_date,is_active,last_modified_date,fk_user_created,              fk_user_last_modified,fk_user,fk_grey_list) VALUES             (41,now(),1,now(),null,null,1,12);
INSERT into deal_team_member (id_deal_team_member,created_date,is_active,last_modified_date,fk_user_created,              fk_user_last_modified,fk_user,fk_grey_list) VALUES             (42,now(),1,now(),null,null,4659,4);
INSERT into deal_team_member (id_deal_team_member,created_date,is_active,last_modified_date,fk_user_created,              fk_user_last_modified,fk_user,fk_grey_list) VALUES             (43,now(),1,now(),null,null,2941,13);
INSERT into deal_team_member (id_deal_team_member,created_date,is_active,last_modified_date,fk_user_created,              fk_user_last_modified,fk_user,fk_grey_list) VALUES             (44,now(),1,now(),null,null,58,1);
INSERT into deal_team_member (id_deal_team_member,created_date,is_active,last_modified_date,fk_user_created,              fk_user_last_modified,fk_user,fk_grey_list) VALUES             (45,now(),1,now(),null,null,604,4);
INSERT into deal_team_member (id_deal_team_member,created_date,is_active,last_modified_date,fk_user_created,              fk_user_last_modified,fk_user,fk_grey_list) VALUES             (46,now(),1,now(),null,null,6,7);
INSERT into deal_team_member (id_deal_team_member,created_date,is_active,last_modified_date,fk_user_created,              fk_user_last_modified,fk_user,fk_grey_list) VALUES             (47,now(),1,now(),null,null,2580,14);
INSERT into deal_team_member (id_deal_team_member,created_date,is_active,last_modified_date,fk_user_created,              fk_user_last_modified,fk_user,fk_grey_list) VALUES             (48,now(),1,now(),null,null,9754,4);
INSERT into deal_team_member (id_deal_team_member,created_date,is_active,last_modified_date,fk_user_created,              fk_user_last_modified,fk_user,fk_grey_list) VALUES             (49,now(),1,now(),null,null,9740,2);
INSERT into deal_team_member (id_deal_team_member,created_date,is_active,last_modified_date,fk_user_created,              fk_user_last_modified,fk_user,fk_grey_list) VALUES             (50,now(),1,now(),null,null,9744,2);
INSERT into deal_team_member (id_deal_team_member,created_date,is_active,last_modified_date,fk_user_created,              fk_user_last_modified,fk_user,fk_grey_list) VALUES             (51,now(),1,now(),null,null,9744,15);
INSERT into deal_team_member (id_deal_team_member,created_date,is_active,last_modified_date,fk_user_created,              fk_user_last_modified,fk_user,fk_grey_list) VALUES             (52,now(),1,now(),null,null,6,8);
INSERT into deal_team_member (id_deal_team_member,created_date,is_active,last_modified_date,fk_user_created,              fk_user_last_modified,fk_user,fk_grey_list) VALUES             (54,now(),1,now(),null,null,51,1);
INSERT into deal_team_member (id_deal_team_member,created_date,is_active,last_modified_date,fk_user_created,              fk_user_last_modified,fk_user,fk_grey_list) VALUES             (55,now(),1,now(),null,null,10224,16);
INSERT into deal_team_member (id_deal_team_member,created_date,is_active,last_modified_date,fk_user_created,              fk_user_last_modified,fk_user,fk_grey_list) VALUES             (56,now(),1,now(),null,null,9547,14);
INSERT into deal_team_member (id_deal_team_member,created_date,is_active,last_modified_date,fk_user_created,              fk_user_last_modified,fk_user,fk_grey_list) VALUES             (57,now(),1,now(),null,null,53,17);
INSERT into deal_team_member (id_deal_team_member,created_date,is_active,last_modified_date,fk_user_created,              fk_user_last_modified,fk_user,fk_grey_list) VALUES             (58,now(),1,now(),null,null,53,18);
INSERT into deal_team_member (id_deal_team_member,created_date,is_active,last_modified_date,fk_user_created,              fk_user_last_modified,fk_user,fk_grey_list) VALUES             (59,now(),1,now(),null,null,6,3);
INSERT into deal_team_member (id_deal_team_member,created_date,is_active,last_modified_date,fk_user_created,              fk_user_last_modified,fk_user,fk_grey_list) VALUES             (60,now(),1,now(),null,null,2,19);
INSERT into deal_team_member (id_deal_team_member,created_date,is_active,last_modified_date,fk_user_created,              fk_user_last_modified,fk_user,fk_grey_list) VALUES             (61,now(),1,now(),null,null,2,20);
INSERT into deal_team_member (id_deal_team_member,created_date,is_active,last_modified_date,fk_user_created,              fk_user_last_modified,fk_user,fk_grey_list) VALUES             (62,now(),1,now(),null,null,6442,21);
INSERT into deal_team_member (id_deal_team_member,created_date,is_active,last_modified_date,fk_user_created,              fk_user_last_modified,fk_user,fk_grey_list) VALUES             (63,now(),1,now(),null,null,4831,22);
INSERT into deal_team_member (id_deal_team_member,created_date,is_active,last_modified_date,fk_user_created,              fk_user_last_modified,fk_user,fk_grey_list) VALUES             (64,now(),1,now(),null,null,4830,22);
INSERT into deal_team_member (id_deal_team_member,created_date,is_active,last_modified_date,fk_user_created,              fk_user_last_modified,fk_user,fk_grey_list) VALUES             (65,now(),1,now(),null,null,4850,22);
INSERT into deal_team_member (id_deal_team_member,created_date,is_active,last_modified_date,fk_user_created,              fk_user_last_modified,fk_user,fk_grey_list) VALUES             (66,now(),1,now(),null,null,10314,22);
INSERT into deal_team_member (id_deal_team_member,created_date,is_active,last_modified_date,fk_user_created,              fk_user_last_modified,fk_user,fk_grey_list) VALUES             (67,now(),1,now(),null,null,4870,22);
INSERT into deal_team_member (id_deal_team_member,created_date,is_active,last_modified_date,fk_user_created,              fk_user_last_modified,fk_user,fk_grey_list) VALUES             (68,now(),1,now(),null,null,10330,22);
INSERT into deal_team_member (id_deal_team_member,created_date,is_active,last_modified_date,fk_user_created,              fk_user_last_modified,fk_user,fk_grey_list) VALUES             (69,now(),1,now(),null,null,4894,22);
INSERT into deal_team_member (id_deal_team_member,created_date,is_active,last_modified_date,fk_user_created,              fk_user_last_modified,fk_user,fk_grey_list) VALUES             (70,now(),1,now(),null,null,10326,22);
INSERT into deal_team_member (id_deal_team_member,created_date,is_active,last_modified_date,fk_user_created,              fk_user_last_modified,fk_user,fk_grey_list) VALUES             (71,now(),1,now(),null,null,4828,22);
INSERT into deal_team_member (id_deal_team_member,created_date,is_active,last_modified_date,fk_user_created,              fk_user_last_modified,fk_user,fk_grey_list) VALUES             (72,now(),1,now(),null,null,4884,22);
INSERT into deal_team_member (id_deal_team_member,created_date,is_active,last_modified_date,fk_user_created,              fk_user_last_modified,fk_user,fk_grey_list) VALUES             (73,now(),1,now(),null,null,4891,22);
INSERT into deal_team_member (id_deal_team_member,created_date,is_active,last_modified_date,fk_user_created,              fk_user_last_modified,fk_user,fk_grey_list) VALUES             (74,now(),1,now(),null,null,4888,22);
INSERT into deal_team_member (id_deal_team_member,created_date,is_active,last_modified_date,fk_user_created,              fk_user_last_modified,fk_user,fk_grey_list) VALUES             (75,now(),1,now(),null,null,3496,20);
INSERT into deal_team_member (id_deal_team_member,created_date,is_active,last_modified_date,fk_user_created,              fk_user_last_modified,fk_user,fk_grey_list) VALUES             (76,now(),1,now(),null,null,3492,20);
INSERT into deal_team_member (id_deal_team_member,created_date,is_active,last_modified_date,fk_user_created,              fk_user_last_modified,fk_user,fk_grey_list) VALUES             (77,now(),1,now(),null,null,4862,23);
INSERT into deal_team_member (id_deal_team_member,created_date,is_active,last_modified_date,fk_user_created,              fk_user_last_modified,fk_user,fk_grey_list) VALUES             (78,now(),1,now(),null,null,4827,23);
INSERT into deal_team_member (id_deal_team_member,created_date,is_active,last_modified_date,fk_user_created,              fk_user_last_modified,fk_user,fk_grey_list) VALUES             (79,now(),1,now(),null,null,4837,23);
INSERT into deal_team_member (id_deal_team_member,created_date,is_active,last_modified_date,fk_user_created,              fk_user_last_modified,fk_user,fk_grey_list) VALUES             (80,now(),1,now(),null,null,170,23);
INSERT into deal_team_member (id_deal_team_member,created_date,is_active,last_modified_date,fk_user_created,              fk_user_last_modified,fk_user,fk_grey_list) VALUES             (81,now(),1,now(),null,null,4882,23);
INSERT into deal_team_member (id_deal_team_member,created_date,is_active,last_modified_date,fk_user_created,              fk_user_last_modified,fk_user,fk_grey_list) VALUES             (82,now(),1,now(),null,null,10317,23);
INSERT into deal_team_member (id_deal_team_member,created_date,is_active,last_modified_date,fk_user_created,              fk_user_last_modified,fk_user,fk_grey_list) VALUES             (83,now(),1,now(),null,null,4822,23);
INSERT into deal_team_member (id_deal_team_member,created_date,is_active,last_modified_date,fk_user_created,              fk_user_last_modified,fk_user,fk_grey_list) VALUES             (84,now(),1,now(),null,null,4886,23);
INSERT into deal_team_member (id_deal_team_member,created_date,is_active,last_modified_date,fk_user_created,              fk_user_last_modified,fk_user,fk_grey_list) VALUES             (85,now(),1,now(),null,null,4828,23);
INSERT into deal_team_member (id_deal_team_member,created_date,is_active,last_modified_date,fk_user_created,              fk_user_last_modified,fk_user,fk_grey_list) VALUES             (86,now(),1,now(),null,null,10320,24);
INSERT into deal_team_member (id_deal_team_member,created_date,is_active,last_modified_date,fk_user_created,              fk_user_last_modified,fk_user,fk_grey_list) VALUES             (87,now(),1,now(),null,null,4875,24);
INSERT into deal_team_member (id_deal_team_member,created_date,is_active,last_modified_date,fk_user_created,              fk_user_last_modified,fk_user,fk_grey_list) VALUES             (88,now(),1,now(),null,null,4847,24);
INSERT into deal_team_member (id_deal_team_member,created_date,is_active,last_modified_date,fk_user_created,              fk_user_last_modified,fk_user,fk_grey_list) VALUES             (89,now(),1,now(),null,null,4834,24);
INSERT into deal_team_member (id_deal_team_member,created_date,is_active,last_modified_date,fk_user_created,              fk_user_last_modified,fk_user,fk_grey_list) VALUES             (90,now(),1,now(),null,null,4845,24);
INSERT into deal_team_member (id_deal_team_member,created_date,is_active,last_modified_date,fk_user_created,              fk_user_last_modified,fk_user,fk_grey_list) VALUES             (91,now(),1,now(),null,null,10319,24);
INSERT into deal_team_member (id_deal_team_member,created_date,is_active,last_modified_date,fk_user_created,              fk_user_last_modified,fk_user,fk_grey_list) VALUES             (92,now(),1,now(),null,null,10314,24);
INSERT into deal_team_member (id_deal_team_member,created_date,is_active,last_modified_date,fk_user_created,              fk_user_last_modified,fk_user,fk_grey_list) VALUES             (93,now(),1,now(),null,null,4850,24);
INSERT into deal_team_member (id_deal_team_member,created_date,is_active,last_modified_date,fk_user_created,              fk_user_last_modified,fk_user,fk_grey_list) VALUES             (94,now(),1,now(),null,null,4877,24);
INSERT into deal_team_member (id_deal_team_member,created_date,is_active,last_modified_date,fk_user_created,              fk_user_last_modified,fk_user,fk_grey_list) VALUES             (95,now(),1,now(),null,null,4839,24);
INSERT into deal_team_member (id_deal_team_member,created_date,is_active,last_modified_date,fk_user_created,              fk_user_last_modified,fk_user,fk_grey_list) VALUES             (96,now(),1,now(),null,null,4859,24);
INSERT into deal_team_member (id_deal_team_member,created_date,is_active,last_modified_date,fk_user_created,              fk_user_last_modified,fk_user,fk_grey_list) VALUES             (97,now(),1,now(),null,null,4873,24);
INSERT into deal_team_member (id_deal_team_member,created_date,is_active,last_modified_date,fk_user_created,              fk_user_last_modified,fk_user,fk_grey_list) VALUES             (98,now(),1,now(),null,null,4825,25);
INSERT into deal_team_member (id_deal_team_member,created_date,is_active,last_modified_date,fk_user_created,              fk_user_last_modified,fk_user,fk_grey_list) VALUES             (99,now(),1,now(),null,null,4861,25);
INSERT into deal_team_member (id_deal_team_member,created_date,is_active,last_modified_date,fk_user_created,              fk_user_last_modified,fk_user,fk_grey_list) VALUES             (100,now(),1,now(),null,null,170,25);
INSERT into deal_team_member (id_deal_team_member,created_date,is_active,last_modified_date,fk_user_created,              fk_user_last_modified,fk_user,fk_grey_list) VALUES             (101,now(),1,now(),null,null,10330,25);
INSERT into deal_team_member (id_deal_team_member,created_date,is_active,last_modified_date,fk_user_created,              fk_user_last_modified,fk_user,fk_grey_list) VALUES             (102,now(),1,now(),null,null,4890,25);
INSERT into deal_team_member (id_deal_team_member,created_date,is_active,last_modified_date,fk_user_created,              fk_user_last_modified,fk_user,fk_grey_list) VALUES             (103,now(),1,now(),null,null,4894,25);
INSERT into deal_team_member (id_deal_team_member,created_date,is_active,last_modified_date,fk_user_created,              fk_user_last_modified,fk_user,fk_grey_list) VALUES             (104,now(),1,now(),null,null,4822,25);
INSERT into deal_team_member (id_deal_team_member,created_date,is_active,last_modified_date,fk_user_created,              fk_user_last_modified,fk_user,fk_grey_list) VALUES             (105,now(),1,now(),null,null,4886,25);
INSERT into deal_team_member (id_deal_team_member,created_date,is_active,last_modified_date,fk_user_created,              fk_user_last_modified,fk_user,fk_grey_list) VALUES             (106,now(),1,now(),null,null,4828,25);
INSERT into deal_team_member (id_deal_team_member,created_date,is_active,last_modified_date,fk_user_created,              fk_user_last_modified,fk_user,fk_grey_list) VALUES             (107,now(),1,now(),null,null,5423,26);
INSERT into deal_team_member (id_deal_team_member,created_date,is_active,last_modified_date,fk_user_created,              fk_user_last_modified,fk_user,fk_grey_list) VALUES             (108,now(),1,now(),null,null,4956,26);
INSERT into deal_team_member (id_deal_team_member,created_date,is_active,last_modified_date,fk_user_created,              fk_user_last_modified,fk_user,fk_grey_list) VALUES             (109,now(),1,now(),null,null,6164,27);
INSERT into deal_team_member (id_deal_team_member,created_date,is_active,last_modified_date,fk_user_created,              fk_user_last_modified,fk_user,fk_grey_list) VALUES             (110,now(),1,now(),null,null,6183,27);
INSERT into deal_team_member (id_deal_team_member,created_date,is_active,last_modified_date,fk_user_created,              fk_user_last_modified,fk_user,fk_grey_list) VALUES             (111,now(),1,now(),null,null,6175,27);
INSERT into deal_team_member (id_deal_team_member,created_date,is_active,last_modified_date,fk_user_created,              fk_user_last_modified,fk_user,fk_grey_list) VALUES             (112,now(),1,now(),null,null,6190,27);
INSERT into deal_team_member (id_deal_team_member,created_date,is_active,last_modified_date,fk_user_created,              fk_user_last_modified,fk_user,fk_grey_list) VALUES             (113,now(),1,now(),null,null,10458,27);
INSERT into deal_team_member (id_deal_team_member,created_date,is_active,last_modified_date,fk_user_created,              fk_user_last_modified,fk_user,fk_grey_list) VALUES             (114,now(),1,now(),null,null,6191,27);
INSERT into deal_team_member (id_deal_team_member,created_date,is_active,last_modified_date,fk_user_created,              fk_user_last_modified,fk_user,fk_grey_list) VALUES             (115,now(),1,now(),null,null,10233,28);
INSERT into deal_team_member (id_deal_team_member,created_date,is_active,last_modified_date,fk_user_created,              fk_user_last_modified,fk_user,fk_grey_list) VALUES             (116,now(),1,now(),null,null,10231,28);
INSERT into deal_team_member (id_deal_team_member,created_date,is_active,last_modified_date,fk_user_created,              fk_user_last_modified,fk_user,fk_grey_list) VALUES             (117,now(),1,now(),null,null,10227,28);
INSERT into deal_team_member (id_deal_team_member,created_date,is_active,last_modified_date,fk_user_created,              fk_user_last_modified,fk_user,fk_grey_list) VALUES             (118,now(),1,now(),null,null,6173,29);
INSERT into deal_team_member (id_deal_team_member,created_date,is_active,last_modified_date,fk_user_created,              fk_user_last_modified,fk_user,fk_grey_list) VALUES             (119,now(),1,now(),null,null,6175,29);
INSERT into deal_team_member (id_deal_team_member,created_date,is_active,last_modified_date,fk_user_created,              fk_user_last_modified,fk_user,fk_grey_list) VALUES             (120,now(),1,now(),null,null,6192,29);
INSERT into deal_team_member (id_deal_team_member,created_date,is_active,last_modified_date,fk_user_created,              fk_user_last_modified,fk_user,fk_grey_list) VALUES             (121,now(),1,now(),null,null,6188,29);
INSERT into deal_team_member (id_deal_team_member,created_date,is_active,last_modified_date,fk_user_created,              fk_user_last_modified,fk_user,fk_grey_list) VALUES             (122,now(),1,now(),null,null,10224,30);
INSERT into deal_team_member (id_deal_team_member,created_date,is_active,last_modified_date,fk_user_created,              fk_user_last_modified,fk_user,fk_grey_list) VALUES             (123,now(),1,now(),null,null,12429,31);
INSERT into deal_team_member (id_deal_team_member,created_date,is_active,last_modified_date,fk_user_created,              fk_user_last_modified,fk_user,fk_grey_list) VALUES             (124,now(),1,now(),null,null,10227,32);
INSERT into deal_team_member (id_deal_team_member,created_date,is_active,last_modified_date,fk_user_created,              fk_user_last_modified,fk_user,fk_grey_list) VALUES             (127,now(),1,now(),null,null,10231,32);
INSERT into deal_team_member (id_deal_team_member,created_date,is_active,last_modified_date,fk_user_created,              fk_user_last_modified,fk_user,fk_grey_list) VALUES             (128,now(),1,now(),null,null,7307,32);
INSERT into deal_team_member (id_deal_team_member,created_date,is_active,last_modified_date,fk_user_created,              fk_user_last_modified,fk_user,fk_grey_list) VALUES             (129,now(),1,now(),null,null,10229,32);
INSERT into deal_team_member (id_deal_team_member,created_date,is_active,last_modified_date,fk_user_created,              fk_user_last_modified,fk_user,fk_grey_list) VALUES             (130,now(),1,now(),null,null,10226,32);
INSERT into deal_team_member (id_deal_team_member,created_date,is_active,last_modified_date,fk_user_created,              fk_user_last_modified,fk_user,fk_grey_list) VALUES             (131,now(),1,now(),null,null,10232,32);
INSERT into deal_team_member (id_deal_team_member,created_date,is_active,last_modified_date,fk_user_created,              fk_user_last_modified,fk_user,fk_grey_list) VALUES             (132,now(),1,now(),null,null,10233,32);
INSERT into deal_team_member (id_deal_team_member,created_date,is_active,last_modified_date,fk_user_created,              fk_user_last_modified,fk_user,fk_grey_list) VALUES             (133,now(),1,now(),null,null,7809,32);
INSERT into deal_team_member (id_deal_team_member,created_date,is_active,last_modified_date,fk_user_created,              fk_user_last_modified,fk_user,fk_grey_list) VALUES             (134,now(),1,now(),null,null,10297,32);
INSERT into deal_team_member (id_deal_team_member,created_date,is_active,last_modified_date,fk_user_created,              fk_user_last_modified,fk_user,fk_grey_list) VALUES             (135,now(),1,now(),null,null,12831,32);
INSERT into deal_team_member (id_deal_team_member,created_date,is_active,last_modified_date,fk_user_created,              fk_user_last_modified,fk_user,fk_grey_list) VALUES             (136,now(),1,now(),null,null,9704,33);
INSERT into deal_team_member (id_deal_team_member,created_date,is_active,last_modified_date,fk_user_created,              fk_user_last_modified,fk_user,fk_grey_list) VALUES             (137,now(),1,now(),null,null,2,33);
INSERT into deal_team_member (id_deal_team_member,created_date,is_active,last_modified_date,fk_user_created,              fk_user_last_modified,fk_user,fk_grey_list) VALUES             (139,now(),1,now(),null,null,27,33);
INSERT into deal_team_member (id_deal_team_member,created_date,is_active,last_modified_date,fk_user_created,              fk_user_last_modified,fk_user,fk_grey_list) VALUES             (140,now(),1,now(),null,null,23,33);
INSERT into deal_team_member (id_deal_team_member,created_date,is_active,last_modified_date,fk_user_created,              fk_user_last_modified,fk_user,fk_grey_list) VALUES             (141,now(),1,now(),null,null,29,33);
INSERT into deal_team_member (id_deal_team_member,created_date,is_active,last_modified_date,fk_user_created,              fk_user_last_modified,fk_user,fk_grey_list) VALUES             (142,now(),1,now(),null,null,33,33);
INSERT into deal_team_member (id_deal_team_member,created_date,is_active,last_modified_date,fk_user_created,              fk_user_last_modified,fk_user,fk_grey_list) VALUES             (143,now(),1,now(),null,null,34,33);
INSERT into deal_team_member (id_deal_team_member,created_date,is_active,last_modified_date,fk_user_created,              fk_user_last_modified,fk_user,fk_grey_list) VALUES             (144,now(),1,now(),null,null,35,33);
INSERT into deal_team_member (id_deal_team_member,created_date,is_active,last_modified_date,fk_user_created,              fk_user_last_modified,fk_user,fk_grey_list) VALUES             (145,now(),1,now(),null,null,37,33);
INSERT into deal_team_member (id_deal_team_member,created_date,is_active,last_modified_date,fk_user_created,              fk_user_last_modified,fk_user,fk_grey_list) VALUES             (146,now(),1,now(),null,null,38,33);
INSERT into deal_team_member (id_deal_team_member,created_date,is_active,last_modified_date,fk_user_created,              fk_user_last_modified,fk_user,fk_grey_list) VALUES             (147,now(),1,now(),null,null,21,34);
INSERT into deal_team_member (id_deal_team_member,created_date,is_active,last_modified_date,fk_user_created,              fk_user_last_modified,fk_user,fk_grey_list) VALUES             (148,now(),1,now(),null,null,3,34);
INSERT into deal_team_member (id_deal_team_member,created_date,is_active,last_modified_date,fk_user_created,              fk_user_last_modified,fk_user,fk_grey_list) VALUES             (149,now(),1,now(),null,null,2,14);
INSERT into deal_team_member (id_deal_team_member,created_date,is_active,last_modified_date,fk_user_created,              fk_user_last_modified,fk_user,fk_grey_list) VALUES             (151,now(),1,now(),null,null,43,6);
INSERT into deal_team_member (id_deal_team_member,created_date,is_active,last_modified_date,fk_user_created,              fk_user_last_modified,fk_user,fk_grey_list) VALUES             (154,now(),1,now(),null,null,6357,35);
INSERT into deal_team_member (id_deal_team_member,created_date,is_active,last_modified_date,fk_user_created,              fk_user_last_modified,fk_user,fk_grey_list) VALUES             (155,now(),1,now(),null,null,6188,36);
INSERT into deal_team_member (id_deal_team_member,created_date,is_active,last_modified_date,fk_user_created,              fk_user_last_modified,fk_user,fk_grey_list) VALUES             (156,now(),1,now(),null,null,6190,36);
INSERT into deal_team_member (id_deal_team_member,created_date,is_active,last_modified_date,fk_user_created,              fk_user_last_modified,fk_user,fk_grey_list) VALUES             (157,now(),1,now(),null,null,6192,36);
INSERT into deal_team_member (id_deal_team_member,created_date,is_active,last_modified_date,fk_user_created,              fk_user_last_modified,fk_user,fk_grey_list) VALUES             (158,now(),1,now(),null,null,6175,36);
INSERT into deal_team_member (id_deal_team_member,created_date,is_active,last_modified_date,fk_user_created,              fk_user_last_modified,fk_user,fk_grey_list) VALUES             (159,now(),1,now(),null,null,6173,36);
INSERT into deal_team_member (id_deal_team_member,created_date,is_active,last_modified_date,fk_user_created,              fk_user_last_modified,fk_user,fk_grey_list) VALUES             (160,now(),1,now(),null,null,12927,36);
INSERT into deal_team_member (id_deal_team_member,created_date,is_active,last_modified_date,fk_user_created,              fk_user_last_modified,fk_user,fk_grey_list) VALUES             (161,now(),1,now(),null,null,6177,36);
INSERT into deal_team_member (id_deal_team_member,created_date,is_active,last_modified_date,fk_user_created,              fk_user_last_modified,fk_user,fk_grey_list) VALUES             (162,now(),1,now(),null,null,6183,36);
INSERT into deal_team_member (id_deal_team_member,created_date,is_active,last_modified_date,fk_user_created,              fk_user_last_modified,fk_user,fk_grey_list) VALUES             (163,now(),1,now(),null,null,6184,36);
INSERT into deal_team_member (id_deal_team_member,created_date,is_active,last_modified_date,fk_user_created,              fk_user_last_modified,fk_user,fk_grey_list) VALUES             (164,now(),1,now(),null,null,10455,36);
INSERT into deal_team_member (id_deal_team_member,created_date,is_active,last_modified_date,fk_user_created,              fk_user_last_modified,fk_user,fk_grey_list) VALUES             (165,now(),1,now(),null,null,6,36);
INSERT into deal_team_member (id_deal_team_member,created_date,is_active,last_modified_date,fk_user_created,              fk_user_last_modified,fk_user,fk_grey_list) VALUES             (166,now(),1,now(),null,null,10224,26);
INSERT into deal_team_member (id_deal_team_member,created_date,is_active,last_modified_date,fk_user_created,              fk_user_last_modified,fk_user,fk_grey_list) VALUES             (167,now(),1,now(),null,null,10227,37);
INSERT into deal_team_member (id_deal_team_member,created_date,is_active,last_modified_date,fk_user_created,              fk_user_last_modified,fk_user,fk_grey_list) VALUES             (168,now(),1,now(),null,null,10224,37);
INSERT into deal_team_member (id_deal_team_member,created_date,is_active,last_modified_date,fk_user_created,              fk_user_last_modified,fk_user,fk_grey_list) VALUES             (169,now(),1,now(),null,null,10228,37);
INSERT into deal_team_member (id_deal_team_member,created_date,is_active,last_modified_date,fk_user_created,              fk_user_last_modified,fk_user,fk_grey_list) VALUES             (170,now(),1,now(),null,null,10235,37);
INSERT into deal_team_member (id_deal_team_member,created_date,is_active,last_modified_date,fk_user_created,              fk_user_last_modified,fk_user,fk_grey_list) VALUES             (171,now(),1,now(),null,null,10231,37);
INSERT into deal_team_member (id_deal_team_member,created_date,is_active,last_modified_date,fk_user_created,              fk_user_last_modified,fk_user,fk_grey_list) VALUES             (172,now(),1,now(),null,null,7307,37);
INSERT into deal_team_member (id_deal_team_member,created_date,is_active,last_modified_date,fk_user_created,              fk_user_last_modified,fk_user,fk_grey_list) VALUES             (173,now(),1,now(),null,null,10229,37);
INSERT into deal_team_member (id_deal_team_member,created_date,is_active,last_modified_date,fk_user_created,              fk_user_last_modified,fk_user,fk_grey_list) VALUES             (174,now(),1,now(),null,null,10226,37);
INSERT into deal_team_member (id_deal_team_member,created_date,is_active,last_modified_date,fk_user_created,              fk_user_last_modified,fk_user,fk_grey_list) VALUES             (175,now(),1,now(),null,null,10232,37);
INSERT into deal_team_member (id_deal_team_member,created_date,is_active,last_modified_date,fk_user_created,              fk_user_last_modified,fk_user,fk_grey_list) VALUES             (176,now(),1,now(),null,null,10233,37);
INSERT into deal_team_member (id_deal_team_member,created_date,is_active,last_modified_date,fk_user_created,              fk_user_last_modified,fk_user,fk_grey_list) VALUES             (177,now(),1,now(),null,null,10084,38);
INSERT into deal_team_member (id_deal_team_member,created_date,is_active,last_modified_date,fk_user_created,              fk_user_last_modified,fk_user,fk_grey_list) VALUES             (178,now(),1,now(),null,null,20062,39);
INSERT into deal_team_member (id_deal_team_member,created_date,is_active,last_modified_date,fk_user_created,              fk_user_last_modified,fk_user,fk_grey_list) VALUES             (179,now(),1,now(),null,null,12563,40);
INSERT into deal_team_member (id_deal_team_member,created_date,is_active,last_modified_date,fk_user_created,              fk_user_last_modified,fk_user,fk_grey_list) VALUES             (180,now(),1,now(),null,null,7812,41);
INSERT into deal_team_member (id_deal_team_member,created_date,is_active,last_modified_date,fk_user_created,              fk_user_last_modified,fk_user,fk_grey_list) VALUES             (181,now(),1,now(),null,null,32,41);
INSERT into deal_team_member (id_deal_team_member,created_date,is_active,last_modified_date,fk_user_created,              fk_user_last_modified,fk_user,fk_grey_list) VALUES             (182,now(),1,now(),null,null,23824,35);
INSERT into deal_team_member (id_deal_team_member,created_date,is_active,last_modified_date,fk_user_created,              fk_user_last_modified,fk_user,fk_grey_list) VALUES             (183,now(),1,now(),null,null,13331,35);
INSERT into deal_team_member (id_deal_team_member,created_date,is_active,last_modified_date,fk_user_created,              fk_user_last_modified,fk_user,fk_grey_list) VALUES             (184,now(),1,now(),null,null,23825,35);
INSERT into deal_team_member (id_deal_team_member,created_date,is_active,last_modified_date,fk_user_created,              fk_user_last_modified,fk_user,fk_grey_list) VALUES             (185,now(),1,now(),null,null,21881,42);
INSERT into deal_team_member (id_deal_team_member,created_date,is_active,last_modified_date,fk_user_created,              fk_user_last_modified,fk_user,fk_grey_list) VALUES             (186,now(),1,now(),null,null,13338,43);
INSERT into deal_team_member (id_deal_team_member,created_date,is_active,last_modified_date,fk_user_created,              fk_user_last_modified,fk_user,fk_grey_list) VALUES             (187,now(),1,now(),null,null,9704,43);
INSERT into deal_team_member (id_deal_team_member,created_date,is_active,last_modified_date,fk_user_created,              fk_user_last_modified,fk_user,fk_grey_list) VALUES             (188,now(),1,now(),null,null,12429,43);
INSERT into deal_team_member (id_deal_team_member,created_date,is_active,last_modified_date,fk_user_created,              fk_user_last_modified,fk_user,fk_grey_list) VALUES             (189,now(),1,now(),null,null,24907,43);
INSERT into deal_team_member (id_deal_team_member,created_date,is_active,last_modified_date,fk_user_created,              fk_user_last_modified,fk_user,fk_grey_list) VALUES             (190,now(),1,now(),null,null,25404,44);
INSERT into deal_team_member (id_deal_team_member,created_date,is_active,last_modified_date,fk_user_created,              fk_user_last_modified,fk_user,fk_grey_list) VALUES             (191,now(),1,now(),null,null,55,45);
INSERT into deal_team_member (id_deal_team_member,created_date,is_active,last_modified_date,fk_user_created,              fk_user_last_modified,fk_user,fk_grey_list) VALUES             (192,now(),1,now(),null,null,24263,46);
INSERT into deal_team_member (id_deal_team_member,created_date,is_active,last_modified_date,fk_user_created,              fk_user_last_modified,fk_user,fk_grey_list) VALUES             (193,now(),1,now(),null,null,20295,47);
INSERT into deal_team_member (id_deal_team_member,created_date,is_active,last_modified_date,fk_user_created,              fk_user_last_modified,fk_user,fk_grey_list) VALUES             (194,now(),1,now(),null,null,2941,48);
INSERT into deal_team_member (id_deal_team_member,created_date,is_active,last_modified_date,fk_user_created,              fk_user_last_modified,fk_user,fk_grey_list) VALUES             (195,now(),1,now(),null,null,7812,49);
INSERT into deal_team_member (id_deal_team_member,created_date,is_active,last_modified_date,fk_user_created,              fk_user_last_modified,fk_user,fk_grey_list) VALUES             (196,now(),1,now(),null,null,5635,50);
INSERT into deal_team_member (id_deal_team_member,created_date,is_active,last_modified_date,fk_user_created,              fk_user_last_modified,fk_user,fk_grey_list) VALUES             (197,now(),1,now(),null,null,7810,51);
INSERT into deal_team_member (id_deal_team_member,created_date,is_active,last_modified_date,fk_user_created,              fk_user_last_modified,fk_user,fk_grey_list) VALUES             (198,now(),1,now(),null,null,7800,5);
INSERT into deal_team_member (id_deal_team_member,created_date,is_active,last_modified_date,fk_user_created,              fk_user_last_modified,fk_user,fk_grey_list) VALUES             (199,now(),1,now(),null,null,20577,24);
INSERT into deal_team_member (id_deal_team_member,created_date,is_active,last_modified_date,fk_user_created,              fk_user_last_modified,fk_user,fk_grey_list) VALUES             (200,now(),1,now(),null,null,33002,24);
INSERT into deal_team_member (id_deal_team_member,created_date,is_active,last_modified_date,fk_user_created,              fk_user_last_modified,fk_user,fk_grey_list) VALUES             (201,now(),1,now(),null,null,25430,52);
INSERT into deal_team_member (id_deal_team_member,created_date,is_active,last_modified_date,fk_user_created,              fk_user_last_modified,fk_user,fk_grey_list) VALUES             (202,now(),1,now(),null,null,25421,52);
INSERT into deal_team_member (id_deal_team_member,created_date,is_active,last_modified_date,fk_user_created,              fk_user_last_modified,fk_user,fk_grey_list) VALUES             (203,now(),1,now(),null,null,25404,53);
INSERT into deal_team_member (id_deal_team_member,created_date,is_active,last_modified_date,fk_user_created,              fk_user_last_modified,fk_user,fk_grey_list) VALUES             (204,now(),1,now(),null,null,25405,53);
INSERT into deal_team_member (id_deal_team_member,created_date,is_active,last_modified_date,fk_user_created,              fk_user_last_modified,fk_user,fk_grey_list) VALUES             (205,now(),1,now(),null,null,32,53);
INSERT into deal_team_member (id_deal_team_member,created_date,is_active,last_modified_date,fk_user_created,              fk_user_last_modified,fk_user,fk_grey_list) VALUES             (206,now(),1,now(),null,null,20577,53);
INSERT into deal_team_member (id_deal_team_member,created_date,is_active,last_modified_date,fk_user_created,              fk_user_last_modified,fk_user,fk_grey_list) VALUES             (207,now(),1,now(),null,null,30331,53);
INSERT into deal_team_member (id_deal_team_member,created_date,is_active,last_modified_date,fk_user_created,              fk_user_last_modified,fk_user,fk_grey_list) VALUES             (208,now(),1,now(),null,null,30337,53);
INSERT into deal_team_member (id_deal_team_member,created_date,is_active,last_modified_date,fk_user_created,              fk_user_last_modified,fk_user,fk_grey_list) VALUES             (209,now(),1,now(),null,null,33349,53);
INSERT into deal_team_member (id_deal_team_member,created_date,is_active,last_modified_date,fk_user_created,              fk_user_last_modified,fk_user,fk_grey_list) VALUES             (210,now(),1,now(),null,null,30321,53);
INSERT into deal_team_member (id_deal_team_member,created_date,is_active,last_modified_date,fk_user_created,              fk_user_last_modified,fk_user,fk_grey_list) VALUES             (211,now(),1,now(),null,null,33002,53);
INSERT into deal_team_member (id_deal_team_member,created_date,is_active,last_modified_date,fk_user_created,              fk_user_last_modified,fk_user,fk_grey_list) VALUES             (212,now(),1,now(),null,null,33003,53);
INSERT into deal_team_member (id_deal_team_member,created_date,is_active,last_modified_date,fk_user_created,              fk_user_last_modified,fk_user,fk_grey_list) VALUES             (213,now(),1,now(),null,null,33582,35);
