INSERT into grey_list_share_counter (id_grey_list_counter,created_date,is_active,last_modified_date,fk_user_created,              fk_user_last_modified,fk_counter,fk_grey_list) VALUES             (1,now(),1,now(),null,null,157,1);
INSERT into grey_list_share_counter (id_grey_list_counter,created_date,is_active,last_modified_date,fk_user_created,              fk_user_last_modified,fk_counter,fk_grey_list) VALUES             (2,now(),1,now(),null,null,170,1);
INSERT into grey_list_share_counter (id_grey_list_counter,created_date,is_active,last_modified_date,fk_user_created,              fk_user_last_modified,fk_counter,fk_grey_list) VALUES             (4,now(),1,now(),null,null,163,2);
INSERT into grey_list_share_counter (id_grey_list_counter,created_date,is_active,last_modified_date,fk_user_created,              fk_user_last_modified,fk_counter,fk_grey_list) VALUES             (5,now(),1,now(),null,null,178,3);
INSERT into grey_list_share_counter (id_grey_list_counter,created_date,is_active,last_modified_date,fk_user_created,              fk_user_last_modified,fk_counter,fk_grey_list) VALUES             (6,now(),1,now(),null,null,158,4);
INSERT into grey_list_share_counter (id_grey_list_counter,created_date,is_active,last_modified_date,fk_user_created,              fk_user_last_modified,fk_counter,fk_grey_list) VALUES             (7,now(),1,now(),null,null,134,4);
INSERT into grey_list_share_counter (id_grey_list_counter,created_date,is_active,last_modified_date,fk_user_created,              fk_user_last_modified,fk_counter,fk_grey_list) VALUES             (8,now(),1,now(),null,null,172,5);
INSERT into grey_list_share_counter (id_grey_list_counter,created_date,is_active,last_modified_date,fk_user_created,              fk_user_last_modified,fk_counter,fk_grey_list) VALUES             (9,now(),1,now(),null,null,152,6);
INSERT into grey_list_share_counter (id_grey_list_counter,created_date,is_active,last_modified_date,fk_user_created,              fk_user_last_modified,fk_counter,fk_grey_list) VALUES             (10,now(),1,now(),null,null,164,7);
INSERT into grey_list_share_counter (id_grey_list_counter,created_date,is_active,last_modified_date,fk_user_created,              fk_user_last_modified,fk_counter,fk_grey_list) VALUES             (11,now(),1,now(),null,null,192,7);
INSERT into grey_list_share_counter (id_grey_list_counter,created_date,is_active,last_modified_date,fk_user_created,              fk_user_last_modified,fk_counter,fk_grey_list) VALUES             (12,now(),1,now(),null,null,134,8);
INSERT into grey_list_share_counter (id_grey_list_counter,created_date,is_active,last_modified_date,fk_user_created,              fk_user_last_modified,fk_counter,fk_grey_list) VALUES             (13,now(),1,now(),null,null,197,8);
INSERT into grey_list_share_counter (id_grey_list_counter,created_date,is_active,last_modified_date,fk_user_created,              fk_user_last_modified,fk_counter,fk_grey_list) VALUES             (14,now(),1,now(),null,null,229,9);
INSERT into grey_list_share_counter (id_grey_list_counter,created_date,is_active,last_modified_date,fk_user_created,              fk_user_last_modified,fk_counter,fk_grey_list) VALUES             (16,now(),1,now(),null,null,200,10);
INSERT into grey_list_share_counter (id_grey_list_counter,created_date,is_active,last_modified_date,fk_user_created,              fk_user_last_modified,fk_counter,fk_grey_list) VALUES             (17,now(),1,now(),null,null,229,11);
INSERT into grey_list_share_counter (id_grey_list_counter,created_date,is_active,last_modified_date,fk_user_created,              fk_user_last_modified,fk_counter,fk_grey_list) VALUES             (18,now(),1,now(),null,null,182,11);
INSERT into grey_list_share_counter (id_grey_list_counter,created_date,is_active,last_modified_date,fk_user_created,              fk_user_last_modified,fk_counter,fk_grey_list) VALUES             (19,now(),1,now(),null,null,232,11);
INSERT into grey_list_share_counter (id_grey_list_counter,created_date,is_active,last_modified_date,fk_user_created,              fk_user_last_modified,fk_counter,fk_grey_list) VALUES             (20,now(),1,now(),null,null,172,12);
INSERT into grey_list_share_counter (id_grey_list_counter,created_date,is_active,last_modified_date,fk_user_created,              fk_user_last_modified,fk_counter,fk_grey_list) VALUES             (21,now(),1,now(),null,null,1255,13);
INSERT into grey_list_share_counter (id_grey_list_counter,created_date,is_active,last_modified_date,fk_user_created,              fk_user_last_modified,fk_counter,fk_grey_list) VALUES             (22,now(),1,now(),null,null,5136,4);
INSERT into grey_list_share_counter (id_grey_list_counter,created_date,is_active,last_modified_date,fk_user_created,              fk_user_last_modified,fk_counter,fk_grey_list) VALUES             (23,now(),1,now(),null,null,146,14);
INSERT into grey_list_share_counter (id_grey_list_counter,created_date,is_active,last_modified_date,fk_user_created,              fk_user_last_modified,fk_counter,fk_grey_list) VALUES             (24,now(),1,now(),null,null,8970,15);
INSERT into grey_list_share_counter (id_grey_list_counter,created_date,is_active,last_modified_date,fk_user_created,              fk_user_last_modified,fk_counter,fk_grey_list) VALUES             (25,now(),1,now(),null,null,13684,16);
INSERT into grey_list_share_counter (id_grey_list_counter,created_date,is_active,last_modified_date,fk_user_created,              fk_user_last_modified,fk_counter,fk_grey_list) VALUES             (26,now(),1,now(),null,null,1305,17);
INSERT into grey_list_share_counter (id_grey_list_counter,created_date,is_active,last_modified_date,fk_user_created,              fk_user_last_modified,fk_counter,fk_grey_list) VALUES             (27,now(),1,now(),null,null,6230,18);
INSERT into grey_list_share_counter (id_grey_list_counter,created_date,is_active,last_modified_date,fk_user_created,              fk_user_last_modified,fk_counter,fk_grey_list) VALUES             (28,now(),1,now(),null,null,1272,19);
INSERT into grey_list_share_counter (id_grey_list_counter,created_date,is_active,last_modified_date,fk_user_created,              fk_user_last_modified,fk_counter,fk_grey_list) VALUES             (29,now(),1,now(),null,null,306,20);
INSERT into grey_list_share_counter (id_grey_list_counter,created_date,is_active,last_modified_date,fk_user_created,              fk_user_last_modified,fk_counter,fk_grey_list) VALUES             (30,now(),1,now(),null,null,14272,21);
INSERT into grey_list_share_counter (id_grey_list_counter,created_date,is_active,last_modified_date,fk_user_created,              fk_user_last_modified,fk_counter,fk_grey_list) VALUES             (31,now(),1,now(),null,null,231,22);
INSERT into grey_list_share_counter (id_grey_list_counter,created_date,is_active,last_modified_date,fk_user_created,              fk_user_last_modified,fk_counter,fk_grey_list) VALUES             (32,now(),1,now(),null,null,217,23);
INSERT into grey_list_share_counter (id_grey_list_counter,created_date,is_active,last_modified_date,fk_user_created,              fk_user_last_modified,fk_counter,fk_grey_list) VALUES             (33,now(),1,now(),null,null,167,24);
INSERT into grey_list_share_counter (id_grey_list_counter,created_date,is_active,last_modified_date,fk_user_created,              fk_user_last_modified,fk_counter,fk_grey_list) VALUES             (34,now(),1,now(),null,null,213,25);
INSERT into grey_list_share_counter (id_grey_list_counter,created_date,is_active,last_modified_date,fk_user_created,              fk_user_last_modified,fk_counter,fk_grey_list) VALUES             (35,now(),1,now(),null,null,135,26);
INSERT into grey_list_share_counter (id_grey_list_counter,created_date,is_active,last_modified_date,fk_user_created,              fk_user_last_modified,fk_counter,fk_grey_list) VALUES             (36,now(),1,now(),null,null,167,27);
INSERT into grey_list_share_counter (id_grey_list_counter,created_date,is_active,last_modified_date,fk_user_created,              fk_user_last_modified,fk_counter,fk_grey_list) VALUES             (37,now(),1,now(),null,null,5148,28);
INSERT into grey_list_share_counter (id_grey_list_counter,created_date,is_active,last_modified_date,fk_user_created,              fk_user_last_modified,fk_counter,fk_grey_list) VALUES             (38,now(),1,now(),null,null,230,29);
INSERT into grey_list_share_counter (id_grey_list_counter,created_date,is_active,last_modified_date,fk_user_created,              fk_user_last_modified,fk_counter,fk_grey_list) VALUES             (39,now(),1,now(),null,null,1299,30);
INSERT into grey_list_share_counter (id_grey_list_counter,created_date,is_active,last_modified_date,fk_user_created,              fk_user_last_modified,fk_counter,fk_grey_list) VALUES             (40,now(),1,now(),null,null,169,31);
INSERT into grey_list_share_counter (id_grey_list_counter,created_date,is_active,last_modified_date,fk_user_created,              fk_user_last_modified,fk_counter,fk_grey_list) VALUES             (41,now(),1,now(),null,null,3068,32);
INSERT into grey_list_share_counter (id_grey_list_counter,created_date,is_active,last_modified_date,fk_user_created,              fk_user_last_modified,fk_counter,fk_grey_list) VALUES             (42,now(),1,now(),null,null,8964,32);
INSERT into grey_list_share_counter (id_grey_list_counter,created_date,is_active,last_modified_date,fk_user_created,              fk_user_last_modified,fk_counter,fk_grey_list) VALUES             (43,now(),1,now(),null,null,231,33);
INSERT into grey_list_share_counter (id_grey_list_counter,created_date,is_active,last_modified_date,fk_user_created,              fk_user_last_modified,fk_counter,fk_grey_list) VALUES             (44,now(),1,now(),null,null,193,34);
INSERT into grey_list_share_counter (id_grey_list_counter,created_date,is_active,last_modified_date,fk_user_created,              fk_user_last_modified,fk_counter,fk_grey_list) VALUES             (46,now(),1,now(),null,null,220,36);
INSERT into grey_list_share_counter (id_grey_list_counter,created_date,is_active,last_modified_date,fk_user_created,              fk_user_last_modified,fk_counter,fk_grey_list) VALUES             (47,now(),1,now(),null,null,5149,37);
INSERT into grey_list_share_counter (id_grey_list_counter,created_date,is_active,last_modified_date,fk_user_created,              fk_user_last_modified,fk_counter,fk_grey_list) VALUES             (48,now(),1,now(),null,null,1274,38);
INSERT into grey_list_share_counter (id_grey_list_counter,created_date,is_active,last_modified_date,fk_user_created,              fk_user_last_modified,fk_counter,fk_grey_list) VALUES             (49,now(),1,now(),null,null,1290,39);
INSERT into grey_list_share_counter (id_grey_list_counter,created_date,is_active,last_modified_date,fk_user_created,              fk_user_last_modified,fk_counter,fk_grey_list) VALUES             (51,now(),1,now(),null,null,167,40);
INSERT into grey_list_share_counter (id_grey_list_counter,created_date,is_active,last_modified_date,fk_user_created,              fk_user_last_modified,fk_counter,fk_grey_list) VALUES             (52,now(),1,now(),null,null,194,41);
INSERT into grey_list_share_counter (id_grey_list_counter,created_date,is_active,last_modified_date,fk_user_created,              fk_user_last_modified,fk_counter,fk_grey_list) VALUES             (53,now(),1,now(),null,null,1255,19);
INSERT into grey_list_share_counter (id_grey_list_counter,created_date,is_active,last_modified_date,fk_user_created,              fk_user_last_modified,fk_counter,fk_grey_list) VALUES             (55,now(),1,now(),null,null,6252,35);
INSERT into grey_list_share_counter (id_grey_list_counter,created_date,is_active,last_modified_date,fk_user_created,              fk_user_last_modified,fk_counter,fk_grey_list) VALUES             (56,now(),1,now(),null,null,8829,35);
INSERT into grey_list_share_counter (id_grey_list_counter,created_date,is_active,last_modified_date,fk_user_created,              fk_user_last_modified,fk_counter,fk_grey_list) VALUES             (57,now(),1,now(),null,null,1272,42);
INSERT into grey_list_share_counter (id_grey_list_counter,created_date,is_active,last_modified_date,fk_user_created,              fk_user_last_modified,fk_counter,fk_grey_list) VALUES             (58,now(),1,now(),null,null,1265,43);
INSERT into grey_list_share_counter (id_grey_list_counter,created_date,is_active,last_modified_date,fk_user_created,              fk_user_last_modified,fk_counter,fk_grey_list) VALUES             (59,now(),1,now(),null,null,1250,44);
INSERT into grey_list_share_counter (id_grey_list_counter,created_date,is_active,last_modified_date,fk_user_created,              fk_user_last_modified,fk_counter,fk_grey_list) VALUES             (60,now(),1,now(),null,null,1275,45);
INSERT into grey_list_share_counter (id_grey_list_counter,created_date,is_active,last_modified_date,fk_user_created,              fk_user_last_modified,fk_counter,fk_grey_list) VALUES             (61,now(),1,now(),null,null,8966,46);
INSERT into grey_list_share_counter (id_grey_list_counter,created_date,is_active,last_modified_date,fk_user_created,              fk_user_last_modified,fk_counter,fk_grey_list) VALUES             (62,now(),1,now(),null,null,14248,47);
INSERT into grey_list_share_counter (id_grey_list_counter,created_date,is_active,last_modified_date,fk_user_created,              fk_user_last_modified,fk_counter,fk_grey_list) VALUES             (63,now(),1,now(),null,null,1250,48);
INSERT into grey_list_share_counter (id_grey_list_counter,created_date,is_active,last_modified_date,fk_user_created,              fk_user_last_modified,fk_counter,fk_grey_list) VALUES             (64,now(),1,now(),null,null,1272,49);
INSERT into grey_list_share_counter (id_grey_list_counter,created_date,is_active,last_modified_date,fk_user_created,              fk_user_last_modified,fk_counter,fk_grey_list) VALUES             (65,now(),1,now(),null,null,1273,50);
INSERT into grey_list_share_counter (id_grey_list_counter,created_date,is_active,last_modified_date,fk_user_created,              fk_user_last_modified,fk_counter,fk_grey_list) VALUES             (66,now(),1,now(),null,null,24952,51);
INSERT into grey_list_share_counter (id_grey_list_counter,created_date,is_active,last_modified_date,fk_user_created,              fk_user_last_modified,fk_counter,fk_grey_list) VALUES             (67,now(),1,now(),null,null,1250,40);
INSERT into grey_list_share_counter (id_grey_list_counter,created_date,is_active,last_modified_date,fk_user_created,              fk_user_last_modified,fk_counter,fk_grey_list) VALUES             (68,now(),1,now(),null,null,1305,52);
INSERT into grey_list_share_counter (id_grey_list_counter,created_date,is_active,last_modified_date,fk_user_created,              fk_user_last_modified,fk_counter,fk_grey_list) VALUES             (69,now(),1,now(),null,null,240,53);
