INSERT into public_holiday (id_public_holiday,created_date,is_active,last_modified_date,description,holiday_date,fk_user_created,fk_user_last_modified,fk_stock_exchange) VALUES             (19,now(),1,now(),'Hong Kong Day','2014-12-04 00:00:00',null,null,55);
INSERT into public_holiday (id_public_holiday,created_date,is_active,last_modified_date,description,holiday_date,fk_user_created,fk_user_last_modified,fk_stock_exchange) VALUES             (30,now(),1,now(),'King Kong Day','2014-12-29 00:00:00',null,null,55);
INSERT into public_holiday (id_public_holiday,created_date,is_active,last_modified_date,description,holiday_date,fk_user_created,fk_user_last_modified,fk_stock_exchange) VALUES             (16,now(),1,now(),'Sad Day','2014-11-28 00:00:00',null,null,60);
INSERT into public_holiday (id_public_holiday,created_date,is_active,last_modified_date,description,holiday_date,fk_user_created,fk_user_last_modified,fk_stock_exchange) VALUES             (35,now(),1,now(),'Hari RAya','2015-09-24 00:00:00',null,null,61);
INSERT into public_holiday (id_public_holiday,created_date,is_active,last_modified_date,description,holiday_date,fk_user_created,fk_user_last_modified,fk_stock_exchange) VALUES             (32,now(),1,now(),'test','2015-01-29 00:00:00',null,null,64);
INSERT into public_holiday (id_public_holiday,created_date,is_active,last_modified_date,description,holiday_date,fk_user_created,fk_user_last_modified,fk_stock_exchange) VALUES             (27,now(),1,now(),'New Day','2014-01-12 00:00:00',null,null,66);
INSERT into public_holiday (id_public_holiday,created_date,is_active,last_modified_date,description,holiday_date,fk_user_created,fk_user_last_modified,fk_stock_exchange) VALUES             (21,now(),1,now(),'Rainy Day','2014-11-28 00:00:00',null,null,80);
INSERT into public_holiday (id_public_holiday,created_date,is_active,last_modified_date,description,holiday_date,fk_user_created,fk_user_last_modified,fk_stock_exchange) VALUES             (25,now(),1,now(),'JKL','2014-01-12 00:00:00',null,null,80);
INSERT into public_holiday (id_public_holiday,created_date,is_active,last_modified_date,description,holiday_date,fk_user_created,fk_user_last_modified,fk_stock_exchange) VALUES             (20,now(),1,now(),'Malaysia Day','2014-11-28 00:00:00',null,null,81);
INSERT into public_holiday (id_public_holiday,created_date,is_active,last_modified_date,description,holiday_date,fk_user_created,fk_user_last_modified,fk_stock_exchange) VALUES             (26,now(),1,now(),'Kim Chi Day','2014-01-12 00:00:00',null,null,82);
INSERT into public_holiday (id_public_holiday,created_date,is_active,last_modified_date,description,holiday_date,fk_user_created,fk_user_last_modified,fk_stock_exchange) VALUES             (33,now(),1,now(),'KSE Holiday1','2015-02-11 00:00:00',null,null,82);
INSERT into public_holiday (id_public_holiday,created_date,is_active,last_modified_date,description,holiday_date,fk_user_created,fk_user_last_modified,fk_stock_exchange) VALUES             (31,now(),1,now(),'test','2015-01-09 00:00:00',null,null,84);
INSERT into public_holiday (id_public_holiday,created_date,is_active,last_modified_date,description,holiday_date,fk_user_created,fk_user_last_modified,fk_stock_exchange) VALUES             (24,now(),1,now(),'GHI','2014-12-04 00:00:00',null,null,85);
INSERT into public_holiday (id_public_holiday,created_date,is_active,last_modified_date,description,holiday_date,fk_user_created,fk_user_last_modified,fk_stock_exchange) VALUES             (34,now(),1,now(),'Pinky Day','2015-08-26 00:00:00',null,null,88);
