INSERT into investment_type (id_investment_type,name) VALUES             (1,'Shares');
INSERT into investment_type (id_investment_type,name) VALUES             (2,'Warrants');
INSERT into investment_type (id_investment_type,name) VALUES             (3,'Options');
INSERT into investment_type (id_investment_type,name) VALUES             (4,'Equity Linked Notes');
INSERT into investment_type (id_investment_type,name) VALUES             (5,'Rights Shares');
INSERT into investment_type (id_investment_type,name) VALUES             (6,'Bonus Shares');
